xof 0302txt 0064
template Header {
 <3D82AB43-62DA-11cf-AB39-0020AF71E433>
 WORD major;
 WORD minor;
 DWORD flags;
}

template Vector {
 <3D82AB5E-62DA-11cf-AB39-0020AF71E433>
 FLOAT x;
 FLOAT y;
 FLOAT z;
}

template Coords2d {
 <F6F23F44-7686-11cf-8F52-0040333594A3>
 FLOAT u;
 FLOAT v;
}

template Matrix4x4 {
 <F6F23F45-7686-11cf-8F52-0040333594A3>
 array FLOAT matrix[16];
}

template ColorRGBA {
 <35FF44E0-6C7C-11cf-8F52-0040333594A3>
 FLOAT red;
 FLOAT green;
 FLOAT blue;
 FLOAT alpha;
}

template ColorRGB {
 <D3E16E81-7835-11cf-8F52-0040333594A3>
 FLOAT red;
 FLOAT green;
 FLOAT blue;
}

template IndexedColor {
 <1630B820-7842-11cf-8F52-0040333594A3>
 DWORD index;
 ColorRGBA indexColor;
}

template Boolean {
 <4885AE61-78E8-11cf-8F52-0040333594A3>
 WORD truefalse;
}

template Boolean2d {
 <4885AE63-78E8-11cf-8F52-0040333594A3>
 Boolean u;
 Boolean v;
}

template MaterialWrap {
 <4885AE60-78E8-11cf-8F52-0040333594A3>
 Boolean u;
 Boolean v;
}

template TextureFilename {
 <A42790E1-7810-11cf-8F52-0040333594A3>
 STRING filename;
}

template Material {
 <3D82AB4D-62DA-11cf-AB39-0020AF71E433>
 ColorRGBA faceColor;
 FLOAT power;
 ColorRGB specularColor;
 ColorRGB emissiveColor;
 [...]
}

template MeshFace {
 <3D82AB5F-62DA-11cf-AB39-0020AF71E433>
 DWORD nFaceVertexIndices;
 array DWORD faceVertexIndices[nFaceVertexIndices];
}

template MeshFaceWraps {
 <4885AE62-78E8-11cf-8F52-0040333594A3>
 DWORD nFaceWrapValues;
 Boolean2d faceWrapValues;
}

template MeshTextureCoords {
 <F6F23F40-7686-11cf-8F52-0040333594A3>
 DWORD nTextureCoords;
 array Coords2d textureCoords[nTextureCoords];
}

template MeshMaterialList {
 <F6F23F42-7686-11cf-8F52-0040333594A3>
 DWORD nMaterials;
 DWORD nFaceIndexes;
 array DWORD faceIndexes[nFaceIndexes];
 [Material]
}

template MeshNormals {
 <F6F23F43-7686-11cf-8F52-0040333594A3>
 DWORD nNormals;
 array Vector normals[nNormals];
 DWORD nFaceNormals;
 array MeshFace faceNormals[nFaceNormals];
}

template MeshVertexColors {
 <1630B821-7842-11cf-8F52-0040333594A3>
 DWORD nVertexColors;
 array IndexedColor vertexColors[nVertexColors];
}

template Mesh {
 <3D82AB44-62DA-11cf-AB39-0020AF71E433>
 DWORD nVertices;
 array Vector vertices[nVertices];
 DWORD nFaces;
 array MeshFace faces[nFaces];
 [...]
}

Header{
1;
0;
1;
}

Mesh {
 301;
 0.00000;14.81240;-227.71950;,
 70.36910;14.81240;-216.57420;,
 73.59980;5.49130;-226.51720;,
 0.00000;5.49130;-238.17410;,
 70.36910;14.81240;-216.57420;,
 133.85001;14.81240;-184.22900;,
 139.99530;5.49130;-192.68680;,
 73.59980;5.49130;-226.51720;,
 133.85001;14.81240;-184.22900;,
 184.22900;14.81240;-133.85001;,
 192.68680;5.49130;-139.99530;,
 139.99530;5.49130;-192.68680;,
 184.22900;14.81240;-133.85001;,
 216.57420;14.81240;-70.36910;,
 226.51720;5.49130;-73.59980;,
 192.68680;5.49130;-139.99530;,
 216.57420;14.81240;-70.36910;,
 227.71950;14.81240;0.00000;,
 238.17410;5.49130;0.00000;,
 226.51720;5.49130;-73.59980;,
 227.71950;14.81240;0.00000;,
 216.57420;14.81240;70.36910;,
 226.51720;5.49130;73.59980;,
 238.17410;5.49130;0.00000;,
 216.57420;14.81240;70.36910;,
 184.22900;14.81240;133.85001;,
 192.68680;5.49130;139.99530;,
 226.51720;5.49130;73.59980;,
 184.22900;14.81240;133.85001;,
 133.85001;14.81240;184.22900;,
 139.99530;5.49130;192.68680;,
 192.68680;5.49130;139.99530;,
 133.85001;14.81240;184.22900;,
 70.36910;14.81240;216.57420;,
 73.59980;5.49130;226.51720;,
 139.99530;5.49130;192.68680;,
 70.36910;14.81240;216.57420;,
 0.00000;14.81240;227.71950;,
 0.00000;5.49130;238.17410;,
 73.59980;5.49130;226.51720;,
 0.00000;14.81240;227.71950;,
 -70.36910;14.81240;216.57410;,
 -73.59980;5.49130;226.51720;,
 0.00000;5.49130;238.17410;,
 -70.36910;14.81240;216.57410;,
 -133.85030;14.81240;184.22900;,
 -139.99530;5.49130;192.68680;,
 -73.59980;5.49130;226.51720;,
 -133.85030;14.81240;184.22900;,
 -184.22900;14.81240;133.85001;,
 -192.68710;5.49130;139.99510;,
 -139.99530;5.49130;192.68680;,
 -184.22900;14.81240;133.85001;,
 -216.57420;14.81240;70.36900;,
 -226.51720;5.49130;73.59960;,
 -192.68710;5.49130;139.99510;,
 -216.57420;14.81240;70.36900;,
 -227.71950;14.81240;-0.00020;,
 -238.17410;5.49130;-0.00020;,
 -226.51720;5.49130;73.59960;,
 -227.71950;14.81240;-0.00020;,
 -216.57410;14.81240;-70.36940;,
 -226.51720;5.49130;-73.60010;,
 -238.17410;5.49130;-0.00020;,
 -216.57410;14.81240;-70.36940;,
 -184.22881;14.81240;-133.85030;,
 -192.68660;5.49130;-139.99530;,
 -226.51720;5.49130;-73.60010;,
 -184.22881;14.81240;-133.85030;,
 -133.84979;14.81240;-184.22920;,
 -139.99510;5.49130;-192.68710;,
 -192.68660;5.49130;-139.99530;,
 -133.84979;14.81240;-184.22920;,
 -70.36900;14.81240;-216.57420;,
 -73.59960;5.49130;-226.51720;,
 -139.99510;5.49130;-192.68710;,
 -70.36900;14.81240;-216.57420;,
 0.00000;14.81240;-227.71950;,
 0.00000;5.49130;-238.17410;,
 -73.59960;5.49130;-226.51720;,
 0.00000;16.79510;-181.93950;,
 56.22230;16.79510;-173.03500;,
 70.36910;14.81240;-216.57420;,
 0.00000;14.81240;-227.71950;,
 56.22230;16.79510;-173.03500;,
 106.94140;16.79510;-147.19209;,
 133.85001;14.81240;-184.22900;,
 70.36910;14.81240;-216.57420;,
 106.94140;16.79510;-147.19209;,
 147.19209;16.79510;-106.94140;,
 184.22900;14.81240;-133.85001;,
 133.85001;14.81240;-184.22900;,
 147.19209;16.79510;-106.94140;,
 173.03500;16.79510;-56.22230;,
 216.57420;14.81240;-70.36910;,
 184.22900;14.81240;-133.85001;,
 173.03500;16.79510;-56.22230;,
 181.93950;16.79510;0.00000;,
 227.71950;14.81240;0.00000;,
 216.57420;14.81240;-70.36910;,
 181.93950;16.79510;0.00000;,
 173.03500;16.79510;56.22230;,
 216.57420;14.81240;70.36910;,
 227.71950;14.81240;0.00000;,
 173.03500;16.79510;56.22230;,
 147.19209;16.79510;106.94140;,
 184.22900;14.81240;133.85001;,
 216.57420;14.81240;70.36910;,
 147.19209;16.79510;106.94140;,
 106.94140;16.79510;147.19209;,
 133.85001;14.81240;184.22900;,
 184.22900;14.81240;133.85001;,
 106.94140;16.79510;147.19209;,
 56.22230;16.79510;173.03500;,
 70.36910;14.81240;216.57420;,
 133.85001;14.81240;184.22900;,
 56.22230;16.79510;173.03500;,
 0.00000;16.79510;181.93950;,
 0.00000;14.81240;227.71950;,
 70.36910;14.81240;216.57420;,
 0.00000;16.79510;181.93950;,
 -56.22260;16.79510;173.03500;,
 -70.36910;14.81240;216.57410;,
 0.00000;14.81240;227.71950;,
 -56.22260;16.79510;173.03500;,
 -106.94140;16.79510;147.19209;,
 -133.85030;14.81240;184.22900;,
 -70.36910;14.81240;216.57410;,
 -106.94140;16.79510;147.19209;,
 -147.19209;16.79510;106.94140;,
 -184.22900;14.81240;133.85001;,
 -133.85030;14.81240;184.22900;,
 -147.19209;16.79510;106.94140;,
 -173.03500;16.79510;56.22230;,
 -216.57420;14.81240;70.36900;,
 -184.22900;14.81240;133.85001;,
 -173.03500;16.79510;56.22230;,
 -181.93950;16.79510;-0.00020;,
 -227.71950;14.81240;-0.00020;,
 -216.57420;14.81240;70.36900;,
 -181.93950;16.79510;-0.00020;,
 -173.03500;16.79510;-56.22260;,
 -216.57410;14.81240;-70.36940;,
 -227.71950;14.81240;-0.00020;,
 -173.03500;16.79510;-56.22260;,
 -147.19189;16.79510;-106.94160;,
 -184.22881;14.81240;-133.85030;,
 -216.57410;14.81240;-70.36940;,
 -147.19189;16.79510;-106.94160;,
 -106.94120;16.79510;-147.19250;,
 -133.84979;14.81240;-184.22920;,
 -184.22881;14.81240;-133.85030;,
 -106.94120;16.79510;-147.19250;,
 -56.22210;16.79510;-173.03500;,
 -70.36900;14.81240;-216.57420;,
 -133.84979;14.81240;-184.22920;,
 -56.22210;16.79510;-173.03500;,
 0.00000;16.79510;-181.93950;,
 0.00000;14.81240;-227.71950;,
 -70.36900;14.81240;-216.57420;,
 0.00000;0.00000;-158.22591;,
 48.89450;0.00000;-150.48190;,
 56.22230;16.79510;-173.03500;,
 0.00000;16.79510;-181.93950;,
 0.00000;0.00000;-0.00000;,
 48.89450;0.00000;-150.48190;,
 0.00000;0.00000;-158.22591;,
 48.89450;0.00000;-150.48190;,
 93.00290;0.00000;-128.00751;,
 106.94140;16.79510;-147.19209;,
 56.22230;16.79510;-173.03500;,
 93.00290;0.00000;-128.00751;,
 93.00290;0.00000;-128.00751;,
 128.00751;0.00000;-93.00290;,
 147.19209;16.79510;-106.94140;,
 106.94140;16.79510;-147.19209;,
 128.00751;0.00000;-93.00290;,
 128.00751;0.00000;-93.00290;,
 150.48190;0.00000;-48.89440;,
 173.03500;16.79510;-56.22230;,
 147.19209;16.79510;-106.94140;,
 150.48190;0.00000;-48.89440;,
 150.48190;0.00000;-48.89440;,
 158.22591;0.00000;-0.00000;,
 181.93950;16.79510;0.00000;,
 173.03500;16.79510;-56.22230;,
 158.22591;0.00000;-0.00000;,
 158.22591;0.00000;-0.00000;,
 150.48190;-0.00000;48.89450;,
 173.03500;16.79510;56.22230;,
 181.93950;16.79510;0.00000;,
 150.48190;-0.00000;48.89450;,
 150.48190;-0.00000;48.89450;,
 128.00751;-0.00000;93.00290;,
 147.19209;16.79510;106.94140;,
 173.03500;16.79510;56.22230;,
 128.00751;-0.00000;93.00290;,
 128.00751;-0.00000;93.00290;,
 93.00290;-0.00000;128.00751;,
 106.94140;16.79510;147.19209;,
 147.19209;16.79510;106.94140;,
 93.00290;-0.00000;128.00751;,
 93.00290;-0.00000;128.00751;,
 48.89440;-0.00000;150.48190;,
 56.22230;16.79510;173.03500;,
 106.94140;16.79510;147.19209;,
 48.89440;-0.00000;150.48190;,
 48.89440;-0.00000;150.48190;,
 0.00000;-0.00000;158.22591;,
 0.00000;16.79510;181.93950;,
 56.22230;16.79510;173.03500;,
 0.00000;-0.00000;158.22591;,
 0.00000;-0.00000;158.22591;,
 -48.89450;0.00000;150.48190;,
 -56.22260;16.79510;173.03500;,
 0.00000;16.79510;181.93950;,
 -48.89450;0.00000;150.48190;,
 -48.89450;0.00000;150.48190;,
 -93.00290;0.00000;128.00729;,
 -106.94140;16.79510;147.19209;,
 -56.22260;16.79510;173.03500;,
 -93.00290;0.00000;128.00729;,
 -93.00290;0.00000;128.00729;,
 -128.00751;0.00000;93.00290;,
 -147.19209;16.79510;106.94140;,
 -106.94140;16.79510;147.19209;,
 -128.00751;0.00000;93.00290;,
 -128.00751;0.00000;93.00290;,
 -150.48190;0.00000;48.89440;,
 -173.03500;16.79510;56.22230;,
 -147.19209;16.79510;106.94140;,
 -150.48190;0.00000;48.89440;,
 -150.48190;0.00000;48.89440;,
 -158.22591;0.00000;-0.00020;,
 -181.93950;16.79510;-0.00020;,
 -173.03500;16.79510;56.22230;,
 -158.22591;0.00000;-0.00020;,
 -158.22591;0.00000;-0.00020;,
 -150.48190;0.00000;-48.89450;,
 -173.03500;16.79510;-56.22260;,
 -181.93950;16.79510;-0.00020;,
 -150.48190;0.00000;-48.89450;,
 -150.48190;0.00000;-48.89450;,
 -128.00729;0.00000;-93.00290;,
 -147.19189;16.79510;-106.94160;,
 -173.03500;16.79510;-56.22260;,
 -128.00729;0.00000;-93.00290;,
 -128.00729;0.00000;-93.00290;,
 -93.00270;0.00000;-128.00751;,
 -106.94120;16.79510;-147.19250;,
 -147.19189;16.79510;-106.94160;,
 -93.00270;0.00000;-128.00751;,
 -93.00270;0.00000;-128.00751;,
 -48.89440;0.00000;-150.48190;,
 -56.22210;16.79510;-173.03500;,
 -106.94120;16.79510;-147.19250;,
 -48.89440;0.00000;-150.48190;,
 -48.89440;0.00000;-150.48190;,
 0.00000;0.00000;-158.22591;,
 0.00000;16.79510;-181.93950;,
 -56.22210;16.79510;-173.03500;,
 73.59980;-22.00100;-226.51720;,
 0.00000;-22.00100;-238.17410;,
 139.99530;-22.00100;-192.68680;,
 73.59980;-22.00100;-226.51720;,
 192.68680;-22.00100;-139.99530;,
 139.99530;-22.00100;-192.68680;,
 226.51720;-22.00100;-73.59980;,
 192.68680;-22.00100;-139.99530;,
 238.17410;-22.00100;-0.00000;,
 226.51720;-22.00100;-73.59980;,
 226.51720;-22.00100;73.59980;,
 238.17410;-22.00100;-0.00000;,
 192.68680;-22.00100;139.99530;,
 226.51720;-22.00100;73.59980;,
 139.99530;-22.00100;192.68680;,
 192.68680;-22.00100;139.99530;,
 73.59980;-22.00100;226.51720;,
 139.99530;-22.00100;192.68680;,
 0.00000;-22.00100;238.17410;,
 73.59980;-22.00100;226.51720;,
 -73.59980;-22.00100;226.51720;,
 0.00000;-22.00100;238.17410;,
 -139.99530;-22.00100;192.68680;,
 -73.59980;-22.00100;226.51720;,
 -192.68710;-22.00100;139.99510;,
 -139.99530;-22.00100;192.68680;,
 -226.51720;-22.00100;73.59960;,
 -192.68710;-22.00100;139.99510;,
 -238.17410;-22.00100;-0.00020;,
 -226.51720;-22.00100;73.59960;,
 -226.51720;-22.00100;-73.60010;,
 -238.17410;-22.00100;-0.00020;,
 -192.68660;-22.00100;-139.99530;,
 -226.51720;-22.00100;-73.60010;,
 -139.99510;-22.00100;-192.68710;,
 -192.68660;-22.00100;-139.99530;,
 -73.59960;-22.00100;-226.51720;,
 -139.99510;-22.00100;-192.68710;,
 0.00000;-22.00100;-238.17410;,
 -73.59960;-22.00100;-226.51720;;
 
 100;
 4;0,1,2,3;,
 4;4,5,6,7;,
 4;8,9,10,11;,
 4;12,13,14,15;,
 4;16,17,18,19;,
 4;20,21,22,23;,
 4;24,25,26,27;,
 4;28,29,30,31;,
 4;32,33,34,35;,
 4;36,37,38,39;,
 4;40,41,42,43;,
 4;44,45,46,47;,
 4;48,49,50,51;,
 4;52,53,54,55;,
 4;56,57,58,59;,
 4;60,61,62,63;,
 4;64,65,66,67;,
 4;68,69,70,71;,
 4;72,73,74,75;,
 4;76,77,78,79;,
 4;80,81,82,83;,
 4;84,85,86,87;,
 4;88,89,90,91;,
 4;92,93,94,95;,
 4;96,97,98,99;,
 4;100,101,102,103;,
 4;104,105,106,107;,
 4;108,109,110,111;,
 4;112,113,114,115;,
 4;116,117,118,119;,
 4;120,121,122,123;,
 4;124,125,126,127;,
 4;128,129,130,131;,
 4;132,133,134,135;,
 4;136,137,138,139;,
 4;140,141,142,143;,
 4;144,145,146,147;,
 4;148,149,150,151;,
 4;152,153,154,155;,
 4;156,157,158,159;,
 4;160,161,162,163;,
 3;164,165,166;,
 4;167,168,169,170;,
 3;164,171,165;,
 4;172,173,174,175;,
 3;164,176,171;,
 4;177,178,179,180;,
 3;164,181,176;,
 4;182,183,184,185;,
 3;164,186,181;,
 4;187,188,189,190;,
 3;164,191,186;,
 4;192,193,194,195;,
 3;164,196,191;,
 4;197,198,199,200;,
 3;164,201,196;,
 4;202,203,204,205;,
 3;164,206,201;,
 4;207,208,209,210;,
 3;164,211,206;,
 4;212,213,214,215;,
 3;164,216,211;,
 4;217,218,219,220;,
 3;164,221,216;,
 4;222,223,224,225;,
 3;164,226,221;,
 4;227,228,229,230;,
 3;164,231,226;,
 4;232,233,234,235;,
 3;164,236,231;,
 4;237,238,239,240;,
 3;164,241,236;,
 4;242,243,244,245;,
 3;164,246,241;,
 4;247,248,249,250;,
 3;164,251,246;,
 4;252,253,254,255;,
 3;164,256,251;,
 4;257,258,259,260;,
 3;164,166,256;,
 4;261,262,78,7;,
 4;263,264,2,11;,
 4;265,266,6,15;,
 4;267,268,10,19;,
 4;269,270,14,23;,
 4;271,272,18,27;,
 4;273,274,22,31;,
 4;275,276,26,35;,
 4;277,278,30,39;,
 4;279,280,34,43;,
 4;281,282,38,47;,
 4;283,284,42,51;,
 4;285,286,46,55;,
 4;287,288,50,59;,
 4;289,290,54,63;,
 4;291,292,58,67;,
 4;293,294,62,71;,
 4;295,296,66,75;,
 4;297,298,70,79;,
 4;299,300,74,3;;
 
 MeshMaterialList {
  1;
  100;
  0,
  0,
  0,
  0,
  0,
  0,
  0,
  0,
  0,
  0,
  0,
  0,
  0,
  0,
  0,
  0,
  0,
  0,
  0,
  0,
  0,
  0,
  0,
  0,
  0,
  0,
  0,
  0,
  0,
  0,
  0,
  0,
  0,
  0,
  0,
  0,
  0,
  0,
  0,
  0,
  0,
  0,
  0,
  0,
  0,
  0,
  0,
  0,
  0,
  0,
  0,
  0,
  0,
  0,
  0,
  0,
  0,
  0,
  0,
  0,
  0,
  0,
  0,
  0,
  0,
  0,
  0,
  0,
  0,
  0,
  0,
  0,
  0,
  0,
  0,
  0,
  0,
  0,
  0,
  0,
  0,
  0,
  0,
  0,
  0,
  0,
  0,
  0,
  0,
  0,
  0,
  0,
  0,
  0,
  0,
  0,
  0,
  0,
  0,
  0;;
  Material {
   0.800000;0.800000;0.800000;1.000000;;
   5.000000;
   0.000000;0.000000;0.000000;;
   0.000000;0.000000;0.000000;;
   TextureFilename {
    "Texture_2.png";
   }
  }
 }
 MeshNormals {
  101;
  -0.000000;0.926899;-0.375310;,
  0.115977;0.926899;-0.356941;,
  0.220602;0.926899;-0.303632;,
  0.303632;0.926899;-0.220602;,
  0.356941;0.926899;-0.115977;,
  0.375310;0.926899;0.000000;,
  0.356941;0.926899;0.115977;,
  0.303632;0.926899;0.220602;,
  0.220602;0.926899;0.303632;,
  0.115977;0.926899;0.356941;,
  -0.000000;0.926900;0.375309;,
  -0.115977;0.926899;0.356941;,
  -0.220602;0.926899;0.303633;,
  -0.303632;0.926899;0.220602;,
  -0.356941;0.926900;0.115976;,
  -0.375310;0.926900;-0.000000;,
  -0.356940;0.926899;-0.115978;,
  -0.303633;0.926899;-0.220603;,
  -0.220602;0.926899;-0.303632;,
  -0.115977;0.926899;-0.356941;,
  -0.000000;0.410375;-0.911917;,
  0.281798;0.410375;-0.867284;,
  0.536012;0.410375;-0.737756;,
  0.737756;0.410375;-0.536012;,
  0.867284;0.410375;-0.281798;,
  0.911917;0.410375;0.000000;,
  0.867284;0.410375;0.281798;,
  0.737756;0.410375;0.536012;,
  0.536012;0.410375;0.737756;,
  0.281798;0.410375;0.867284;,
  -0.000000;0.410376;0.911916;,
  -0.281798;0.410376;0.867284;,
  -0.536012;0.410375;0.737756;,
  -0.737756;0.410376;0.536011;,
  -0.867284;0.410376;0.281796;,
  -0.911916;0.410376;0.000000;,
  -0.867284;0.410376;-0.281799;,
  -0.737756;0.410374;-0.536013;,
  -0.536012;0.410375;-0.737756;,
  -0.281797;0.410376;-0.867285;,
  0.000000;0.959445;0.281895;,
  -0.087110;0.959445;0.268098;,
  -0.165694;0.959445;0.228058;,
  -0.228058;0.959445;0.165694;,
  -0.268098;0.959445;0.087110;,
  -0.281895;0.959445;0.000000;,
  -0.268098;0.959445;-0.087110;,
  -0.228058;0.959445;-0.165694;,
  -0.165694;0.959445;-0.228058;,
  -0.087110;0.959445;-0.268098;,
  -0.000000;0.959445;-0.281895;,
  0.087110;0.959446;-0.268097;,
  0.165694;0.959445;-0.228057;,
  0.228058;0.959445;-0.165694;,
  0.268098;0.959445;-0.087110;,
  0.281895;0.959445;0.000000;,
  0.268097;0.959446;0.087110;,
  0.228057;0.959445;0.165694;,
  0.165693;0.959446;0.228057;,
  0.087110;0.959445;0.268097;,
  0.000000;1.000000;0.000000;,
  0.000000;0.953107;0.302635;,
  -0.093519;0.953107;0.287823;,
  -0.177885;0.953106;0.244837;,
  -0.244837;0.953106;0.177885;,
  -0.287823;0.953107;0.093519;,
  -0.302635;0.953107;0.000000;,
  -0.287823;0.953107;-0.093519;,
  -0.244837;0.953106;-0.177885;,
  -0.177885;0.953106;-0.244837;,
  -0.093519;0.953107;-0.287823;,
  -0.000000;0.953107;-0.302634;,
  0.093519;0.953107;-0.287822;,
  0.177885;0.953107;-0.244836;,
  0.244836;0.953107;-0.177885;,
  0.287823;0.953107;-0.093519;,
  0.302634;0.953107;0.000000;,
  0.287822;0.953107;0.093519;,
  0.244836;0.953107;0.177884;,
  0.177884;0.953107;0.244836;,
  0.093518;0.953107;0.287822;,
  -0.000000;0.000000;-1.000000;,
  0.309017;0.000000;-0.951056;,
  0.587786;0.000000;-0.809016;,
  0.809016;0.000000;-0.587786;,
  0.951056;0.000000;-0.309017;,
  1.000000;0.000000;0.000000;,
  0.951056;0.000000;0.309017;,
  0.809016;0.000000;0.587786;,
  0.587786;0.000000;0.809016;,
  0.309017;0.000000;0.951056;,
  0.000000;0.000000;1.000000;,
  -0.309017;0.000000;0.951056;,
  -0.587786;0.000000;0.809017;,
  -0.809017;0.000000;0.587785;,
  -0.951057;0.000000;0.309015;,
  -1.000000;0.000000;0.000000;,
  -0.951056;0.000000;-0.309019;,
  -0.809016;0.000000;-0.587787;,
  -0.587786;0.000000;-0.809017;,
  -0.309016;0.000000;-0.951057;;
  100;
  4;0,1,21,20;,
  4;1,2,22,21;,
  4;2,3,23,22;,
  4;3,4,24,23;,
  4;4,5,25,24;,
  4;5,6,26,25;,
  4;6,7,27,26;,
  4;7,8,28,27;,
  4;8,9,29,28;,
  4;9,10,30,29;,
  4;10,11,31,30;,
  4;11,12,32,31;,
  4;12,13,33,32;,
  4;13,14,34,33;,
  4;14,15,35,34;,
  4;15,16,36,35;,
  4;16,17,37,36;,
  4;17,18,38,37;,
  4;18,19,39,38;,
  4;19,0,20,39;,
  4;40,41,1,0;,
  4;41,42,2,1;,
  4;42,43,3,2;,
  4;43,44,4,3;,
  4;44,45,5,4;,
  4;45,46,6,5;,
  4;46,47,7,6;,
  4;47,48,8,7;,
  4;48,49,9,8;,
  4;49,50,10,9;,
  4;50,51,11,10;,
  4;51,52,12,11;,
  4;52,53,13,12;,
  4;53,54,14,13;,
  4;54,55,15,14;,
  4;55,56,16,15;,
  4;56,57,17,16;,
  4;57,58,18,17;,
  4;58,59,19,18;,
  4;59,40,0,19;,
  4;61,62,41,40;,
  3;60,62,61;,
  4;62,63,42,41;,
  3;60,63,62;,
  4;63,64,43,42;,
  3;60,64,63;,
  4;64,65,44,43;,
  3;60,65,64;,
  4;65,66,45,44;,
  3;60,66,65;,
  4;66,67,46,45;,
  3;60,67,66;,
  4;67,68,47,46;,
  3;60,68,67;,
  4;68,69,48,47;,
  3;60,69,68;,
  4;69,70,49,48;,
  3;60,70,69;,
  4;70,71,50,49;,
  3;60,71,70;,
  4;71,72,51,50;,
  3;60,72,71;,
  4;72,73,52,51;,
  3;60,73,72;,
  4;73,74,53,52;,
  3;60,74,73;,
  4;74,75,54,53;,
  3;60,75,74;,
  4;75,76,55,54;,
  3;60,76,75;,
  4;76,77,56,55;,
  3;60,77,76;,
  4;77,78,57,56;,
  3;60,78,77;,
  4;78,79,58,57;,
  3;60,79,78;,
  4;79,80,59,58;,
  3;60,80,79;,
  4;80,61,40,59;,
  3;60,61,80;,
  4;82,81,20,21;,
  4;83,82,21,22;,
  4;84,83,22,23;,
  4;85,84,23,24;,
  4;86,85,24,25;,
  4;87,86,25,26;,
  4;88,87,26,27;,
  4;89,88,27,28;,
  4;90,89,28,29;,
  4;91,90,29,30;,
  4;92,91,30,31;,
  4;93,92,31,32;,
  4;94,93,32,33;,
  4;95,94,33,34;,
  4;96,95,34,35;,
  4;97,96,35,36;,
  4;98,97,36,37;,
  4;99,98,37,38;,
  4;100,99,38,39;,
  4;81,100,39,20;;
 }
 MeshTextureCoords {
  301;
  0.664270;0.659590;,
  0.330310;0.659590;,
  0.330310;0.317960;,
  0.664270;0.317960;,
  0.664270;0.659590;,
  0.330310;0.659590;,
  0.330310;0.317960;,
  0.664270;0.317960;,
  0.664270;0.659590;,
  0.330310;0.659590;,
  0.330310;0.317960;,
  0.664270;0.317960;,
  0.664270;0.659590;,
  0.330310;0.659590;,
  0.330310;0.317960;,
  0.664270;0.317960;,
  0.664270;0.659590;,
  0.330310;0.659590;,
  0.330310;0.317960;,
  0.664270;0.317960;,
  0.664270;0.659590;,
  0.330310;0.659590;,
  0.330310;0.317960;,
  0.664270;0.317960;,
  0.664270;0.659590;,
  0.330310;0.659590;,
  0.330310;0.317960;,
  0.664270;0.317960;,
  0.664270;0.659590;,
  0.330310;0.659590;,
  0.330310;0.317960;,
  0.664270;0.317960;,
  0.664270;0.659590;,
  0.330310;0.659590;,
  0.330310;0.317960;,
  0.664270;0.317960;,
  0.664270;0.659590;,
  0.330310;0.659590;,
  0.330310;0.317960;,
  0.664270;0.317960;,
  0.664270;0.659590;,
  0.330310;0.659590;,
  0.330310;0.317960;,
  0.664270;0.317960;,
  0.664270;0.659590;,
  0.330310;0.659590;,
  0.330310;0.317960;,
  0.664270;0.317960;,
  0.664270;0.659590;,
  0.330310;0.659590;,
  0.330310;0.317960;,
  0.664270;0.317960;,
  0.664270;0.659590;,
  0.330310;0.659590;,
  0.330310;0.317960;,
  0.664270;0.317960;,
  0.664270;0.659590;,
  0.330310;0.659590;,
  0.330310;0.317960;,
  0.664270;0.317960;,
  0.664270;0.659590;,
  0.330310;0.659590;,
  0.330310;0.317960;,
  0.664270;0.317960;,
  0.664270;0.659590;,
  0.330310;0.659590;,
  0.330310;0.317960;,
  0.664270;0.317960;,
  0.664270;0.659590;,
  0.330310;0.659590;,
  0.330310;0.317960;,
  0.664270;0.317960;,
  0.664270;0.659590;,
  0.330310;0.659590;,
  0.330310;0.317960;,
  0.664270;0.317960;,
  0.664270;0.659590;,
  0.330310;0.659590;,
  0.330310;0.317960;,
  0.664270;0.317960;,
  0.664270;0.659590;,
  0.330310;0.659590;,
  0.330310;0.317960;,
  0.664270;0.317960;,
  0.664270;0.659590;,
  0.330310;0.659590;,
  0.330310;0.317960;,
  0.664270;0.317960;,
  0.664270;0.659590;,
  0.330310;0.659590;,
  0.330310;0.317960;,
  0.664270;0.317960;,
  0.664270;0.659590;,
  0.330310;0.659590;,
  0.330310;0.317960;,
  0.664270;0.317960;,
  0.664270;0.659590;,
  0.330310;0.659590;,
  0.330310;0.317960;,
  0.664270;0.317960;,
  0.664270;0.659590;,
  0.330310;0.659590;,
  0.330310;0.317960;,
  0.664270;0.317960;,
  0.664270;0.659590;,
  0.330310;0.659590;,
  0.330310;0.317960;,
  0.664270;0.317960;,
  0.664270;0.659590;,
  0.330310;0.659590;,
  0.330310;0.317960;,
  0.664270;0.317960;,
  0.664270;0.659590;,
  0.330310;0.659590;,
  0.330310;0.317960;,
  0.664270;0.317960;,
  0.664270;0.659590;,
  0.330310;0.659590;,
  0.330310;0.317960;,
  0.664270;0.317960;,
  0.664270;0.659590;,
  0.330310;0.659590;,
  0.330310;0.317960;,
  0.664270;0.317960;,
  0.664270;0.659590;,
  0.330310;0.659590;,
  0.330310;0.317960;,
  0.664270;0.317960;,
  0.664270;0.659590;,
  0.330310;0.659590;,
  0.330310;0.317960;,
  0.664270;0.317960;,
  0.664270;0.659590;,
  0.330310;0.659590;,
  0.330310;0.317960;,
  0.664270;0.317960;,
  0.664270;0.659590;,
  0.330310;0.659590;,
  0.330310;0.317960;,
  0.664270;0.317960;,
  0.664270;0.659590;,
  0.330310;0.659590;,
  0.330310;0.317960;,
  0.664270;0.317960;,
  0.664270;0.659590;,
  0.330310;0.659590;,
  0.330310;0.317960;,
  0.664270;0.317960;,
  0.664270;0.659590;,
  0.330310;0.659590;,
  0.330310;0.317960;,
  0.664270;0.317960;,
  0.664270;0.659590;,
  0.330310;0.659590;,
  0.330310;0.317960;,
  0.664270;0.317960;,
  0.664270;0.659590;,
  0.330310;0.659590;,
  0.330310;0.317960;,
  0.664270;0.317960;,
  0.664270;0.659590;,
  0.330310;0.659590;,
  0.330310;0.317960;,
  0.664270;0.317960;,
  0.496530;0.489650;,
  0.543550;0.634330;,
  0.496530;0.641780;,
  0.664270;0.659590;,
  0.330310;0.659590;,
  0.330310;0.317960;,
  0.664270;0.317960;,
  0.585960;0.612720;,
  0.664270;0.659590;,
  0.330310;0.659590;,
  0.330310;0.317960;,
  0.664270;0.317960;,
  0.619620;0.579070;,
  0.664270;0.659590;,
  0.330310;0.659590;,
  0.330310;0.317960;,
  0.664270;0.317960;,
  0.641230;0.536650;,
  0.664270;0.659590;,
  0.330310;0.659590;,
  0.330310;0.317960;,
  0.664270;0.317960;,
  0.648670;0.489650;,
  0.664270;0.659590;,
  0.330310;0.659590;,
  0.330310;0.317960;,
  0.664270;0.317960;,
  0.641230;0.442630;,
  0.664270;0.659590;,
  0.330310;0.659590;,
  0.330310;0.317960;,
  0.664270;0.317960;,
  0.619620;0.400230;,
  0.664270;0.659590;,
  0.330310;0.659590;,
  0.330310;0.317960;,
  0.664270;0.317960;,
  0.585960;0.366570;,
  0.664270;0.659590;,
  0.330310;0.659590;,
  0.330310;0.317960;,
  0.664270;0.317960;,
  0.543550;0.344960;,
  0.664270;0.659590;,
  0.330310;0.659590;,
  0.330310;0.317960;,
  0.664270;0.317960;,
  0.496530;0.337510;,
  0.664270;0.659590;,
  0.330310;0.659590;,
  0.330310;0.317960;,
  0.664270;0.317960;,
  0.449520;0.344960;,
  0.664270;0.659590;,
  0.330310;0.659590;,
  0.330310;0.317960;,
  0.664270;0.317960;,
  0.407110;0.366570;,
  0.664270;0.659590;,
  0.330310;0.659590;,
  0.330310;0.317960;,
  0.664270;0.317960;,
  0.373450;0.400230;,
  0.664270;0.659590;,
  0.330310;0.659590;,
  0.330310;0.317960;,
  0.664270;0.317960;,
  0.351840;0.442630;,
  0.664270;0.659590;,
  0.330310;0.659590;,
  0.330310;0.317960;,
  0.664270;0.317960;,
  0.344400;0.489650;,
  0.664270;0.659590;,
  0.330310;0.659590;,
  0.330310;0.317960;,
  0.664270;0.317960;,
  0.351840;0.536650;,
  0.664270;0.659590;,
  0.330310;0.659590;,
  0.330310;0.317960;,
  0.664270;0.317960;,
  0.373460;0.579070;,
  0.664270;0.659590;,
  0.330310;0.659590;,
  0.330310;0.317960;,
  0.664270;0.317960;,
  0.407110;0.612720;,
  0.664270;0.659590;,
  0.330310;0.659590;,
  0.330310;0.317960;,
  0.664270;0.317960;,
  0.449520;0.634330;,
  0.664270;0.659590;,
  0.330310;0.659590;,
  0.330310;0.317960;,
  0.664270;0.317960;,
  0.664270;0.659590;,
  0.330310;0.659590;,
  0.664270;0.659590;,
  0.330310;0.659590;,
  0.664270;0.659590;,
  0.330310;0.659590;,
  0.664270;0.659590;,
  0.330310;0.659590;,
  0.664270;0.659590;,
  0.330310;0.659590;,
  0.664270;0.659590;,
  0.330310;0.659590;,
  0.664270;0.659590;,
  0.330310;0.659590;,
  0.664270;0.659590;,
  0.330310;0.659590;,
  0.664270;0.659590;,
  0.330310;0.659590;,
  0.664270;0.659590;,
  0.330310;0.659590;,
  0.664270;0.659590;,
  0.330310;0.659590;,
  0.664270;0.659590;,
  0.330310;0.659590;,
  0.664270;0.659590;,
  0.330310;0.659590;,
  0.664270;0.659590;,
  0.330310;0.659590;,
  0.664270;0.659590;,
  0.330310;0.659590;,
  0.664270;0.659590;,
  0.330310;0.659590;,
  0.664270;0.659590;,
  0.330310;0.659590;,
  0.664270;0.659590;,
  0.330310;0.659590;,
  0.664270;0.659590;,
  0.330310;0.659590;,
  0.664270;0.659590;,
  0.330310;0.659590;;
 }
 MeshVertexColors {
  301;
  0;1.000000;1.000000;1.000000;1.000000;,
  1;1.000000;1.000000;1.000000;1.000000;,
  2;1.000000;1.000000;1.000000;1.000000;,
  3;1.000000;1.000000;1.000000;1.000000;,
  4;1.000000;1.000000;1.000000;1.000000;,
  5;1.000000;1.000000;1.000000;1.000000;,
  6;1.000000;1.000000;1.000000;1.000000;,
  7;1.000000;1.000000;1.000000;1.000000;,
  8;1.000000;1.000000;1.000000;1.000000;,
  9;1.000000;1.000000;1.000000;1.000000;,
  10;1.000000;1.000000;1.000000;1.000000;,
  11;1.000000;1.000000;1.000000;1.000000;,
  12;1.000000;1.000000;1.000000;1.000000;,
  13;1.000000;1.000000;1.000000;1.000000;,
  14;1.000000;1.000000;1.000000;1.000000;,
  15;1.000000;1.000000;1.000000;1.000000;,
  16;1.000000;1.000000;1.000000;1.000000;,
  17;1.000000;1.000000;1.000000;1.000000;,
  18;1.000000;1.000000;1.000000;1.000000;,
  19;1.000000;1.000000;1.000000;1.000000;,
  20;1.000000;1.000000;1.000000;1.000000;,
  21;1.000000;1.000000;1.000000;1.000000;,
  22;1.000000;1.000000;1.000000;1.000000;,
  23;1.000000;1.000000;1.000000;1.000000;,
  24;1.000000;1.000000;1.000000;1.000000;,
  25;1.000000;1.000000;1.000000;1.000000;,
  26;1.000000;1.000000;1.000000;1.000000;,
  27;1.000000;1.000000;1.000000;1.000000;,
  28;1.000000;1.000000;1.000000;1.000000;,
  29;1.000000;1.000000;1.000000;1.000000;,
  30;1.000000;1.000000;1.000000;1.000000;,
  31;1.000000;1.000000;1.000000;1.000000;,
  32;1.000000;1.000000;1.000000;1.000000;,
  33;1.000000;1.000000;1.000000;1.000000;,
  34;1.000000;1.000000;1.000000;1.000000;,
  35;1.000000;1.000000;1.000000;1.000000;,
  36;1.000000;1.000000;1.000000;1.000000;,
  37;1.000000;1.000000;1.000000;1.000000;,
  38;1.000000;1.000000;1.000000;1.000000;,
  39;1.000000;1.000000;1.000000;1.000000;,
  40;1.000000;1.000000;1.000000;1.000000;,
  41;1.000000;1.000000;1.000000;1.000000;,
  42;1.000000;1.000000;1.000000;1.000000;,
  43;1.000000;1.000000;1.000000;1.000000;,
  44;1.000000;1.000000;1.000000;1.000000;,
  45;1.000000;1.000000;1.000000;1.000000;,
  46;1.000000;1.000000;1.000000;1.000000;,
  47;1.000000;1.000000;1.000000;1.000000;,
  48;1.000000;1.000000;1.000000;1.000000;,
  49;1.000000;1.000000;1.000000;1.000000;,
  50;1.000000;1.000000;1.000000;1.000000;,
  51;1.000000;1.000000;1.000000;1.000000;,
  52;1.000000;1.000000;1.000000;1.000000;,
  53;1.000000;1.000000;1.000000;1.000000;,
  54;1.000000;1.000000;1.000000;1.000000;,
  55;1.000000;1.000000;1.000000;1.000000;,
  56;1.000000;1.000000;1.000000;1.000000;,
  57;1.000000;1.000000;1.000000;1.000000;,
  58;1.000000;1.000000;1.000000;1.000000;,
  59;1.000000;1.000000;1.000000;1.000000;,
  60;1.000000;1.000000;1.000000;1.000000;,
  61;1.000000;1.000000;1.000000;1.000000;,
  62;1.000000;1.000000;1.000000;1.000000;,
  63;1.000000;1.000000;1.000000;1.000000;,
  64;1.000000;1.000000;1.000000;1.000000;,
  65;1.000000;1.000000;1.000000;1.000000;,
  66;1.000000;1.000000;1.000000;1.000000;,
  67;1.000000;1.000000;1.000000;1.000000;,
  68;1.000000;1.000000;1.000000;1.000000;,
  69;1.000000;1.000000;1.000000;1.000000;,
  70;1.000000;1.000000;1.000000;1.000000;,
  71;1.000000;1.000000;1.000000;1.000000;,
  72;1.000000;1.000000;1.000000;1.000000;,
  73;1.000000;1.000000;1.000000;1.000000;,
  74;1.000000;1.000000;1.000000;1.000000;,
  75;1.000000;1.000000;1.000000;1.000000;,
  76;1.000000;1.000000;1.000000;1.000000;,
  77;1.000000;1.000000;1.000000;1.000000;,
  78;1.000000;1.000000;1.000000;1.000000;,
  79;1.000000;1.000000;1.000000;1.000000;,
  80;1.000000;1.000000;1.000000;1.000000;,
  81;1.000000;1.000000;1.000000;1.000000;,
  82;1.000000;1.000000;1.000000;1.000000;,
  83;1.000000;1.000000;1.000000;1.000000;,
  84;1.000000;1.000000;1.000000;1.000000;,
  85;1.000000;1.000000;1.000000;1.000000;,
  86;1.000000;1.000000;1.000000;1.000000;,
  87;1.000000;1.000000;1.000000;1.000000;,
  88;1.000000;1.000000;1.000000;1.000000;,
  89;1.000000;1.000000;1.000000;1.000000;,
  90;1.000000;1.000000;1.000000;1.000000;,
  91;1.000000;1.000000;1.000000;1.000000;,
  92;1.000000;1.000000;1.000000;1.000000;,
  93;1.000000;1.000000;1.000000;1.000000;,
  94;1.000000;1.000000;1.000000;1.000000;,
  95;1.000000;1.000000;1.000000;1.000000;,
  96;1.000000;1.000000;1.000000;1.000000;,
  97;1.000000;1.000000;1.000000;1.000000;,
  98;1.000000;1.000000;1.000000;1.000000;,
  99;1.000000;1.000000;1.000000;1.000000;,
  100;1.000000;1.000000;1.000000;1.000000;,
  101;1.000000;1.000000;1.000000;1.000000;,
  102;1.000000;1.000000;1.000000;1.000000;,
  103;1.000000;1.000000;1.000000;1.000000;,
  104;1.000000;1.000000;1.000000;1.000000;,
  105;1.000000;1.000000;1.000000;1.000000;,
  106;1.000000;1.000000;1.000000;1.000000;,
  107;1.000000;1.000000;1.000000;1.000000;,
  108;1.000000;1.000000;1.000000;1.000000;,
  109;1.000000;1.000000;1.000000;1.000000;,
  110;1.000000;1.000000;1.000000;1.000000;,
  111;1.000000;1.000000;1.000000;1.000000;,
  112;1.000000;1.000000;1.000000;1.000000;,
  113;1.000000;1.000000;1.000000;1.000000;,
  114;1.000000;1.000000;1.000000;1.000000;,
  115;1.000000;1.000000;1.000000;1.000000;,
  116;1.000000;1.000000;1.000000;1.000000;,
  117;1.000000;1.000000;1.000000;1.000000;,
  118;1.000000;1.000000;1.000000;1.000000;,
  119;1.000000;1.000000;1.000000;1.000000;,
  120;1.000000;1.000000;1.000000;1.000000;,
  121;1.000000;1.000000;1.000000;1.000000;,
  122;1.000000;1.000000;1.000000;1.000000;,
  123;1.000000;1.000000;1.000000;1.000000;,
  124;1.000000;1.000000;1.000000;1.000000;,
  125;1.000000;1.000000;1.000000;1.000000;,
  126;1.000000;1.000000;1.000000;1.000000;,
  127;1.000000;1.000000;1.000000;1.000000;,
  128;1.000000;1.000000;1.000000;1.000000;,
  129;1.000000;1.000000;1.000000;1.000000;,
  130;1.000000;1.000000;1.000000;1.000000;,
  131;1.000000;1.000000;1.000000;1.000000;,
  132;1.000000;1.000000;1.000000;1.000000;,
  133;1.000000;1.000000;1.000000;1.000000;,
  134;1.000000;1.000000;1.000000;1.000000;,
  135;1.000000;1.000000;1.000000;1.000000;,
  136;1.000000;1.000000;1.000000;1.000000;,
  137;1.000000;1.000000;1.000000;1.000000;,
  138;1.000000;1.000000;1.000000;1.000000;,
  139;1.000000;1.000000;1.000000;1.000000;,
  140;1.000000;1.000000;1.000000;1.000000;,
  141;1.000000;1.000000;1.000000;1.000000;,
  142;1.000000;1.000000;1.000000;1.000000;,
  143;1.000000;1.000000;1.000000;1.000000;,
  144;1.000000;1.000000;1.000000;1.000000;,
  145;1.000000;1.000000;1.000000;1.000000;,
  146;1.000000;1.000000;1.000000;1.000000;,
  147;1.000000;1.000000;1.000000;1.000000;,
  148;1.000000;1.000000;1.000000;1.000000;,
  149;1.000000;1.000000;1.000000;1.000000;,
  150;1.000000;1.000000;1.000000;1.000000;,
  151;1.000000;1.000000;1.000000;1.000000;,
  152;1.000000;1.000000;1.000000;1.000000;,
  153;1.000000;1.000000;1.000000;1.000000;,
  154;1.000000;1.000000;1.000000;1.000000;,
  155;1.000000;1.000000;1.000000;1.000000;,
  156;1.000000;1.000000;1.000000;1.000000;,
  157;1.000000;1.000000;1.000000;1.000000;,
  158;1.000000;1.000000;1.000000;1.000000;,
  159;1.000000;1.000000;1.000000;1.000000;,
  160;1.000000;1.000000;1.000000;1.000000;,
  161;1.000000;1.000000;1.000000;1.000000;,
  162;1.000000;1.000000;1.000000;1.000000;,
  163;1.000000;1.000000;1.000000;1.000000;,
  164;1.000000;1.000000;1.000000;1.000000;,
  165;1.000000;1.000000;1.000000;1.000000;,
  166;1.000000;1.000000;1.000000;1.000000;,
  167;1.000000;1.000000;1.000000;1.000000;,
  168;1.000000;1.000000;1.000000;1.000000;,
  169;1.000000;1.000000;1.000000;1.000000;,
  170;1.000000;1.000000;1.000000;1.000000;,
  171;1.000000;1.000000;1.000000;1.000000;,
  172;1.000000;1.000000;1.000000;1.000000;,
  173;1.000000;1.000000;1.000000;1.000000;,
  174;1.000000;1.000000;1.000000;1.000000;,
  175;1.000000;1.000000;1.000000;1.000000;,
  176;1.000000;1.000000;1.000000;1.000000;,
  177;1.000000;1.000000;1.000000;1.000000;,
  178;1.000000;1.000000;1.000000;1.000000;,
  179;1.000000;1.000000;1.000000;1.000000;,
  180;1.000000;1.000000;1.000000;1.000000;,
  181;1.000000;1.000000;1.000000;1.000000;,
  182;1.000000;1.000000;1.000000;1.000000;,
  183;1.000000;1.000000;1.000000;1.000000;,
  184;1.000000;1.000000;1.000000;1.000000;,
  185;1.000000;1.000000;1.000000;1.000000;,
  186;1.000000;1.000000;1.000000;1.000000;,
  187;1.000000;1.000000;1.000000;1.000000;,
  188;1.000000;1.000000;1.000000;1.000000;,
  189;1.000000;1.000000;1.000000;1.000000;,
  190;1.000000;1.000000;1.000000;1.000000;,
  191;1.000000;1.000000;1.000000;1.000000;,
  192;1.000000;1.000000;1.000000;1.000000;,
  193;1.000000;1.000000;1.000000;1.000000;,
  194;1.000000;1.000000;1.000000;1.000000;,
  195;1.000000;1.000000;1.000000;1.000000;,
  196;1.000000;1.000000;1.000000;1.000000;,
  197;1.000000;1.000000;1.000000;1.000000;,
  198;1.000000;1.000000;1.000000;1.000000;,
  199;1.000000;1.000000;1.000000;1.000000;,
  200;1.000000;1.000000;1.000000;1.000000;,
  201;1.000000;1.000000;1.000000;1.000000;,
  202;1.000000;1.000000;1.000000;1.000000;,
  203;1.000000;1.000000;1.000000;1.000000;,
  204;1.000000;1.000000;1.000000;1.000000;,
  205;1.000000;1.000000;1.000000;1.000000;,
  206;1.000000;1.000000;1.000000;1.000000;,
  207;1.000000;1.000000;1.000000;1.000000;,
  208;1.000000;1.000000;1.000000;1.000000;,
  209;1.000000;1.000000;1.000000;1.000000;,
  210;1.000000;1.000000;1.000000;1.000000;,
  211;1.000000;1.000000;1.000000;1.000000;,
  212;1.000000;1.000000;1.000000;1.000000;,
  213;1.000000;1.000000;1.000000;1.000000;,
  214;1.000000;1.000000;1.000000;1.000000;,
  215;1.000000;1.000000;1.000000;1.000000;,
  216;1.000000;1.000000;1.000000;1.000000;,
  217;1.000000;1.000000;1.000000;1.000000;,
  218;1.000000;1.000000;1.000000;1.000000;,
  219;1.000000;1.000000;1.000000;1.000000;,
  220;1.000000;1.000000;1.000000;1.000000;,
  221;1.000000;1.000000;1.000000;1.000000;,
  222;1.000000;1.000000;1.000000;1.000000;,
  223;1.000000;1.000000;1.000000;1.000000;,
  224;1.000000;1.000000;1.000000;1.000000;,
  225;1.000000;1.000000;1.000000;1.000000;,
  226;1.000000;1.000000;1.000000;1.000000;,
  227;1.000000;1.000000;1.000000;1.000000;,
  228;1.000000;1.000000;1.000000;1.000000;,
  229;1.000000;1.000000;1.000000;1.000000;,
  230;1.000000;1.000000;1.000000;1.000000;,
  231;1.000000;1.000000;1.000000;1.000000;,
  232;1.000000;1.000000;1.000000;1.000000;,
  233;1.000000;1.000000;1.000000;1.000000;,
  234;1.000000;1.000000;1.000000;1.000000;,
  235;1.000000;1.000000;1.000000;1.000000;,
  236;1.000000;1.000000;1.000000;1.000000;,
  237;1.000000;1.000000;1.000000;1.000000;,
  238;1.000000;1.000000;1.000000;1.000000;,
  239;1.000000;1.000000;1.000000;1.000000;,
  240;1.000000;1.000000;1.000000;1.000000;,
  241;1.000000;1.000000;1.000000;1.000000;,
  242;1.000000;1.000000;1.000000;1.000000;,
  243;1.000000;1.000000;1.000000;1.000000;,
  244;1.000000;1.000000;1.000000;1.000000;,
  245;1.000000;1.000000;1.000000;1.000000;,
  246;1.000000;1.000000;1.000000;1.000000;,
  247;1.000000;1.000000;1.000000;1.000000;,
  248;1.000000;1.000000;1.000000;1.000000;,
  249;1.000000;1.000000;1.000000;1.000000;,
  250;1.000000;1.000000;1.000000;1.000000;,
  251;1.000000;1.000000;1.000000;1.000000;,
  252;1.000000;1.000000;1.000000;1.000000;,
  253;1.000000;1.000000;1.000000;1.000000;,
  254;1.000000;1.000000;1.000000;1.000000;,
  255;1.000000;1.000000;1.000000;1.000000;,
  256;1.000000;1.000000;1.000000;1.000000;,
  257;1.000000;1.000000;1.000000;1.000000;,
  258;1.000000;1.000000;1.000000;1.000000;,
  259;1.000000;1.000000;1.000000;1.000000;,
  260;1.000000;1.000000;1.000000;1.000000;,
  261;1.000000;1.000000;1.000000;1.000000;,
  262;1.000000;1.000000;1.000000;1.000000;,
  263;1.000000;1.000000;1.000000;1.000000;,
  264;1.000000;1.000000;1.000000;1.000000;,
  265;1.000000;1.000000;1.000000;1.000000;,
  266;1.000000;1.000000;1.000000;1.000000;,
  267;1.000000;1.000000;1.000000;1.000000;,
  268;1.000000;1.000000;1.000000;1.000000;,
  269;1.000000;1.000000;1.000000;1.000000;,
  270;1.000000;1.000000;1.000000;1.000000;,
  271;1.000000;1.000000;1.000000;1.000000;,
  272;1.000000;1.000000;1.000000;1.000000;,
  273;1.000000;1.000000;1.000000;1.000000;,
  274;1.000000;1.000000;1.000000;1.000000;,
  275;1.000000;1.000000;1.000000;1.000000;,
  276;1.000000;1.000000;1.000000;1.000000;,
  277;1.000000;1.000000;1.000000;1.000000;,
  278;1.000000;1.000000;1.000000;1.000000;,
  279;1.000000;1.000000;1.000000;1.000000;,
  280;1.000000;1.000000;1.000000;1.000000;,
  281;1.000000;1.000000;1.000000;1.000000;,
  282;1.000000;1.000000;1.000000;1.000000;,
  283;1.000000;1.000000;1.000000;1.000000;,
  284;1.000000;1.000000;1.000000;1.000000;,
  285;1.000000;1.000000;1.000000;1.000000;,
  286;1.000000;1.000000;1.000000;1.000000;,
  287;1.000000;1.000000;1.000000;1.000000;,
  288;1.000000;1.000000;1.000000;1.000000;,
  289;1.000000;1.000000;1.000000;1.000000;,
  290;1.000000;1.000000;1.000000;1.000000;,
  291;1.000000;1.000000;1.000000;1.000000;,
  292;1.000000;1.000000;1.000000;1.000000;,
  293;1.000000;1.000000;1.000000;1.000000;,
  294;1.000000;1.000000;1.000000;1.000000;,
  295;1.000000;1.000000;1.000000;1.000000;,
  296;1.000000;1.000000;1.000000;1.000000;,
  297;1.000000;1.000000;1.000000;1.000000;,
  298;1.000000;1.000000;1.000000;1.000000;,
  299;1.000000;1.000000;1.000000;1.000000;,
  300;1.000000;1.000000;1.000000;1.000000;;
 }
}
