xof 0302txt 0064
template Header {
 <3D82AB43-62DA-11cf-AB39-0020AF71E433>
 WORD major;
 WORD minor;
 DWORD flags;
}

template Vector {
 <3D82AB5E-62DA-11cf-AB39-0020AF71E433>
 FLOAT x;
 FLOAT y;
 FLOAT z;
}

template Coords2d {
 <F6F23F44-7686-11cf-8F52-0040333594A3>
 FLOAT u;
 FLOAT v;
}

template Matrix4x4 {
 <F6F23F45-7686-11cf-8F52-0040333594A3>
 array FLOAT matrix[16];
}

template ColorRGBA {
 <35FF44E0-6C7C-11cf-8F52-0040333594A3>
 FLOAT red;
 FLOAT green;
 FLOAT blue;
 FLOAT alpha;
}

template ColorRGB {
 <D3E16E81-7835-11cf-8F52-0040333594A3>
 FLOAT red;
 FLOAT green;
 FLOAT blue;
}

template IndexedColor {
 <1630B820-7842-11cf-8F52-0040333594A3>
 DWORD index;
 ColorRGBA indexColor;
}

template Boolean {
 <4885AE61-78E8-11cf-8F52-0040333594A3>
 WORD truefalse;
}

template Boolean2d {
 <4885AE63-78E8-11cf-8F52-0040333594A3>
 Boolean u;
 Boolean v;
}

template MaterialWrap {
 <4885AE60-78E8-11cf-8F52-0040333594A3>
 Boolean u;
 Boolean v;
}

template TextureFilename {
 <A42790E1-7810-11cf-8F52-0040333594A3>
 STRING filename;
}

template Material {
 <3D82AB4D-62DA-11cf-AB39-0020AF71E433>
 ColorRGBA faceColor;
 FLOAT power;
 ColorRGB specularColor;
 ColorRGB emissiveColor;
 [...]
}

template MeshFace {
 <3D82AB5F-62DA-11cf-AB39-0020AF71E433>
 DWORD nFaceVertexIndices;
 array DWORD faceVertexIndices[nFaceVertexIndices];
}

template MeshFaceWraps {
 <4885AE62-78E8-11cf-8F52-0040333594A3>
 DWORD nFaceWrapValues;
 Boolean2d faceWrapValues;
}

template MeshTextureCoords {
 <F6F23F40-7686-11cf-8F52-0040333594A3>
 DWORD nTextureCoords;
 array Coords2d textureCoords[nTextureCoords];
}

template MeshMaterialList {
 <F6F23F42-7686-11cf-8F52-0040333594A3>
 DWORD nMaterials;
 DWORD nFaceIndexes;
 array DWORD faceIndexes[nFaceIndexes];
 [Material]
}

template MeshNormals {
 <F6F23F43-7686-11cf-8F52-0040333594A3>
 DWORD nNormals;
 array Vector normals[nNormals];
 DWORD nFaceNormals;
 array MeshFace faceNormals[nFaceNormals];
}

template MeshVertexColors {
 <1630B821-7842-11cf-8F52-0040333594A3>
 DWORD nVertexColors;
 array IndexedColor vertexColors[nVertexColors];
}

template Mesh {
 <3D82AB44-62DA-11cf-AB39-0020AF71E433>
 DWORD nVertices;
 array Vector vertices[nVertices];
 DWORD nFaces;
 array MeshFace faces[nFaces];
 [...]
}

Header{
1;
0;
1;
}

Mesh {
 168;
 0.00000;17.24790;-367.57120;,
 113.58570;17.24790;-349.58081;,
 147.21750;17.24790;-453.08899;,
 0.00000;17.24790;-476.40561;,
 216.05290;17.24790;-297.37140;,
 280.02441;17.24790;-385.42029;,
 297.37140;17.24790;-216.05290;,
 385.42029;17.24790;-280.02441;,
 349.58081;17.24790;-113.58570;,
 453.08899;17.24790;-147.21741;,
 367.57120;17.24790;0.00000;,
 476.40561;17.24790;0.00000;,
 349.58081;17.24790;113.58580;,
 453.08899;17.24790;147.21750;,
 297.37140;17.24790;216.05290;,
 385.42029;17.24790;280.02441;,
 216.05290;17.24790;297.37140;,
 280.02441;17.24790;385.42029;,
 113.58570;17.24790;349.58081;,
 147.21730;17.24790;453.08899;,
 -0.00010;17.24790;367.57120;,
 -0.00020;17.24790;476.40561;,
 -113.58590;17.24790;349.58081;,
 -147.21761;17.24790;453.08899;,
 -216.05310;17.24790;297.37119;,
 -280.02451;17.24790;385.42029;,
 -216.05310;17.24790;297.37119;,
 -297.37140;17.24790;216.05280;,
 -385.42059;17.24790;280.02380;,
 -280.02451;17.24790;385.42029;,
 -349.58090;17.24790;113.58550;,
 -453.08911;17.24790;147.21710;,
 -367.57120;17.24790;-0.00040;,
 -476.40561;17.24790;-0.00050;,
 -349.58069;17.24790;-113.58620;,
 -453.08871;17.24790;-147.21780;,
 -297.37119;17.24790;-216.05341;,
 -385.42001;17.24790;-280.02490;,
 -216.05251;17.24790;-297.37161;,
 -280.02359;17.24790;-385.42068;,
 -113.58520;17.24790;-349.58090;,
 -147.21671;17.24790;-453.08911;,
 0.00000;17.24790;-257.95889;,
 79.71380;17.24790;-245.33380;,
 151.62450;17.24790;-208.69341;,
 208.69341;17.24790;-151.62450;,
 245.33380;17.24790;-79.71380;,
 257.95889;17.24790;0.00000;,
 245.33380;17.24790;79.71380;,
 208.69341;17.24790;151.62450;,
 151.62450;17.24790;208.69341;,
 79.71380;17.24790;245.33380;,
 -0.00010;17.24790;257.95889;,
 -79.71390;17.24790;245.33380;,
 -151.62460;17.24790;208.69330;,
 -151.62460;17.24790;208.69330;,
 -208.69350;17.24790;151.62450;,
 -245.33389;17.24790;79.71350;,
 -257.95889;17.24790;-0.00020;,
 -245.33360;17.24790;-79.71410;,
 -208.69310;17.24790;-151.62480;,
 -151.62440;17.24790;-208.69350;,
 -79.71340;17.24790;-245.33400;,
 0.00000;17.24790;-181.93910;,
 56.22230;17.24790;-173.03419;,
 106.94120;17.24790;-147.19189;,
 147.19189;17.24790;-106.94120;,
 173.03419;17.24790;-56.22230;,
 181.93910;17.24790;0.00000;,
 173.03419;17.24790;56.22230;,
 147.19189;17.24790;106.94120;,
 106.94120;17.24790;147.19189;,
 56.22230;17.24790;173.03419;,
 -0.00010;17.24790;181.93910;,
 -56.22230;17.24790;173.03419;,
 -106.94120;17.24790;147.19180;,
 -106.94120;17.24790;147.19180;,
 -147.19189;17.24790;106.94120;,
 -173.03419;17.24790;56.22210;,
 -181.93910;17.24790;-0.00020;,
 -173.03419;17.24790;-56.22250;,
 -147.19180;17.24790;-106.94130;,
 -106.94100;17.24790;-147.19200;,
 -56.22200;17.24790;-173.03419;,
 0.00000;270.13669;-257.95889;,
 79.71370;270.13669;-245.33369;,
 88.95840;403.93439;-273.78580;,
 0.00000;403.93439;-287.87491;,
 151.62450;270.13669;-208.69321;,
 169.20869;403.93439;-232.89590;,
 208.69321;270.13669;-151.62450;,
 232.89590;403.93439;-169.20869;,
 245.33369;270.13669;-79.71370;,
 273.78580;403.93439;-88.95830;,
 257.95889;270.13669;0.00000;,
 287.87491;403.93439;0.00000;,
 245.33369;270.13669;79.71380;,
 273.78580;403.93439;88.95840;,
 208.69321;270.13669;151.62450;,
 232.89590;403.93439;169.20869;,
 151.62450;270.13669;208.69321;,
 169.20869;403.93439;232.89590;,
 79.71370;270.13669;245.33369;,
 88.95830;403.93439;273.78580;,
 -0.00010;270.13669;257.95889;,
 -0.00010;403.93439;287.87491;,
 -79.71390;270.13669;245.33360;,
 -88.95850;403.93439;273.78561;,
 -151.62460;270.13669;208.69299;,
 -169.20880;403.93439;232.89580;,
 -151.62460;270.13669;208.69299;,
 -208.69330;270.13669;151.62440;,
 -232.89610;403.93439;169.20860;,
 -169.20880;403.93439;232.89580;,
 -245.33380;270.13669;79.71350;,
 -273.78589;403.93439;88.95810;,
 -257.95889;270.13669;-0.00020;,
 -287.87491;403.93439;-0.00030;,
 -245.33360;270.13669;-79.71410;,
 -273.78561;403.93439;-88.95860;,
 -208.69299;270.13669;-151.62460;,
 -232.89580;403.93439;-169.20911;,
 -151.62430;270.13669;-208.69330;,
 -169.20850;403.93439;-232.89619;,
 -79.71330;270.13669;-245.33400;,
 -88.95790;403.93439;-273.78589;,
 0.00000;133.23160;-219.90570;,
 67.95470;133.23160;-209.14290;,
 129.25740;133.23160;-177.90759;,
 177.90759;133.23160;-129.25740;,
 209.14290;133.23160;-67.95460;,
 219.90570;133.23160;0.00000;,
 209.14290;133.23160;67.95470;,
 177.90759;133.23160;129.25740;,
 129.25740;133.23160;177.90759;,
 67.95460;133.23160;209.14290;,
 -0.00010;133.23160;219.90570;,
 -67.95470;133.23160;209.14290;,
 -129.25751;133.23160;177.90750;,
 -129.25751;133.23160;177.90750;,
 -177.90770;133.23160;129.25740;,
 -209.14290;133.23160;67.95440;,
 -219.90570;133.23160;-0.00020;,
 -209.14270;133.23160;-67.95490;,
 -177.90739;133.23160;-129.25760;,
 -129.25729;133.23160;-177.90770;,
 -67.95430;133.23160;-209.14301;,
 0.00000;16.76050;-181.93910;,
 56.22230;16.76050;-173.03419;,
 106.94120;16.76050;-147.19189;,
 147.19189;16.76050;-106.94120;,
 173.03419;16.76050;-56.22230;,
 181.93910;16.76050;0.00000;,
 173.03419;16.76050;56.22230;,
 147.19189;16.76050;106.94120;,
 106.94120;16.76050;147.19189;,
 56.22230;16.76050;173.03419;,
 -0.00010;16.76050;181.93910;,
 -56.22230;16.76050;173.03419;,
 -106.94120;16.76050;147.19180;,
 -106.94120;16.76050;147.19180;,
 -147.19189;16.76050;106.94120;,
 -173.03419;16.76050;56.22210;,
 -181.93910;16.76050;-0.00020;,
 -173.03419;16.76050;-56.22250;,
 -147.19180;16.76050;-106.94130;,
 -106.94100;16.76050;-147.19200;,
 -56.22200;16.76050;-173.03419;;
 
 240;
 4;0,1,2,3;,
 4;1,4,5,2;,
 4;4,6,7,5;,
 4;6,8,9,7;,
 4;8,10,11,9;,
 4;10,12,13,11;,
 4;12,14,15,13;,
 4;14,16,17,15;,
 4;16,18,19,17;,
 4;18,20,21,19;,
 4;20,22,23,21;,
 4;22,24,25,23;,
 4;26,27,28,29;,
 4;27,30,31,28;,
 4;30,32,33,31;,
 4;32,34,35,33;,
 4;34,36,37,35;,
 4;36,38,39,37;,
 4;38,40,41,39;,
 4;40,0,3,41;,
 4;42,43,1,0;,
 4;43,44,4,1;,
 4;44,45,6,4;,
 4;45,46,8,6;,
 4;46,47,10,8;,
 4;47,48,12,10;,
 4;48,49,14,12;,
 4;49,50,16,14;,
 4;50,51,18,16;,
 4;51,52,20,18;,
 4;52,53,22,20;,
 4;53,54,24,22;,
 4;55,56,27,26;,
 4;56,57,30,27;,
 4;57,58,32,30;,
 4;58,59,34,32;,
 4;59,60,36,34;,
 4;60,61,38,36;,
 4;61,62,40,38;,
 4;62,42,0,40;,
 4;63,64,43,42;,
 4;64,65,44,43;,
 4;65,66,45,44;,
 4;66,67,46,45;,
 4;67,68,47,46;,
 4;68,69,48,47;,
 4;69,70,49,48;,
 4;70,71,50,49;,
 4;71,72,51,50;,
 4;72,73,52,51;,
 4;73,74,53,52;,
 4;74,75,54,53;,
 4;76,77,56,55;,
 4;77,78,57,56;,
 4;78,79,58,57;,
 4;79,80,59,58;,
 4;80,81,60,59;,
 4;81,82,61,60;,
 4;82,83,62,61;,
 4;83,63,42,62;,
 4;3,2,1,0;,
 4;2,5,4,1;,
 4;5,7,6,4;,
 4;7,9,8,6;,
 4;9,11,10,8;,
 4;11,13,12,10;,
 4;13,15,14,12;,
 4;15,17,16,14;,
 4;17,19,18,16;,
 4;19,21,20,18;,
 4;21,23,22,20;,
 4;23,25,24,22;,
 4;29,28,27,26;,
 4;28,31,30,27;,
 4;31,33,32,30;,
 4;33,35,34,32;,
 4;35,37,36,34;,
 4;37,39,38,36;,
 4;39,41,40,38;,
 4;41,3,0,40;,
 4;0,1,43,42;,
 4;1,4,44,43;,
 4;4,6,45,44;,
 4;6,8,46,45;,
 4;8,10,47,46;,
 4;10,12,48,47;,
 4;12,14,49,48;,
 4;14,16,50,49;,
 4;16,18,51,50;,
 4;18,20,52,51;,
 4;20,22,53,52;,
 4;22,24,54,53;,
 4;26,27,56,55;,
 4;27,30,57,56;,
 4;30,32,58,57;,
 4;32,34,59,58;,
 4;34,36,60,59;,
 4;36,38,61,60;,
 4;38,40,62,61;,
 4;40,0,42,62;,
 4;42,43,64,63;,
 4;43,44,65,64;,
 4;44,45,66,65;,
 4;45,46,67,66;,
 4;46,47,68,67;,
 4;47,48,69,68;,
 4;48,49,70,69;,
 4;49,50,71,70;,
 4;50,51,72,71;,
 4;51,52,73,72;,
 4;52,53,74,73;,
 4;53,54,75,74;,
 4;55,56,77,76;,
 4;56,57,78,77;,
 4;57,58,79,78;,
 4;58,59,80,79;,
 4;59,60,81,80;,
 4;60,61,82,81;,
 4;61,62,83,82;,
 4;62,42,63,83;,
 4;84,85,86,87;,
 4;85,88,89,86;,
 4;88,90,91,89;,
 4;90,92,93,91;,
 4;92,94,95,93;,
 4;94,96,97,95;,
 4;96,98,99,97;,
 4;98,100,101,99;,
 4;100,102,103,101;,
 4;102,104,105,103;,
 4;104,106,107,105;,
 4;106,108,109,107;,
 4;110,111,112,113;,
 4;111,114,115,112;,
 4;114,116,117,115;,
 4;116,118,119,117;,
 4;118,120,121,119;,
 4;120,122,123,121;,
 4;122,124,125,123;,
 4;124,84,87,125;,
 4;126,127,85,84;,
 4;127,128,88,85;,
 4;128,129,90,88;,
 4;129,130,92,90;,
 4;130,131,94,92;,
 4;131,132,96,94;,
 4;132,133,98,96;,
 4;133,134,100,98;,
 4;134,135,102,100;,
 4;135,136,104,102;,
 4;136,137,106,104;,
 4;137,138,108,106;,
 4;139,140,111,110;,
 4;140,141,114,111;,
 4;141,142,116,114;,
 4;142,143,118,116;,
 4;143,144,120,118;,
 4;144,145,122,120;,
 4;145,146,124,122;,
 4;146,126,84,124;,
 4;147,148,127,126;,
 4;148,149,128,127;,
 4;149,150,129,128;,
 4;150,151,130,129;,
 4;151,152,131,130;,
 4;152,153,132,131;,
 4;153,154,133,132;,
 4;154,155,134,133;,
 4;155,156,135,134;,
 4;156,157,136,135;,
 4;157,158,137,136;,
 4;158,159,138,137;,
 4;160,161,140,139;,
 4;161,162,141,140;,
 4;162,163,142,141;,
 4;163,164,143,142;,
 4;164,165,144,143;,
 4;165,166,145,144;,
 4;166,167,146,145;,
 4;167,147,126,146;,
 4;87,86,85,84;,
 4;86,89,88,85;,
 4;89,91,90,88;,
 4;91,93,92,90;,
 4;93,95,94,92;,
 4;95,97,96,94;,
 4;97,99,98,96;,
 4;99,101,100,98;,
 4;101,103,102,100;,
 4;103,105,104,102;,
 4;105,107,106,104;,
 4;107,109,108,106;,
 4;113,112,111,110;,
 4;112,115,114,111;,
 4;115,117,116,114;,
 4;117,119,118,116;,
 4;119,121,120,118;,
 4;121,123,122,120;,
 4;123,125,124,122;,
 4;125,87,84,124;,
 4;84,85,127,126;,
 4;85,88,128,127;,
 4;88,90,129,128;,
 4;90,92,130,129;,
 4;92,94,131,130;,
 4;94,96,132,131;,
 4;96,98,133,132;,
 4;98,100,134,133;,
 4;100,102,135,134;,
 4;102,104,136,135;,
 4;104,106,137,136;,
 4;106,108,138,137;,
 4;110,111,140,139;,
 4;111,114,141,140;,
 4;114,116,142,141;,
 4;116,118,143,142;,
 4;118,120,144,143;,
 4;120,122,145,144;,
 4;122,124,146,145;,
 4;124,84,126,146;,
 4;126,127,148,147;,
 4;127,128,149,148;,
 4;128,129,150,149;,
 4;129,130,151,150;,
 4;130,131,152,151;,
 4;131,132,153,152;,
 4;132,133,154,153;,
 4;133,134,155,154;,
 4;134,135,156,155;,
 4;135,136,157,156;,
 4;136,137,158,157;,
 4;137,138,159,158;,
 4;139,140,161,160;,
 4;140,141,162,161;,
 4;141,142,163,162;,
 4;142,143,164,163;,
 4;143,144,165,164;,
 4;144,145,166,165;,
 4;145,146,167,166;,
 4;146,126,147,167;;
 
 MeshMaterialList {
  1;
  240;
  0,
  0,
  0,
  0,
  0,
  0,
  0,
  0,
  0,
  0,
  0,
  0,
  0,
  0,
  0,
  0,
  0,
  0,
  0,
  0,
  0,
  0,
  0,
  0,
  0,
  0,
  0,
  0,
  0,
  0,
  0,
  0,
  0,
  0,
  0,
  0,
  0,
  0,
  0,
  0,
  0,
  0,
  0,
  0,
  0,
  0,
  0,
  0,
  0,
  0,
  0,
  0,
  0,
  0,
  0,
  0,
  0,
  0,
  0,
  0,
  0,
  0,
  0,
  0,
  0,
  0,
  0,
  0,
  0,
  0,
  0,
  0,
  0,
  0,
  0,
  0,
  0,
  0,
  0,
  0,
  0,
  0,
  0,
  0,
  0,
  0,
  0,
  0,
  0,
  0,
  0,
  0,
  0,
  0,
  0,
  0,
  0,
  0,
  0,
  0,
  0,
  0,
  0,
  0,
  0,
  0,
  0,
  0,
  0,
  0,
  0,
  0,
  0,
  0,
  0,
  0,
  0,
  0,
  0,
  0,
  0,
  0,
  0,
  0,
  0,
  0,
  0,
  0,
  0,
  0,
  0,
  0,
  0,
  0,
  0,
  0,
  0,
  0,
  0,
  0,
  0,
  0,
  0,
  0,
  0,
  0,
  0,
  0,
  0,
  0,
  0,
  0,
  0,
  0,
  0,
  0,
  0,
  0,
  0,
  0,
  0,
  0,
  0,
  0,
  0,
  0,
  0,
  0,
  0,
  0,
  0,
  0,
  0,
  0,
  0,
  0,
  0,
  0,
  0,
  0,
  0,
  0,
  0,
  0,
  0,
  0,
  0,
  0,
  0,
  0,
  0,
  0,
  0,
  0,
  0,
  0,
  0,
  0,
  0,
  0,
  0,
  0,
  0,
  0,
  0,
  0,
  0,
  0,
  0,
  0,
  0,
  0,
  0,
  0,
  0,
  0,
  0,
  0,
  0,
  0,
  0,
  0,
  0,
  0,
  0,
  0,
  0,
  0,
  0,
  0,
  0,
  0,
  0,
  0,
  0,
  0,
  0,
  0,
  0,
  0;;
  Material {
   0.800000;0.800000;0.800000;1.000000;;
   5.000000;
   0.000000;0.000000;0.000000;;
   0.000000;0.000000;0.000000;;
   TextureFilename {
    "Texture.png";
   }
  }
 }
 MeshNormals {
  162;
  0.000000;1.000000;0.000000;,
  -0.000001;0.218204;0.975903;,
  -0.301570;0.218205;0.928139;,
  -0.573622;0.218205;0.789522;,
  -0.789522;0.218205;0.573622;,
  -0.928139;0.218205;0.301570;,
  -0.975903;0.218204;0.000000;,
  -0.928139;0.218205;-0.301570;,
  -0.789521;0.218205;-0.573622;,
  -0.573622;0.218205;-0.789522;,
  -0.301570;0.218205;-0.928139;,
  0.000001;0.218204;-0.975903;,
  0.301571;0.218205;-0.928139;,
  0.573622;0.218205;-0.789522;,
  0.789522;0.218205;-0.573622;,
  0.928140;0.218205;-0.301569;,
  0.975903;0.218204;0.000001;,
  0.928139;0.218205;0.301571;,
  0.789521;0.218206;0.573623;,
  0.573621;0.218205;0.789522;,
  0.301568;0.218205;0.928140;,
  -0.000001;0.243086;0.970005;,
  -0.299747;0.243086;0.922530;,
  -0.570155;0.243086;0.784750;,
  -0.784750;0.243086;0.570155;,
  -0.922530;0.243086;0.299747;,
  -0.970005;0.243086;0.000000;,
  -0.922530;0.243086;-0.299747;,
  -0.784750;0.243086;-0.570155;,
  -0.570155;0.243086;-0.784750;,
  -0.299747;0.243086;-0.922530;,
  0.000001;0.243086;-0.970005;,
  0.299748;0.243086;-0.922529;,
  0.570155;0.243085;-0.784750;,
  0.784750;0.243086;-0.570155;,
  0.922530;0.243086;-0.299746;,
  0.970005;0.243086;0.000001;,
  0.922529;0.243086;0.299748;,
  0.784749;0.243086;0.570156;,
  0.570155;0.243086;0.784750;,
  0.299746;0.243086;0.922530;,
  -0.000000;0.288936;0.957348;,
  -0.295836;0.288936;0.910493;,
  -0.562715;0.288936;0.774511;,
  -0.774511;0.288936;0.562715;,
  -0.910493;0.288936;0.295836;,
  -0.957348;0.288936;0.000000;,
  -0.910493;0.288936;-0.295836;,
  -0.774511;0.288936;-0.562715;,
  -0.562715;0.288936;-0.774511;,
  -0.295836;0.288936;-0.910493;,
  0.000000;0.288936;-0.957348;,
  0.295837;0.288936;-0.910492;,
  0.562715;0.288936;-0.774511;,
  0.774512;0.288936;-0.562715;,
  0.910493;0.288936;-0.295835;,
  0.957348;0.288936;0.000001;,
  0.910492;0.288936;0.295837;,
  0.774511;0.288935;0.562716;,
  0.562714;0.288936;0.774512;,
  0.295835;0.288937;0.910493;,
  0.000000;0.309925;0.950761;,
  -0.293801;0.309925;0.904228;,
  -0.558843;0.309925;0.769182;,
  -0.769182;0.309925;0.558842;,
  -0.904228;0.309925;0.293800;,
  -0.950761;0.309925;0.000000;,
  -0.904228;0.309925;-0.293801;,
  -0.769182;0.309925;-0.558843;,
  -0.558842;0.309925;-0.769182;,
  -0.293800;0.309925;-0.904228;,
  0.000000;0.309925;-0.950761;,
  0.293801;0.309925;-0.904227;,
  0.558842;0.309925;-0.769182;,
  0.769183;0.309925;-0.558842;,
  0.904228;0.309925;-0.293799;,
  0.950761;0.309925;0.000001;,
  0.904228;0.309924;0.293802;,
  0.769182;0.309925;0.558843;,
  0.558841;0.309925;0.769183;,
  0.293800;0.309926;0.904228;,
  0.000000;-1.000000;-0.000000;,
  0.000001;-0.218204;-0.975903;,
  0.301570;-0.218205;-0.928139;,
  0.299747;-0.243086;-0.922530;,
  0.000001;-0.243086;-0.970005;,
  0.573622;-0.218205;-0.789522;,
  0.570155;-0.243086;-0.784750;,
  0.789522;-0.218205;-0.573622;,
  0.784750;-0.243086;-0.570155;,
  0.928139;-0.218205;-0.301570;,
  0.922530;-0.243086;-0.299747;,
  0.975903;-0.218204;-0.000000;,
  0.970005;-0.243086;-0.000000;,
  0.928139;-0.218205;0.301570;,
  0.922530;-0.243086;0.299747;,
  0.789521;-0.218205;0.573622;,
  0.784750;-0.243086;0.570155;,
  0.573622;-0.218205;0.789522;,
  0.570155;-0.243086;0.784750;,
  0.301570;-0.218205;0.928139;,
  0.299747;-0.243086;0.922530;,
  -0.000001;-0.218204;0.975903;,
  -0.000001;-0.243086;0.970005;,
  -0.301571;-0.218205;0.928139;,
  -0.299748;-0.243086;0.922529;,
  -0.573622;-0.218205;0.789522;,
  -0.570155;-0.243085;0.784750;,
  -0.789522;-0.218205;0.573622;,
  -0.784750;-0.243086;0.570155;,
  -0.928140;-0.218205;0.301569;,
  -0.922530;-0.243086;0.299746;,
  -0.975903;-0.218204;-0.000001;,
  -0.970005;-0.243086;-0.000001;,
  -0.928139;-0.218205;-0.301571;,
  -0.922529;-0.243086;-0.299748;,
  -0.789521;-0.218206;-0.573623;,
  -0.784749;-0.243086;-0.570156;,
  -0.573621;-0.218205;-0.789522;,
  -0.570155;-0.243086;-0.784750;,
  -0.301568;-0.218205;-0.928140;,
  -0.299746;-0.243086;-0.922530;,
  0.295836;-0.288936;-0.910493;,
  0.000000;-0.288936;-0.957348;,
  0.562715;-0.288936;-0.774511;,
  0.774511;-0.288936;-0.562715;,
  0.910493;-0.288936;-0.295836;,
  0.957348;-0.288936;-0.000000;,
  0.910493;-0.288936;0.295836;,
  0.774511;-0.288936;0.562715;,
  0.562715;-0.288936;0.774511;,
  0.295836;-0.288936;0.910493;,
  -0.000000;-0.288936;0.957348;,
  -0.295837;-0.288936;0.910492;,
  -0.562715;-0.288936;0.774511;,
  -0.774512;-0.288936;0.562715;,
  -0.910493;-0.288936;0.295835;,
  -0.957348;-0.288936;-0.000001;,
  -0.910492;-0.288936;-0.295837;,
  -0.774511;-0.288935;-0.562716;,
  -0.562714;-0.288936;-0.774512;,
  -0.295835;-0.288937;-0.910493;,
  0.293801;-0.309925;-0.904228;,
  -0.000000;-0.309925;-0.950761;,
  0.558843;-0.309925;-0.769182;,
  0.769182;-0.309925;-0.558842;,
  0.904228;-0.309925;-0.293800;,
  0.950761;-0.309925;-0.000000;,
  0.904228;-0.309925;0.293801;,
  0.769182;-0.309925;0.558843;,
  0.558842;-0.309925;0.769182;,
  0.293800;-0.309925;0.904228;,
  -0.000000;-0.309925;0.950761;,
  -0.293801;-0.309925;0.904227;,
  -0.558842;-0.309925;0.769182;,
  -0.769183;-0.309925;0.558842;,
  -0.904228;-0.309925;0.293799;,
  -0.950761;-0.309925;-0.000001;,
  -0.904228;-0.309924;-0.293802;,
  -0.769182;-0.309925;-0.558843;,
  -0.558841;-0.309925;-0.769183;,
  -0.293800;-0.309926;-0.904228;;
  240;
  4;0,0,0,0;,
  4;0,0,0,0;,
  4;0,0,0,0;,
  4;0,0,0,0;,
  4;0,0,0,0;,
  4;0,0,0,0;,
  4;0,0,0,0;,
  4;0,0,0,0;,
  4;0,0,0,0;,
  4;0,0,0,0;,
  4;0,0,0,0;,
  4;0,0,0,0;,
  4;0,0,0,0;,
  4;0,0,0,0;,
  4;0,0,0,0;,
  4;0,0,0,0;,
  4;0,0,0,0;,
  4;0,0,0,0;,
  4;0,0,0,0;,
  4;0,0,0,0;,
  4;0,0,0,0;,
  4;0,0,0,0;,
  4;0,0,0,0;,
  4;0,0,0,0;,
  4;0,0,0,0;,
  4;0,0,0,0;,
  4;0,0,0,0;,
  4;0,0,0,0;,
  4;0,0,0,0;,
  4;0,0,0,0;,
  4;0,0,0,0;,
  4;0,0,0,0;,
  4;0,0,0,0;,
  4;0,0,0,0;,
  4;0,0,0,0;,
  4;0,0,0,0;,
  4;0,0,0,0;,
  4;0,0,0,0;,
  4;0,0,0,0;,
  4;0,0,0,0;,
  4;0,0,0,0;,
  4;0,0,0,0;,
  4;0,0,0,0;,
  4;0,0,0,0;,
  4;0,0,0,0;,
  4;0,0,0,0;,
  4;0,0,0,0;,
  4;0,0,0,0;,
  4;0,0,0,0;,
  4;0,0,0,0;,
  4;0,0,0,0;,
  4;0,0,0,0;,
  4;0,0,0,0;,
  4;0,0,0,0;,
  4;0,0,0,0;,
  4;0,0,0,0;,
  4;0,0,0,0;,
  4;0,0,0,0;,
  4;0,0,0,0;,
  4;0,0,0,0;,
  4;81,81,81,81;,
  4;81,81,81,81;,
  4;81,81,81,81;,
  4;81,81,81,81;,
  4;81,81,81,81;,
  4;81,81,81,81;,
  4;81,81,81,81;,
  4;81,81,81,81;,
  4;81,81,81,81;,
  4;81,81,81,81;,
  4;81,81,81,81;,
  4;81,81,81,81;,
  4;81,81,81,81;,
  4;81,81,81,81;,
  4;81,81,81,81;,
  4;81,81,81,81;,
  4;81,81,81,81;,
  4;81,81,81,81;,
  4;81,81,81,81;,
  4;81,81,81,81;,
  4;81,81,81,81;,
  4;81,81,81,81;,
  4;81,81,81,81;,
  4;81,81,81,81;,
  4;81,81,81,81;,
  4;81,81,81,81;,
  4;81,81,81,81;,
  4;81,81,81,81;,
  4;81,81,81,81;,
  4;81,81,81,81;,
  4;81,81,81,81;,
  4;81,81,81,81;,
  4;81,81,81,81;,
  4;81,81,81,81;,
  4;81,81,81,81;,
  4;81,81,81,81;,
  4;81,81,81,81;,
  4;81,81,81,81;,
  4;81,81,81,81;,
  4;81,81,81,81;,
  4;81,81,81,81;,
  4;81,81,81,81;,
  4;81,81,81,81;,
  4;81,81,81,81;,
  4;81,81,81,81;,
  4;81,81,81,81;,
  4;81,81,81,81;,
  4;81,81,81,81;,
  4;81,81,81,81;,
  4;81,81,81,81;,
  4;81,81,81,81;,
  4;81,81,81,81;,
  4;81,81,81,81;,
  4;81,81,81,81;,
  4;81,81,81,81;,
  4;81,81,81,81;,
  4;81,81,81,81;,
  4;81,81,81,81;,
  4;81,81,81,81;,
  4;81,81,81,81;,
  4;21,22,2,1;,
  4;22,23,3,2;,
  4;23,24,4,3;,
  4;24,25,5,4;,
  4;25,26,6,5;,
  4;26,27,7,6;,
  4;27,28,8,7;,
  4;28,29,9,8;,
  4;29,30,10,9;,
  4;30,31,11,10;,
  4;31,32,12,11;,
  4;32,33,13,12;,
  4;33,34,14,13;,
  4;34,35,15,14;,
  4;35,36,16,15;,
  4;36,37,17,16;,
  4;37,38,18,17;,
  4;38,39,19,18;,
  4;39,40,20,19;,
  4;40,21,1,20;,
  4;41,42,22,21;,
  4;42,43,23,22;,
  4;43,44,24,23;,
  4;44,45,25,24;,
  4;45,46,26,25;,
  4;46,47,27,26;,
  4;47,48,28,27;,
  4;48,49,29,28;,
  4;49,50,30,29;,
  4;50,51,31,30;,
  4;51,52,32,31;,
  4;52,53,33,32;,
  4;53,54,34,33;,
  4;54,55,35,34;,
  4;55,56,36,35;,
  4;56,57,37,36;,
  4;57,58,38,37;,
  4;58,59,39,38;,
  4;59,60,40,39;,
  4;60,41,21,40;,
  4;61,62,42,41;,
  4;62,63,43,42;,
  4;63,64,44,43;,
  4;64,65,45,44;,
  4;65,66,46,45;,
  4;66,67,47,46;,
  4;67,68,48,47;,
  4;68,69,49,48;,
  4;69,70,50,49;,
  4;70,71,51,50;,
  4;71,72,52,51;,
  4;72,73,53,52;,
  4;73,74,54,53;,
  4;74,75,55,54;,
  4;75,76,56,55;,
  4;76,77,57,56;,
  4;77,78,58,57;,
  4;78,79,59,58;,
  4;79,80,60,59;,
  4;80,61,41,60;,
  4;82,83,84,85;,
  4;83,86,87,84;,
  4;86,88,89,87;,
  4;88,90,91,89;,
  4;90,92,93,91;,
  4;92,94,95,93;,
  4;94,96,97,95;,
  4;96,98,99,97;,
  4;98,100,101,99;,
  4;100,102,103,101;,
  4;102,104,105,103;,
  4;104,106,107,105;,
  4;106,108,109,107;,
  4;108,110,111,109;,
  4;110,112,113,111;,
  4;112,114,115,113;,
  4;114,116,117,115;,
  4;116,118,119,117;,
  4;118,120,121,119;,
  4;120,82,85,121;,
  4;85,84,122,123;,
  4;84,87,124,122;,
  4;87,89,125,124;,
  4;89,91,126,125;,
  4;91,93,127,126;,
  4;93,95,128,127;,
  4;95,97,129,128;,
  4;97,99,130,129;,
  4;99,101,131,130;,
  4;101,103,132,131;,
  4;103,105,133,132;,
  4;105,107,134,133;,
  4;107,109,135,134;,
  4;109,111,136,135;,
  4;111,113,137,136;,
  4;113,115,138,137;,
  4;115,117,139,138;,
  4;117,119,140,139;,
  4;119,121,141,140;,
  4;121,85,123,141;,
  4;123,122,142,143;,
  4;122,124,144,142;,
  4;124,125,145,144;,
  4;125,126,146,145;,
  4;126,127,147,146;,
  4;127,128,148,147;,
  4;128,129,149,148;,
  4;129,130,150,149;,
  4;130,131,151,150;,
  4;131,132,152,151;,
  4;132,133,153,152;,
  4;133,134,154,153;,
  4;134,135,155,154;,
  4;135,136,156,155;,
  4;136,137,157,156;,
  4;137,138,158,157;,
  4;138,139,159,158;,
  4;139,140,160,159;,
  4;140,141,161,160;,
  4;141,123,143,161;;
 }
 MeshTextureCoords {
  168;
  0.607420;0.173760;,
  0.555540;0.173760;,
  0.555540;-0.014170;,
  0.607420;-0.014170;,
  0.505980;0.173760;,
  0.505980;-0.014170;,
  0.457240;0.173760;,
  0.457240;-0.014170;,
  0.407990;0.173760;,
  0.407990;-0.014170;,
  0.356370;0.173760;,
  0.356370;-0.014170;,
  0.304580;0.173760;,
  0.304580;-0.014170;,
  0.256710;0.173760;,
  0.256710;-0.014170;,
  0.207640;0.173760;,
  0.207640;-0.014170;,
  0.156780;0.173760;,
  0.156780;-0.014170;,
  0.104910;0.173760;,
  0.104910;-0.014170;,
  0.053040;0.173760;,
  0.053040;-0.014170;,
  0.000640;0.173760;,
  0.000640;-0.014170;,
  0.999460;0.173760;,
  0.951980;0.173760;,
  0.951980;-0.014170;,
  0.999460;-0.014170;,
  0.908170;0.173760;,
  0.908170;-0.014170;,
  0.863180;0.173760;,
  0.863180;-0.014170;,
  0.815780;0.173760;,
  0.815780;-0.014170;,
  0.765750;0.173760;,
  0.765750;-0.014170;,
  0.713870;0.173760;,
  0.713870;-0.014170;,
  0.662010;0.173760;,
  0.662010;-0.014170;,
  0.607420;0.353460;,
  0.555540;0.353460;,
  0.505980;0.353460;,
  0.457240;0.353460;,
  0.407990;0.353460;,
  0.356370;0.353460;,
  0.304580;0.353460;,
  0.256710;0.353460;,
  0.207640;0.353460;,
  0.156780;0.353460;,
  0.104910;0.353460;,
  0.053040;0.353460;,
  0.000640;0.353460;,
  0.999460;0.353460;,
  0.951980;0.353460;,
  0.908170;0.353460;,
  0.863180;0.353460;,
  0.815780;0.353460;,
  0.765750;0.353460;,
  0.713870;0.353460;,
  0.662010;0.353460;,
  0.607420;0.538070;,
  0.555540;0.538070;,
  0.505980;0.538070;,
  0.457240;0.538070;,
  0.407990;0.538070;,
  0.356370;0.538070;,
  0.304580;0.538070;,
  0.256710;0.538070;,
  0.207640;0.538070;,
  0.156780;0.538070;,
  0.104910;0.538070;,
  0.053040;0.538070;,
  0.000640;0.538070;,
  0.999460;0.538070;,
  0.951980;0.538070;,
  0.908170;0.538070;,
  0.863180;0.538070;,
  0.815780;0.538070;,
  0.765750;0.538070;,
  0.713870;0.538070;,
  0.662010;0.538070;,
  0.607420;0.173760;,
  0.555540;0.173760;,
  0.555540;-0.014170;,
  0.607420;-0.014170;,
  0.505980;0.173760;,
  0.505980;-0.014170;,
  0.457240;0.173760;,
  0.457240;-0.014170;,
  0.407990;0.173760;,
  0.407990;-0.014170;,
  0.356370;0.173760;,
  0.356370;-0.014170;,
  0.304580;0.173760;,
  0.304580;-0.014170;,
  0.256710;0.173760;,
  0.256710;-0.014170;,
  0.207640;0.173760;,
  0.207640;-0.014170;,
  0.156780;0.173760;,
  0.156780;-0.014170;,
  0.104910;0.173760;,
  0.104910;-0.014170;,
  0.053040;0.173760;,
  0.053040;-0.014170;,
  0.000640;0.173760;,
  0.000640;-0.014170;,
  0.999460;0.173760;,
  0.951980;0.173760;,
  0.951980;-0.014170;,
  0.999460;-0.014170;,
  0.908170;0.173760;,
  0.908170;-0.014170;,
  0.863180;0.173760;,
  0.863180;-0.014170;,
  0.815780;0.173760;,
  0.815780;-0.014170;,
  0.765750;0.173760;,
  0.765750;-0.014170;,
  0.713870;0.173760;,
  0.713870;-0.014170;,
  0.662010;0.173760;,
  0.662010;-0.014170;,
  0.607420;0.353460;,
  0.555540;0.353460;,
  0.505980;0.353460;,
  0.457240;0.353460;,
  0.407990;0.353460;,
  0.356370;0.353460;,
  0.304580;0.353460;,
  0.256710;0.353460;,
  0.207640;0.353460;,
  0.156780;0.353460;,
  0.104910;0.353460;,
  0.053040;0.353460;,
  0.000640;0.353460;,
  0.999460;0.353460;,
  0.951980;0.353460;,
  0.908170;0.353460;,
  0.863180;0.353460;,
  0.815780;0.353460;,
  0.765750;0.353460;,
  0.713870;0.353460;,
  0.662010;0.353460;,
  0.607420;0.538070;,
  0.555540;0.538070;,
  0.505980;0.538070;,
  0.457240;0.538070;,
  0.407990;0.538070;,
  0.356370;0.538070;,
  0.304580;0.538070;,
  0.256710;0.538070;,
  0.207640;0.538070;,
  0.156780;0.538070;,
  0.104910;0.538070;,
  0.053040;0.538070;,
  0.000640;0.538070;,
  0.999460;0.538070;,
  0.951980;0.538070;,
  0.908170;0.538070;,
  0.863180;0.538070;,
  0.815780;0.538070;,
  0.765750;0.538070;,
  0.713870;0.538070;,
  0.662010;0.538070;;
 }
 MeshVertexColors {
  168;
  0;1.000000;1.000000;1.000000;1.000000;,
  1;1.000000;1.000000;1.000000;1.000000;,
  2;1.000000;1.000000;1.000000;1.000000;,
  3;1.000000;1.000000;1.000000;1.000000;,
  4;1.000000;1.000000;1.000000;1.000000;,
  5;1.000000;1.000000;1.000000;1.000000;,
  6;1.000000;1.000000;1.000000;1.000000;,
  7;1.000000;1.000000;1.000000;1.000000;,
  8;1.000000;1.000000;1.000000;1.000000;,
  9;1.000000;1.000000;1.000000;1.000000;,
  10;1.000000;1.000000;1.000000;1.000000;,
  11;1.000000;1.000000;1.000000;1.000000;,
  12;1.000000;1.000000;1.000000;1.000000;,
  13;1.000000;1.000000;1.000000;1.000000;,
  14;1.000000;1.000000;1.000000;1.000000;,
  15;1.000000;1.000000;1.000000;1.000000;,
  16;1.000000;1.000000;1.000000;1.000000;,
  17;1.000000;1.000000;1.000000;1.000000;,
  18;1.000000;1.000000;1.000000;1.000000;,
  19;1.000000;1.000000;1.000000;1.000000;,
  20;1.000000;1.000000;1.000000;1.000000;,
  21;1.000000;1.000000;1.000000;1.000000;,
  22;1.000000;1.000000;1.000000;1.000000;,
  23;1.000000;1.000000;1.000000;1.000000;,
  24;1.000000;1.000000;1.000000;1.000000;,
  25;1.000000;1.000000;1.000000;1.000000;,
  26;1.000000;1.000000;1.000000;1.000000;,
  27;1.000000;1.000000;1.000000;1.000000;,
  28;1.000000;1.000000;1.000000;1.000000;,
  29;1.000000;1.000000;1.000000;1.000000;,
  30;1.000000;1.000000;1.000000;1.000000;,
  31;1.000000;1.000000;1.000000;1.000000;,
  32;1.000000;1.000000;1.000000;1.000000;,
  33;1.000000;1.000000;1.000000;1.000000;,
  34;1.000000;1.000000;1.000000;1.000000;,
  35;1.000000;1.000000;1.000000;1.000000;,
  36;1.000000;1.000000;1.000000;1.000000;,
  37;1.000000;1.000000;1.000000;1.000000;,
  38;1.000000;1.000000;1.000000;1.000000;,
  39;1.000000;1.000000;1.000000;1.000000;,
  40;1.000000;1.000000;1.000000;1.000000;,
  41;1.000000;1.000000;1.000000;1.000000;,
  42;1.000000;1.000000;1.000000;1.000000;,
  43;1.000000;1.000000;1.000000;1.000000;,
  44;1.000000;1.000000;1.000000;1.000000;,
  45;1.000000;1.000000;1.000000;1.000000;,
  46;1.000000;1.000000;1.000000;1.000000;,
  47;1.000000;1.000000;1.000000;1.000000;,
  48;1.000000;1.000000;1.000000;1.000000;,
  49;1.000000;1.000000;1.000000;1.000000;,
  50;1.000000;1.000000;1.000000;1.000000;,
  51;1.000000;1.000000;1.000000;1.000000;,
  52;1.000000;1.000000;1.000000;1.000000;,
  53;1.000000;1.000000;1.000000;1.000000;,
  54;1.000000;1.000000;1.000000;1.000000;,
  55;1.000000;1.000000;1.000000;1.000000;,
  56;1.000000;1.000000;1.000000;1.000000;,
  57;1.000000;1.000000;1.000000;1.000000;,
  58;1.000000;1.000000;1.000000;1.000000;,
  59;1.000000;1.000000;1.000000;1.000000;,
  60;1.000000;1.000000;1.000000;1.000000;,
  61;1.000000;1.000000;1.000000;1.000000;,
  62;1.000000;1.000000;1.000000;1.000000;,
  63;1.000000;1.000000;1.000000;1.000000;,
  64;1.000000;1.000000;1.000000;1.000000;,
  65;1.000000;1.000000;1.000000;1.000000;,
  66;1.000000;1.000000;1.000000;1.000000;,
  67;1.000000;1.000000;1.000000;1.000000;,
  68;1.000000;1.000000;1.000000;1.000000;,
  69;1.000000;1.000000;1.000000;1.000000;,
  70;1.000000;1.000000;1.000000;1.000000;,
  71;1.000000;1.000000;1.000000;1.000000;,
  72;1.000000;1.000000;1.000000;1.000000;,
  73;1.000000;1.000000;1.000000;1.000000;,
  74;1.000000;1.000000;1.000000;1.000000;,
  75;1.000000;1.000000;1.000000;1.000000;,
  76;1.000000;1.000000;1.000000;1.000000;,
  77;1.000000;1.000000;1.000000;1.000000;,
  78;1.000000;1.000000;1.000000;1.000000;,
  79;1.000000;1.000000;1.000000;1.000000;,
  80;1.000000;1.000000;1.000000;1.000000;,
  81;1.000000;1.000000;1.000000;1.000000;,
  82;1.000000;1.000000;1.000000;1.000000;,
  83;1.000000;1.000000;1.000000;1.000000;,
  84;1.000000;1.000000;1.000000;1.000000;,
  85;1.000000;1.000000;1.000000;1.000000;,
  86;1.000000;1.000000;1.000000;1.000000;,
  87;1.000000;1.000000;1.000000;1.000000;,
  88;1.000000;1.000000;1.000000;1.000000;,
  89;1.000000;1.000000;1.000000;1.000000;,
  90;1.000000;1.000000;1.000000;1.000000;,
  91;1.000000;1.000000;1.000000;1.000000;,
  92;1.000000;1.000000;1.000000;1.000000;,
  93;1.000000;1.000000;1.000000;1.000000;,
  94;1.000000;1.000000;1.000000;1.000000;,
  95;1.000000;1.000000;1.000000;1.000000;,
  96;1.000000;1.000000;1.000000;1.000000;,
  97;1.000000;1.000000;1.000000;1.000000;,
  98;1.000000;1.000000;1.000000;1.000000;,
  99;1.000000;1.000000;1.000000;1.000000;,
  100;1.000000;1.000000;1.000000;1.000000;,
  101;1.000000;1.000000;1.000000;1.000000;,
  102;1.000000;1.000000;1.000000;1.000000;,
  103;1.000000;1.000000;1.000000;1.000000;,
  104;1.000000;1.000000;1.000000;1.000000;,
  105;1.000000;1.000000;1.000000;1.000000;,
  106;1.000000;1.000000;1.000000;1.000000;,
  107;1.000000;1.000000;1.000000;1.000000;,
  108;1.000000;1.000000;1.000000;1.000000;,
  109;1.000000;1.000000;1.000000;1.000000;,
  110;1.000000;1.000000;1.000000;1.000000;,
  111;1.000000;1.000000;1.000000;1.000000;,
  112;1.000000;1.000000;1.000000;1.000000;,
  113;1.000000;1.000000;1.000000;1.000000;,
  114;1.000000;1.000000;1.000000;1.000000;,
  115;1.000000;1.000000;1.000000;1.000000;,
  116;1.000000;1.000000;1.000000;1.000000;,
  117;1.000000;1.000000;1.000000;1.000000;,
  118;1.000000;1.000000;1.000000;1.000000;,
  119;1.000000;1.000000;1.000000;1.000000;,
  120;1.000000;1.000000;1.000000;1.000000;,
  121;1.000000;1.000000;1.000000;1.000000;,
  122;1.000000;1.000000;1.000000;1.000000;,
  123;1.000000;1.000000;1.000000;1.000000;,
  124;1.000000;1.000000;1.000000;1.000000;,
  125;1.000000;1.000000;1.000000;1.000000;,
  126;1.000000;1.000000;1.000000;1.000000;,
  127;1.000000;1.000000;1.000000;1.000000;,
  128;1.000000;1.000000;1.000000;1.000000;,
  129;1.000000;1.000000;1.000000;1.000000;,
  130;1.000000;1.000000;1.000000;1.000000;,
  131;1.000000;1.000000;1.000000;1.000000;,
  132;1.000000;1.000000;1.000000;1.000000;,
  133;1.000000;1.000000;1.000000;1.000000;,
  134;1.000000;1.000000;1.000000;1.000000;,
  135;1.000000;1.000000;1.000000;1.000000;,
  136;1.000000;1.000000;1.000000;1.000000;,
  137;1.000000;1.000000;1.000000;1.000000;,
  138;1.000000;1.000000;1.000000;1.000000;,
  139;1.000000;1.000000;1.000000;1.000000;,
  140;1.000000;1.000000;1.000000;1.000000;,
  141;1.000000;1.000000;1.000000;1.000000;,
  142;1.000000;1.000000;1.000000;1.000000;,
  143;1.000000;1.000000;1.000000;1.000000;,
  144;1.000000;1.000000;1.000000;1.000000;,
  145;1.000000;1.000000;1.000000;1.000000;,
  146;1.000000;1.000000;1.000000;1.000000;,
  147;1.000000;1.000000;1.000000;1.000000;,
  148;1.000000;1.000000;1.000000;1.000000;,
  149;1.000000;1.000000;1.000000;1.000000;,
  150;1.000000;1.000000;1.000000;1.000000;,
  151;1.000000;1.000000;1.000000;1.000000;,
  152;1.000000;1.000000;1.000000;1.000000;,
  153;1.000000;1.000000;1.000000;1.000000;,
  154;1.000000;1.000000;1.000000;1.000000;,
  155;1.000000;1.000000;1.000000;1.000000;,
  156;1.000000;1.000000;1.000000;1.000000;,
  157;1.000000;1.000000;1.000000;1.000000;,
  158;1.000000;1.000000;1.000000;1.000000;,
  159;1.000000;1.000000;1.000000;1.000000;,
  160;1.000000;1.000000;1.000000;1.000000;,
  161;1.000000;1.000000;1.000000;1.000000;,
  162;1.000000;1.000000;1.000000;1.000000;,
  163;1.000000;1.000000;1.000000;1.000000;,
  164;1.000000;1.000000;1.000000;1.000000;,
  165;1.000000;1.000000;1.000000;1.000000;,
  166;1.000000;1.000000;1.000000;1.000000;,
  167;1.000000;1.000000;1.000000;1.000000;;
 }
}
