xof 0302txt 0064
template Header {
 <3D82AB43-62DA-11cf-AB39-0020AF71E433>
 WORD major;
 WORD minor;
 DWORD flags;
}

template Vector {
 <3D82AB5E-62DA-11cf-AB39-0020AF71E433>
 FLOAT x;
 FLOAT y;
 FLOAT z;
}

template Coords2d {
 <F6F23F44-7686-11cf-8F52-0040333594A3>
 FLOAT u;
 FLOAT v;
}

template Matrix4x4 {
 <F6F23F45-7686-11cf-8F52-0040333594A3>
 array FLOAT matrix[16];
}

template ColorRGBA {
 <35FF44E0-6C7C-11cf-8F52-0040333594A3>
 FLOAT red;
 FLOAT green;
 FLOAT blue;
 FLOAT alpha;
}

template ColorRGB {
 <D3E16E81-7835-11cf-8F52-0040333594A3>
 FLOAT red;
 FLOAT green;
 FLOAT blue;
}

template IndexedColor {
 <1630B820-7842-11cf-8F52-0040333594A3>
 DWORD index;
 ColorRGBA indexColor;
}

template Boolean {
 <4885AE61-78E8-11cf-8F52-0040333594A3>
 WORD truefalse;
}

template Boolean2d {
 <4885AE63-78E8-11cf-8F52-0040333594A3>
 Boolean u;
 Boolean v;
}

template MaterialWrap {
 <4885AE60-78E8-11cf-8F52-0040333594A3>
 Boolean u;
 Boolean v;
}

template TextureFilename {
 <A42790E1-7810-11cf-8F52-0040333594A3>
 STRING filename;
}

template Material {
 <3D82AB4D-62DA-11cf-AB39-0020AF71E433>
 ColorRGBA faceColor;
 FLOAT power;
 ColorRGB specularColor;
 ColorRGB emissiveColor;
 [...]
}

template MeshFace {
 <3D82AB5F-62DA-11cf-AB39-0020AF71E433>
 DWORD nFaceVertexIndices;
 array DWORD faceVertexIndices[nFaceVertexIndices];
}

template MeshFaceWraps {
 <4885AE62-78E8-11cf-8F52-0040333594A3>
 DWORD nFaceWrapValues;
 Boolean2d faceWrapValues;
}

template MeshTextureCoords {
 <F6F23F40-7686-11cf-8F52-0040333594A3>
 DWORD nTextureCoords;
 array Coords2d textureCoords[nTextureCoords];
}

template MeshMaterialList {
 <F6F23F42-7686-11cf-8F52-0040333594A3>
 DWORD nMaterials;
 DWORD nFaceIndexes;
 array DWORD faceIndexes[nFaceIndexes];
 [Material]
}

template MeshNormals {
 <F6F23F43-7686-11cf-8F52-0040333594A3>
 DWORD nNormals;
 array Vector normals[nNormals];
 DWORD nFaceNormals;
 array MeshFace faceNormals[nFaceNormals];
}

template MeshVertexColors {
 <1630B821-7842-11cf-8F52-0040333594A3>
 DWORD nVertexColors;
 array IndexedColor vertexColors[nVertexColors];
}

template Mesh {
 <3D82AB44-62DA-11cf-AB39-0020AF71E433>
 DWORD nVertices;
 array Vector vertices[nVertices];
 DWORD nFaces;
 array MeshFace faces[nFaces];
 [...]
}

Header{
1;
0;
1;
}

Mesh {
 172;
 -56.36320;9.44570;-1.15670;,
 -90.66560;9.44570;-0.71120;,
 -78.84130;9.44570;44.71270;,
 -49.34180;9.44570;27.16360;,
 -33.10780;9.44570;17.58310;,
 -37.52640;9.44570;-1.38940;,
 -56.36320;9.44570;-1.15670;,
 -37.52640;9.44570;-1.38940;,
 -31.80850;9.44570;-19.87290;,
 -48.24110;9.44570;-29.13150;,
 -78.17270;9.44570;-45.90910;,
 -90.66560;9.44570;-0.71120;,
 -45.90890;9.44570;78.14150;,
 -29.12600;9.44570;48.18780;,
 -19.85330;9.44570;31.80990;,
 -17.70190;9.44570;-32.98070;,
 -27.25340;9.44570;-49.27020;,
 -44.78360;9.44570;-78.79080;,
 -0.67980;9.44570;90.58660;,
 -1.12470;9.44570;56.23890;,
 -1.27430;9.44570;37.38950;,
 1.17930;9.44570;-37.47910;,
 1.01820;9.44570;-56.31630;,
 0.60880;9.44570;-90.64120;,
 44.71130;9.44570;78.76480;,
 27.15380;9.44570;49.23030;,
 17.60130;9.44570;32.97580;,
 19.46860;9.44570;-31.89450;,
 28.89360;9.44570;-48.23110;,
 45.73990;9.44570;-78.19170;,
 78.17140;9.44570;45.77710;,
 48.20290;9.44570;28.93360;,
 31.92540;9.44570;19.56060;,
 32.88370;9.44570;-17.57030;,
 49.19030;9.44570;-27.18200;,
 78.72730;9.44570;-44.73170;,
 90.55270;9.44570;0.62710;,
 56.19430;9.44570;1.05360;,
 37.31040;9.44570;1.21030;,
 -147.67239;9.44570;85.25880;,
 -83.15880;9.44570;144.03540;,
 -166.31760;9.44570;0.00010;,
 0.00000;9.44570;170.51740;,
 -147.67250;9.44570;-85.25860;,
 -166.31760;9.44570;0.00010;,
 83.15880;9.44570;144.03529;,
 -83.15890;9.44570;-144.03529;,
 147.67239;9.44570;85.25870;,
 0.00000;9.44570;-170.51740;,
 166.31760;9.44570;0.00000;,
 83.15880;9.44570;-144.03529;,
 147.67239;9.44570;-85.25870;,
 -101.83470;249.12500;-5.62040;,
 -87.02460;504.03851;61.03750;,
 -74.68880;243.00810;58.25080;,
 -19.48620;247.79250;100.35880;,
 -74.68880;243.00810;58.25080;,
 -87.02460;504.03851;61.03750;,
 -58.80350;-2.81630;45.06240;,
 -85.94930;3.30060;-18.80870;,
 -3.60090;1.96820;87.17040;,
 -58.80350;-2.81630;45.06240;,
 77.15800;249.12500;66.69740;,
 13.26220;243.00810;93.78530;,
 20.20000;504.03851;104.35910;,
 -55.69790;247.79250;85.72830;,
 20.20000;504.03851;104.35910;,
 13.26220;243.00810;93.78530;,
 74.89240;3.30060;46.17560;,
 10.99670;-2.81630;73.26350;,
 -57.96340;1.96820;65.20650;,
 10.99670;-2.81630;73.26350;,
 -77.15800;249.12500;-66.69740;,
 -13.26220;243.00810;-93.78530;,
 -20.20000;504.03851;-104.35910;,
 55.69790;247.79250;-85.72830;,
 -20.20000;504.03851;-104.35910;,
 -13.26220;243.00810;-93.78530;,
 -74.89240;3.30060;-46.17560;,
 -10.99670;-2.81630;-73.26350;,
 57.96340;1.96820;-65.20650;,
 -10.99670;-2.81630;-73.26350;,
 101.83470;249.12500;5.62040;,
 87.02460;504.03851;-61.03750;,
 74.68880;243.00810;-58.25080;,
 19.48620;247.79250;-100.35880;,
 74.68880;243.00810;-58.25080;,
 87.02460;504.03851;-61.03750;,
 58.80350;-2.81630;-45.06240;,
 85.94930;3.30060;18.80870;,
 3.60090;1.96820;-87.17040;,
 58.80350;-2.81630;-45.06240;,
 72.39430;105.35040;-106.68910;,
 -9.47920;232.79179;-134.04131;,
 -14.49130;102.29230;-118.85980;,
 -96.06180;104.68430;-86.45830;,
 -14.49130;102.29230;-118.85980;,
 -9.47920;232.79179;-134.04131;,
 -10.54310;-20.60490;-93.05950;,
 76.34240;-17.54680;-80.88880;,
 -92.11360;-18.21290;-60.65810;,
 -10.54310;-20.60490;-93.05950;,
 -122.51070;105.35040;40.18240;,
 -110.26110;102.29230;-46.69210;,
 -126.23600;232.79179;-46.05880;,
 -56.63090;104.68430;-116.17170;,
 -126.23600;232.79179;-46.05880;,
 -110.26110;102.29230;-46.69210;,
 -98.79800;-17.54680;51.08900;,
 -86.54850;-20.60490;-35.78540;,
 -32.91830;-18.21290;-105.26490;,
 -86.54850;-20.60490;-35.78540;,
 122.51070;105.35040;-40.18240;,
 110.26110;102.29230;46.69210;,
 126.23600;232.79179;46.05880;,
 56.63090;104.68430;116.17170;,
 126.23600;232.79179;46.05880;,
 110.26110;102.29230;46.69210;,
 98.79800;-17.54680;-51.08900;,
 86.54850;-20.60490;35.78540;,
 32.91830;-18.21290;105.26490;,
 86.54850;-20.60490;35.78540;,
 -72.39430;105.35040;106.68910;,
 9.47920;232.79179;134.04131;,
 14.49130;102.29230;118.85980;,
 96.06180;104.68430;86.45830;,
 14.49130;102.29230;118.85980;,
 9.47920;232.79179;134.04131;,
 10.54310;-20.60490;93.05950;,
 -76.34240;-17.54680;80.88880;,
 92.11360;-18.21290;60.65810;,
 10.54310;-20.60490;93.05950;,
 -26.05410;70.37930;-76.35440;,
 -70.55460;175.81799;-45.73970;,
 -64.85530;67.84920;-37.51800;,
 -79.38080;69.82810;15.44710;,
 -64.85530;67.84920;-37.51800;,
 -70.55460;175.81799;-45.73970;,
 -50.47530;-33.83000;-29.77530;,
 -11.67410;-31.29990;-68.61160;,
 -65.00070;-31.85110;23.18990;,
 -50.47530;-33.83000;-29.77530;,
 -26.05410;70.37930;76.35440;,
 -64.85530;67.84920;37.51800;,
 -70.55460;175.81799;45.73970;,
 -79.38080;69.82810;-15.44710;,
 -70.55460;175.81799;45.73970;,
 -64.85530;67.84920;37.51800;,
 -11.67410;-31.29990;68.61160;,
 -50.47530;-33.83000;29.77530;,
 -65.00070;-31.85110;-23.18990;,
 -50.47530;-33.83000;29.77530;,
 26.05410;70.37930;-76.35440;,
 64.85530;67.84920;-37.51800;,
 70.55460;175.81799;-45.73970;,
 79.38080;69.82810;15.44710;,
 70.55460;175.81799;-45.73970;,
 64.85530;67.84920;-37.51800;,
 11.67410;-31.29990;-68.61160;,
 50.47530;-33.83000;-29.77530;,
 65.00070;-31.85110;23.18990;,
 50.47530;-33.83000;-29.77530;,
 26.05410;70.37930;76.35440;,
 70.55460;175.81799;45.73970;,
 64.85530;67.84920;37.51800;,
 79.38080;69.82810;-15.44710;,
 64.85530;67.84920;37.51800;,
 70.55460;175.81799;45.73970;,
 50.47530;-33.83000;29.77530;,
 11.67410;-31.29990;68.61160;,
 65.00070;-31.85110;-23.18990;,
 50.47530;-33.83000;29.77530;;
 
 216;
 4;0,1,2,3;,
 4;0,3,4,5;,
 4;6,7,8,9;,
 4;6,9,10,11;,
 4;3,2,12,13;,
 4;3,13,14,4;,
 4;9,8,15,16;,
 4;9,16,17,10;,
 4;13,12,18,19;,
 4;13,19,20,14;,
 4;16,15,21,22;,
 4;16,22,23,17;,
 4;19,18,24,25;,
 4;19,25,26,20;,
 4;22,21,27,28;,
 4;22,28,29,23;,
 4;25,24,30,31;,
 4;25,31,32,26;,
 4;28,27,33,34;,
 4;28,34,35,29;,
 4;31,30,36,37;,
 4;31,37,38,32;,
 4;34,33,38,37;,
 4;34,37,36,35;,
 4;39,40,12,2;,
 4;2,1,41,39;,
 4;40,42,18,12;,
 4;11,10,43,44;,
 4;42,45,24,18;,
 4;10,17,46,43;,
 4;45,47,30,24;,
 4;17,23,48,46;,
 4;47,49,36,30;,
 4;23,29,50,48;,
 4;49,51,35,36;,
 4;29,35,51,50;,
 3;52,53,54;,
 3;55,56,57;,
 3;54,58,59;,
 3;54,59,52;,
 3;60,61,56;,
 3;60,56,55;,
 3;62,63,64;,
 3;65,66,67;,
 3;63,68,69;,
 3;63,62,68;,
 3;70,67,71;,
 3;70,65,67;,
 3;72,73,74;,
 3;75,76,77;,
 3;73,78,79;,
 3;73,72,78;,
 3;80,77,81;,
 3;80,75,77;,
 3;82,83,84;,
 3;85,86,87;,
 3;84,88,89;,
 3;84,89,82;,
 3;90,91,86;,
 3;90,86,85;,
 3;92,93,94;,
 3;95,96,97;,
 3;94,98,99;,
 3;94,99,92;,
 3;100,101,96;,
 3;100,96,95;,
 3;102,103,104;,
 3;105,106,107;,
 3;103,108,109;,
 3;103,102,108;,
 3;110,107,111;,
 3;110,105,107;,
 3;112,113,114;,
 3;115,116,117;,
 3;113,118,119;,
 3;113,112,118;,
 3;120,117,121;,
 3;120,115,117;,
 3;122,123,124;,
 3;125,126,127;,
 3;124,128,129;,
 3;124,129,122;,
 3;130,131,126;,
 3;130,126,125;,
 3;132,133,134;,
 3;135,136,137;,
 3;134,138,139;,
 3;134,139,132;,
 3;140,141,136;,
 3;140,136,135;,
 3;142,143,144;,
 3;145,146,147;,
 3;143,148,149;,
 3;143,142,148;,
 3;150,147,151;,
 3;150,145,147;,
 3;152,153,154;,
 3;155,156,157;,
 3;153,158,159;,
 3;153,152,158;,
 3;160,157,161;,
 3;160,155,157;,
 3;162,163,164;,
 3;165,166,167;,
 3;164,168,169;,
 3;164,169,162;,
 3;170,171,166;,
 3;170,166,165;,
 4;3,2,1,0;,
 4;5,4,3,0;,
 4;9,8,7,6;,
 4;11,10,9,6;,
 4;13,12,2,3;,
 4;4,14,13,3;,
 4;16,15,8,9;,
 4;10,17,16,9;,
 4;19,18,12,13;,
 4;14,20,19,13;,
 4;22,21,15,16;,
 4;17,23,22,16;,
 4;25,24,18,19;,
 4;20,26,25,19;,
 4;28,27,21,22;,
 4;23,29,28,22;,
 4;31,30,24,25;,
 4;26,32,31,25;,
 4;34,33,27,28;,
 4;29,35,34,28;,
 4;37,36,30,31;,
 4;32,38,37,31;,
 4;37,38,33,34;,
 4;35,36,37,34;,
 4;2,12,40,39;,
 4;39,41,1,2;,
 4;12,18,42,40;,
 4;44,43,10,11;,
 4;18,24,45,42;,
 4;43,46,17,10;,
 4;24,30,47,45;,
 4;46,48,23,17;,
 4;30,36,49,47;,
 4;48,50,29,23;,
 4;36,35,51,49;,
 4;50,51,35,29;,
 3;54,53,52;,
 3;57,56,55;,
 3;59,58,54;,
 3;52,59,54;,
 3;56,61,60;,
 3;55,56,60;,
 3;64,63,62;,
 3;67,66,65;,
 3;69,68,63;,
 3;68,62,63;,
 3;71,67,70;,
 3;67,65,70;,
 3;74,73,72;,
 3;77,76,75;,
 3;79,78,73;,
 3;78,72,73;,
 3;81,77,80;,
 3;77,75,80;,
 3;84,83,82;,
 3;87,86,85;,
 3;89,88,84;,
 3;82,89,84;,
 3;86,91,90;,
 3;85,86,90;,
 3;94,93,92;,
 3;97,96,95;,
 3;99,98,94;,
 3;92,99,94;,
 3;96,101,100;,
 3;95,96,100;,
 3;104,103,102;,
 3;107,106,105;,
 3;109,108,103;,
 3;108,102,103;,
 3;111,107,110;,
 3;107,105,110;,
 3;114,113,112;,
 3;117,116,115;,
 3;119,118,113;,
 3;118,112,113;,
 3;121,117,120;,
 3;117,115,120;,
 3;124,123,122;,
 3;127,126,125;,
 3;129,128,124;,
 3;122,129,124;,
 3;126,131,130;,
 3;125,126,130;,
 3;134,133,132;,
 3;137,136,135;,
 3;139,138,134;,
 3;132,139,134;,
 3;136,141,140;,
 3;135,136,140;,
 3;144,143,142;,
 3;147,146,145;,
 3;149,148,143;,
 3;148,142,143;,
 3;151,147,150;,
 3;147,145,150;,
 3;154,153,152;,
 3;157,156,155;,
 3;159,158,153;,
 3;158,152,153;,
 3;161,157,160;,
 3;157,155,160;,
 3;164,163,162;,
 3;167,166,165;,
 3;169,168,164;,
 3;162,169,164;,
 3;166,171,170;,
 3;165,166,170;;
 
 MeshMaterialList {
  1;
  216;
  0,
  0,
  0,
  0,
  0,
  0,
  0,
  0,
  0,
  0,
  0,
  0,
  0,
  0,
  0,
  0,
  0,
  0,
  0,
  0,
  0,
  0,
  0,
  0,
  0,
  0,
  0,
  0,
  0,
  0,
  0,
  0,
  0,
  0,
  0,
  0,
  0,
  0,
  0,
  0,
  0,
  0,
  0,
  0,
  0,
  0,
  0,
  0,
  0,
  0,
  0,
  0,
  0,
  0,
  0,
  0,
  0,
  0,
  0,
  0,
  0,
  0,
  0,
  0,
  0,
  0,
  0,
  0,
  0,
  0,
  0,
  0,
  0,
  0,
  0,
  0,
  0,
  0,
  0,
  0,
  0,
  0,
  0,
  0,
  0,
  0,
  0,
  0,
  0,
  0,
  0,
  0,
  0,
  0,
  0,
  0,
  0,
  0,
  0,
  0,
  0,
  0,
  0,
  0,
  0,
  0,
  0,
  0,
  0,
  0,
  0,
  0,
  0,
  0,
  0,
  0,
  0,
  0,
  0,
  0,
  0,
  0,
  0,
  0,
  0,
  0,
  0,
  0,
  0,
  0,
  0,
  0,
  0,
  0,
  0,
  0,
  0,
  0,
  0,
  0,
  0,
  0,
  0,
  0,
  0,
  0,
  0,
  0,
  0,
  0,
  0,
  0,
  0,
  0,
  0,
  0,
  0,
  0,
  0,
  0,
  0,
  0,
  0,
  0,
  0,
  0,
  0,
  0,
  0,
  0,
  0,
  0,
  0,
  0,
  0,
  0,
  0,
  0,
  0,
  0,
  0,
  0,
  0,
  0,
  0,
  0,
  0,
  0,
  0,
  0,
  0,
  0,
  0,
  0,
  0,
  0,
  0,
  0,
  0,
  0,
  0,
  0,
  0,
  0,
  0,
  0,
  0,
  0,
  0,
  0,
  0,
  0,
  0,
  0,
  0,
  0;;
  Material {
   0.800000;0.800000;0.800000;1.000000;;
   5.000000;
   0.000000;0.000000;0.000000;;
   0.000000;0.000000;0.000000;;
   TextureFilename {
    "Aura.png";
   }
  }
 }
 MeshNormals {
  170;
  0.000000;1.000000;0.000000;,
  0.789383;0.043842;-0.612334;,
  0.599999;0.081469;-0.795842;,
  0.787357;0.083648;-0.610796;,
  0.920112;0.080027;-0.383392;,
  0.602170;0.059272;-0.796165;,
  0.788172;0.070387;-0.611417;,
  0.920636;0.063847;-0.385165;,
  -0.142471;0.043842;-0.988828;,
  0.121235;0.081469;-0.989275;,
  -0.142082;0.083648;-0.986314;,
  -0.395546;0.080027;-0.914953;,
  0.119898;0.059272;-0.991015;,
  -0.142237;0.070387;-0.987327;,
  -0.394691;0.063847;-0.916593;,
  0.142471;0.043842;0.988828;,
  -0.121235;0.081469;0.989275;,
  0.142082;0.083648;0.986314;,
  0.395546;0.080027;0.914953;,
  -0.119898;0.059272;0.991015;,
  0.142237;0.070387;0.987327;,
  0.394691;0.063847;0.916593;,
  -0.789383;0.043842;0.612334;,
  -0.599999;0.081469;0.795842;,
  -0.787357;0.083648;0.610796;,
  -0.920112;0.080027;0.383392;,
  -0.602170;0.059272;0.796165;,
  -0.788172;0.070387;0.611417;,
  -0.920636;0.063847;0.385165;,
  0.118020;0.110273;0.986869;,
  0.366642;0.202414;0.908076;,
  0.115790;0.207635;0.971329;,
  -0.142814;0.198953;0.969547;,
  0.368840;0.148096;0.917619;,
  0.116660;0.175378;0.977565;,
  -0.142450;0.159485;0.976869;,
  0.916109;0.110274;0.385466;,
  0.771838;0.202415;0.602739;,
  0.901786;0.207635;0.379039;,
  0.971354;0.198953;0.129960;,
  0.780406;0.148097;0.607482;,
  0.907540;0.175379;0.381593;,
  0.978291;0.159485;0.132328;,
  -0.916109;0.110274;-0.385466;,
  -0.771838;0.202415;-0.602739;,
  -0.901786;0.207635;-0.379039;,
  -0.971354;0.198953;-0.129960;,
  -0.780406;0.148097;-0.607482;,
  -0.907540;0.175379;-0.381593;,
  -0.978291;0.159485;-0.132328;,
  -0.118020;0.110273;-0.986869;,
  -0.366642;0.202414;-0.908076;,
  -0.115790;0.207635;-0.971329;,
  0.142814;0.198953;-0.969547;,
  -0.368840;0.148096;-0.917619;,
  -0.116660;0.175378;-0.977565;,
  0.142450;0.159485;-0.976869;,
  0.861337;0.083626;0.501104;,
  0.954276;0.154448;0.255935;,
  0.853352;0.158505;0.496656;,
  0.694272;0.151761;0.703530;,
  0.959315;0.112683;0.258879;,
  0.856555;0.133628;0.498454;,
  0.698233;0.121365;0.705507;,
  0.861337;0.083626;-0.501104;,
  0.954276;0.154448;-0.255935;,
  0.853352;0.158505;-0.496656;,
  0.694272;0.151761;-0.703530;,
  0.959315;0.112683;-0.258879;,
  0.856555;0.133628;-0.498454;,
  0.698233;0.121365;-0.705507;,
  -0.861337;0.083626;0.501104;,
  -0.954276;0.154448;0.255935;,
  -0.853352;0.158505;0.496656;,
  -0.694272;0.151761;0.703530;,
  -0.959315;0.112683;0.258879;,
  -0.856555;0.133628;0.498454;,
  -0.698233;0.121365;0.705507;,
  -0.861337;0.083626;-0.501104;,
  -0.954276;0.154448;-0.255935;,
  -0.853352;0.158505;-0.496656;,
  -0.694272;0.151761;-0.703530;,
  -0.959315;0.112683;-0.258879;,
  -0.856555;0.133628;-0.498454;,
  -0.698233;0.121365;-0.705507;,
  0.000000;-1.000000;-0.000000;,
  -0.788172;-0.070387;0.611417;,
  -0.789383;-0.043842;0.612334;,
  -0.920636;-0.063847;0.385165;,
  -0.602170;-0.059272;0.796165;,
  -0.920112;-0.080027;0.383392;,
  -0.787357;-0.083648;0.610796;,
  -0.599999;-0.081469;0.795842;,
  0.142471;-0.043842;0.988828;,
  0.142237;-0.070387;0.987327;,
  0.394691;-0.063847;0.916593;,
  -0.119898;-0.059272;0.991015;,
  0.142082;-0.083648;0.986314;,
  0.395546;-0.080027;0.914953;,
  -0.121235;-0.081469;0.989275;,
  -0.142471;-0.043842;-0.988828;,
  -0.142237;-0.070387;-0.987327;,
  -0.394691;-0.063847;-0.916593;,
  0.119898;-0.059272;-0.991015;,
  -0.142082;-0.083648;-0.986314;,
  -0.395546;-0.080027;-0.914953;,
  0.121235;-0.081469;-0.989275;,
  0.788172;-0.070387;-0.611417;,
  0.789383;-0.043842;-0.612334;,
  0.920636;-0.063847;-0.385165;,
  0.602170;-0.059272;-0.796165;,
  0.920112;-0.080027;-0.383392;,
  0.787357;-0.083648;-0.610796;,
  0.599999;-0.081469;-0.795842;,
  -0.116660;-0.175378;-0.977565;,
  -0.118020;-0.110273;-0.986869;,
  0.142450;-0.159485;-0.976869;,
  -0.368840;-0.148096;-0.917619;,
  0.142814;-0.198953;-0.969547;,
  -0.115790;-0.207635;-0.971329;,
  -0.366642;-0.202414;-0.908076;,
  -0.916109;-0.110274;-0.385466;,
  -0.907540;-0.175379;-0.381593;,
  -0.978291;-0.159485;-0.132328;,
  -0.780406;-0.148097;-0.607482;,
  -0.901786;-0.207635;-0.379039;,
  -0.971354;-0.198953;-0.129960;,
  -0.771838;-0.202415;-0.602739;,
  0.916109;-0.110274;0.385466;,
  0.907540;-0.175379;0.381593;,
  0.978291;-0.159485;0.132328;,
  0.780406;-0.148097;0.607482;,
  0.901786;-0.207635;0.379039;,
  0.971354;-0.198953;0.129960;,
  0.771838;-0.202415;0.602739;,
  0.116660;-0.175378;0.977565;,
  0.118020;-0.110273;0.986869;,
  -0.142450;-0.159485;0.976869;,
  0.368840;-0.148096;0.917619;,
  -0.142814;-0.198953;0.969547;,
  0.115790;-0.207635;0.971329;,
  0.366642;-0.202414;0.908076;,
  -0.856555;-0.133628;-0.498454;,
  -0.861337;-0.083626;-0.501104;,
  -0.698233;-0.121365;-0.705507;,
  -0.959315;-0.112683;-0.258879;,
  -0.694272;-0.151761;-0.703530;,
  -0.853352;-0.158505;-0.496656;,
  -0.954276;-0.154448;-0.255935;,
  -0.861337;-0.083626;0.501104;,
  -0.856555;-0.133628;0.498454;,
  -0.698233;-0.121365;0.705507;,
  -0.959315;-0.112683;0.258879;,
  -0.853352;-0.158505;0.496656;,
  -0.694272;-0.151761;0.703530;,
  -0.954276;-0.154448;0.255935;,
  0.861337;-0.083626;-0.501104;,
  0.856555;-0.133628;-0.498454;,
  0.698233;-0.121365;-0.705507;,
  0.959315;-0.112683;-0.258879;,
  0.853352;-0.158505;-0.496656;,
  0.694272;-0.151761;-0.703530;,
  0.954276;-0.154448;-0.255935;,
  0.856555;-0.133628;0.498454;,
  0.861337;-0.083626;0.501104;,
  0.698233;-0.121365;0.705507;,
  0.959315;-0.112683;0.258879;,
  0.694272;-0.151761;0.703530;,
  0.853352;-0.158505;0.496656;,
  0.954276;-0.154448;0.255935;;
  216;
  4;0,0,0,0;,
  4;0,0,0,0;,
  4;0,0,0,0;,
  4;0,0,0,0;,
  4;0,0,0,0;,
  4;0,0,0,0;,
  4;0,0,0,0;,
  4;0,0,0,0;,
  4;0,0,0,0;,
  4;0,0,0,0;,
  4;0,0,0,0;,
  4;0,0,0,0;,
  4;0,0,0,0;,
  4;0,0,0,0;,
  4;0,0,0,0;,
  4;0,0,0,0;,
  4;0,0,0,0;,
  4;0,0,0,0;,
  4;0,0,0,0;,
  4;0,0,0,0;,
  4;0,0,0,0;,
  4;0,0,0,0;,
  4;0,0,0,0;,
  4;0,0,0,0;,
  4;0,0,0,0;,
  4;0,0,0,0;,
  4;0,0,0,0;,
  4;0,0,0,0;,
  4;0,0,0,0;,
  4;0,0,0,0;,
  4;0,0,0,0;,
  4;0,0,0,0;,
  4;0,0,0,0;,
  4;0,0,0,0;,
  4;0,0,0,0;,
  4;0,0,0,0;,
  3;7,1,6;,
  3;5,6,1;,
  3;6,3,4;,
  3;6,4,7;,
  3;2,3,6;,
  3;2,6,5;,
  3;14,13,8;,
  3;12,8,13;,
  3;13,11,10;,
  3;13,14,11;,
  3;9,13,10;,
  3;9,12,13;,
  3;21,20,15;,
  3;19,15,20;,
  3;20,18,17;,
  3;20,21,18;,
  3;16,20,17;,
  3;16,19,20;,
  3;28,22,27;,
  3;26,27,22;,
  3;27,24,25;,
  3;27,25,28;,
  3;23,24,27;,
  3;23,27,26;,
  3;35,29,34;,
  3;33,34,29;,
  3;34,31,32;,
  3;34,32,35;,
  3;30,31,34;,
  3;30,34,33;,
  3;42,41,36;,
  3;40,36,41;,
  3;41,39,38;,
  3;41,42,39;,
  3;37,41,38;,
  3;37,40,41;,
  3;49,48,43;,
  3;47,43,48;,
  3;48,46,45;,
  3;48,49,46;,
  3;44,48,45;,
  3;44,47,48;,
  3;56,50,55;,
  3;54,55,50;,
  3;55,52,53;,
  3;55,53,56;,
  3;51,52,55;,
  3;51,55,54;,
  3;63,57,62;,
  3;61,62,57;,
  3;62,59,60;,
  3;62,60,63;,
  3;58,59,62;,
  3;58,62,61;,
  3;70,69,64;,
  3;68,64,69;,
  3;69,67,66;,
  3;69,70,67;,
  3;65,69,66;,
  3;65,68,69;,
  3;77,76,71;,
  3;75,71,76;,
  3;76,74,73;,
  3;76,77,74;,
  3;72,76,73;,
  3;72,75,76;,
  3;84,78,83;,
  3;82,83,78;,
  3;83,80,81;,
  3;83,81,84;,
  3;79,80,83;,
  3;79,83,82;,
  4;85,85,85,85;,
  4;85,85,85,85;,
  4;85,85,85,85;,
  4;85,85,85,85;,
  4;85,85,85,85;,
  4;85,85,85,85;,
  4;85,85,85,85;,
  4;85,85,85,85;,
  4;85,85,85,85;,
  4;85,85,85,85;,
  4;85,85,85,85;,
  4;85,85,85,85;,
  4;85,85,85,85;,
  4;85,85,85,85;,
  4;85,85,85,85;,
  4;85,85,85,85;,
  4;85,85,85,85;,
  4;85,85,85,85;,
  4;85,85,85,85;,
  4;85,85,85,85;,
  4;85,85,85,85;,
  4;85,85,85,85;,
  4;85,85,85,85;,
  4;85,85,85,85;,
  4;85,85,85,85;,
  4;85,85,85,85;,
  4;85,85,85,85;,
  4;85,85,85,85;,
  4;85,85,85,85;,
  4;85,85,85,85;,
  4;85,85,85,85;,
  4;85,85,85,85;,
  4;85,85,85,85;,
  4;85,85,85,85;,
  4;85,85,85,85;,
  4;85,85,85,85;,
  3;86,87,88;,
  3;87,86,89;,
  3;90,91,86;,
  3;88,90,86;,
  3;86,91,92;,
  3;89,86,92;,
  3;93,94,95;,
  3;94,93,96;,
  3;97,98,94;,
  3;98,95,94;,
  3;97,94,99;,
  3;94,96,99;,
  3;100,101,102;,
  3;101,100,103;,
  3;104,105,101;,
  3;105,102,101;,
  3;104,101,106;,
  3;101,103,106;,
  3;107,108,109;,
  3;108,107,110;,
  3;111,112,107;,
  3;109,111,107;,
  3;107,112,113;,
  3;110,107,113;,
  3;114,115,116;,
  3;115,114,117;,
  3;118,119,114;,
  3;116,118,114;,
  3;114,119,120;,
  3;117,114,120;,
  3;121,122,123;,
  3;122,121,124;,
  3;125,126,122;,
  3;126,123,122;,
  3;125,122,127;,
  3;122,124,127;,
  3;128,129,130;,
  3;129,128,131;,
  3;132,133,129;,
  3;133,130,129;,
  3;132,129,134;,
  3;129,131,134;,
  3;135,136,137;,
  3;136,135,138;,
  3;139,140,135;,
  3;137,139,135;,
  3;135,140,141;,
  3;138,135,141;,
  3;142,143,144;,
  3;143,142,145;,
  3;146,147,142;,
  3;144,146,142;,
  3;142,147,148;,
  3;145,142,148;,
  3;149,150,151;,
  3;150,149,152;,
  3;153,154,150;,
  3;154,151,150;,
  3;153,150,155;,
  3;150,152,155;,
  3;156,157,158;,
  3;157,156,159;,
  3;160,161,157;,
  3;161,158,157;,
  3;160,157,162;,
  3;157,159,162;,
  3;163,164,165;,
  3;164,163,166;,
  3;167,168,163;,
  3;165,167,163;,
  3;163,168,169;,
  3;166,163,169;;
 }
 MeshTextureCoords {
  172;
  1.603910;0.987970;,
  1.393210;0.987970;,
  1.393210;0.917990;,
  1.603910;0.917990;,
  1.825550;0.917990;,
  1.825550;0.987970;,
  1.603910;-0.003570;,
  1.825550;-0.003570;,
  1.825550;0.106490;,
  1.603910;0.106490;,
  1.393210;0.106490;,
  1.393210;-0.003570;,
  1.393210;0.849730;,
  1.603910;0.849730;,
  1.825550;0.849730;,
  1.825550;0.209960;,
  1.603910;0.209960;,
  1.393210;0.209960;,
  1.393210;0.776970;,
  1.603910;0.776970;,
  1.825550;0.776970;,
  1.825550;0.296330;,
  1.603910;0.296330;,
  1.393210;0.296330;,
  1.393210;0.700080;,
  1.603910;0.700080;,
  1.825550;0.700080;,
  1.825550;0.382310;,
  1.603910;0.382310;,
  1.393210;0.382310;,
  1.393210;0.623240;,
  1.603910;0.623240;,
  1.825550;0.623240;,
  1.825550;0.463270;,
  1.603910;0.463270;,
  1.393210;0.463270;,
  1.393210;0.550960;,
  1.603910;0.550960;,
  1.825550;0.550960;,
  1.179540;0.917990;,
  1.179540;0.849730;,
  1.179540;0.987970;,
  1.179540;0.776970;,
  1.179540;0.106490;,
  1.179540;-0.003570;,
  1.179540;0.700080;,
  1.179540;0.209960;,
  1.179540;0.623240;,
  1.179540;0.296330;,
  1.179540;0.550960;,
  1.179540;0.382310;,
  1.179540;0.463270;,
  0.865640;0.169880;,
  0.741090;1.051010;,
  0.865640;1.051010;,
  0.865640;1.050970;,
  0.865640;0.169820;,
  0.741100;0.169820;,
  0.982920;1.051010;,
  0.982920;0.169880;,
  0.982920;1.050970;,
  0.982920;0.169820;,
  0.694580;0.392260;,
  0.694580;1.273390;,
  0.570040;1.273390;,
  0.694580;1.273350;,
  0.570040;0.392210;,
  0.694580;0.392210;,
  0.811870;0.392260;,
  0.811870;1.273390;,
  0.811870;1.273350;,
  0.811870;0.392210;,
  0.841200;0.179280;,
  0.841200;1.060410;,
  0.716660;1.060410;,
  0.841200;1.060370;,
  0.716660;0.179220;,
  0.841200;0.179220;,
  0.958490;0.179280;,
  0.958490;1.060410;,
  0.958490;1.060370;,
  0.958490;0.179220;,
  0.599300;1.072500;,
  0.474750;1.953630;,
  0.599300;1.953630;,
  0.599300;1.953590;,
  0.599300;1.072440;,
  0.474760;1.072440;,
  0.716590;1.953630;,
  0.716590;1.072500;,
  0.716590;1.953590;,
  0.716590;1.072440;,
  0.405140;0.169880;,
  0.280600;1.051010;,
  0.405140;1.051010;,
  0.405140;1.050970;,
  0.405140;0.169820;,
  0.280600;0.169820;,
  0.522440;1.051010;,
  0.522440;0.169880;,
  0.522440;1.050970;,
  0.522440;0.169820;,
  0.234090;0.392260;,
  0.234090;1.273390;,
  0.109540;1.273390;,
  0.234090;1.273350;,
  0.109540;0.392200;,
  0.234090;0.392200;,
  0.351370;0.392260;,
  0.351370;1.273390;,
  0.351370;1.273350;,
  0.351370;0.392200;,
  0.380710;0.179280;,
  0.380710;1.060410;,
  0.256170;1.060410;,
  0.380710;1.060370;,
  0.256170;0.179220;,
  0.380710;0.179220;,
  0.498010;0.179280;,
  0.498010;1.060410;,
  0.498010;1.060370;,
  0.498010;0.179220;,
  0.138810;1.072500;,
  0.014260;1.953630;,
  0.138810;1.953630;,
  0.138810;1.953590;,
  0.138810;1.072440;,
  0.014260;1.072440;,
  0.256090;1.953630;,
  0.256090;1.072500;,
  0.256090;1.953590;,
  0.256090;1.072440;,
  0.219630;0.169880;,
  0.095090;1.051010;,
  0.219630;1.051010;,
  0.219630;1.050970;,
  0.219630;0.169820;,
  0.095090;0.169820;,
  0.336920;1.051010;,
  0.336920;0.169880;,
  0.336920;1.050970;,
  0.336920;0.169820;,
  0.048570;0.392260;,
  0.048570;1.273390;,
  -0.075970;1.273390;,
  0.048570;1.273350;,
  -0.075970;0.392200;,
  0.048570;0.392200;,
  0.165860;0.392260;,
  0.165860;1.273390;,
  0.165860;1.273350;,
  0.165860;0.392200;,
  0.195200;0.179280;,
  0.195200;1.060410;,
  0.070660;1.060410;,
  0.195200;1.060370;,
  0.070660;0.179220;,
  0.195200;0.179220;,
  0.312490;0.179280;,
  0.312490;1.060410;,
  0.312490;1.060370;,
  0.312490;0.179220;,
  -0.046700;1.072500;,
  -0.171250;1.953630;,
  -0.046700;1.953630;,
  -0.046700;1.953590;,
  -0.046700;1.072440;,
  -0.171250;1.072440;,
  0.070580;1.953630;,
  0.070580;1.072500;,
  0.070580;1.953590;,
  0.070580;1.072440;;
 }
 MeshVertexColors {
  172;
  0;1.000000;1.000000;1.000000;1.000000;,
  1;1.000000;1.000000;1.000000;1.000000;,
  2;1.000000;1.000000;1.000000;1.000000;,
  3;1.000000;1.000000;1.000000;1.000000;,
  4;1.000000;1.000000;1.000000;1.000000;,
  5;1.000000;1.000000;1.000000;1.000000;,
  6;1.000000;1.000000;1.000000;1.000000;,
  7;1.000000;1.000000;1.000000;1.000000;,
  8;1.000000;1.000000;1.000000;1.000000;,
  9;1.000000;1.000000;1.000000;1.000000;,
  10;1.000000;1.000000;1.000000;1.000000;,
  11;1.000000;1.000000;1.000000;1.000000;,
  12;1.000000;1.000000;1.000000;1.000000;,
  13;1.000000;1.000000;1.000000;1.000000;,
  14;1.000000;1.000000;1.000000;1.000000;,
  15;1.000000;1.000000;1.000000;1.000000;,
  16;1.000000;1.000000;1.000000;1.000000;,
  17;1.000000;1.000000;1.000000;1.000000;,
  18;1.000000;1.000000;1.000000;1.000000;,
  19;1.000000;1.000000;1.000000;1.000000;,
  20;1.000000;1.000000;1.000000;1.000000;,
  21;1.000000;1.000000;1.000000;1.000000;,
  22;1.000000;1.000000;1.000000;1.000000;,
  23;1.000000;1.000000;1.000000;1.000000;,
  24;1.000000;1.000000;1.000000;1.000000;,
  25;1.000000;1.000000;1.000000;1.000000;,
  26;1.000000;1.000000;1.000000;1.000000;,
  27;1.000000;1.000000;1.000000;1.000000;,
  28;1.000000;1.000000;1.000000;1.000000;,
  29;1.000000;1.000000;1.000000;1.000000;,
  30;1.000000;1.000000;1.000000;1.000000;,
  31;1.000000;1.000000;1.000000;1.000000;,
  32;1.000000;1.000000;1.000000;1.000000;,
  33;1.000000;1.000000;1.000000;1.000000;,
  34;1.000000;1.000000;1.000000;1.000000;,
  35;1.000000;1.000000;1.000000;1.000000;,
  36;1.000000;1.000000;1.000000;1.000000;,
  37;1.000000;1.000000;1.000000;1.000000;,
  38;1.000000;1.000000;1.000000;1.000000;,
  39;1.000000;1.000000;1.000000;1.000000;,
  40;1.000000;1.000000;1.000000;1.000000;,
  41;1.000000;1.000000;1.000000;1.000000;,
  42;1.000000;1.000000;1.000000;1.000000;,
  43;1.000000;1.000000;1.000000;1.000000;,
  44;1.000000;1.000000;1.000000;1.000000;,
  45;1.000000;1.000000;1.000000;1.000000;,
  46;1.000000;1.000000;1.000000;1.000000;,
  47;1.000000;1.000000;1.000000;1.000000;,
  48;1.000000;1.000000;1.000000;1.000000;,
  49;1.000000;1.000000;1.000000;1.000000;,
  50;1.000000;1.000000;1.000000;1.000000;,
  51;1.000000;1.000000;1.000000;1.000000;,
  52;1.000000;1.000000;1.000000;1.000000;,
  53;1.000000;1.000000;1.000000;1.000000;,
  54;1.000000;1.000000;1.000000;1.000000;,
  55;1.000000;1.000000;1.000000;1.000000;,
  56;1.000000;1.000000;1.000000;1.000000;,
  57;1.000000;1.000000;1.000000;1.000000;,
  58;1.000000;1.000000;1.000000;1.000000;,
  59;1.000000;1.000000;1.000000;1.000000;,
  60;1.000000;1.000000;1.000000;1.000000;,
  61;1.000000;1.000000;1.000000;1.000000;,
  62;1.000000;1.000000;1.000000;1.000000;,
  63;1.000000;1.000000;1.000000;1.000000;,
  64;1.000000;1.000000;1.000000;1.000000;,
  65;1.000000;1.000000;1.000000;1.000000;,
  66;1.000000;1.000000;1.000000;1.000000;,
  67;1.000000;1.000000;1.000000;1.000000;,
  68;1.000000;1.000000;1.000000;1.000000;,
  69;1.000000;1.000000;1.000000;1.000000;,
  70;1.000000;1.000000;1.000000;1.000000;,
  71;1.000000;1.000000;1.000000;1.000000;,
  72;1.000000;1.000000;1.000000;1.000000;,
  73;1.000000;1.000000;1.000000;1.000000;,
  74;1.000000;1.000000;1.000000;1.000000;,
  75;1.000000;1.000000;1.000000;1.000000;,
  76;1.000000;1.000000;1.000000;1.000000;,
  77;1.000000;1.000000;1.000000;1.000000;,
  78;1.000000;1.000000;1.000000;1.000000;,
  79;1.000000;1.000000;1.000000;1.000000;,
  80;1.000000;1.000000;1.000000;1.000000;,
  81;1.000000;1.000000;1.000000;1.000000;,
  82;1.000000;1.000000;1.000000;1.000000;,
  83;1.000000;1.000000;1.000000;1.000000;,
  84;1.000000;1.000000;1.000000;1.000000;,
  85;1.000000;1.000000;1.000000;1.000000;,
  86;1.000000;1.000000;1.000000;1.000000;,
  87;1.000000;1.000000;1.000000;1.000000;,
  88;1.000000;1.000000;1.000000;1.000000;,
  89;1.000000;1.000000;1.000000;1.000000;,
  90;1.000000;1.000000;1.000000;1.000000;,
  91;1.000000;1.000000;1.000000;1.000000;,
  92;1.000000;1.000000;1.000000;1.000000;,
  93;1.000000;1.000000;1.000000;1.000000;,
  94;1.000000;1.000000;1.000000;1.000000;,
  95;1.000000;1.000000;1.000000;1.000000;,
  96;1.000000;1.000000;1.000000;1.000000;,
  97;1.000000;1.000000;1.000000;1.000000;,
  98;1.000000;1.000000;1.000000;1.000000;,
  99;1.000000;1.000000;1.000000;1.000000;,
  100;1.000000;1.000000;1.000000;1.000000;,
  101;1.000000;1.000000;1.000000;1.000000;,
  102;1.000000;1.000000;1.000000;1.000000;,
  103;1.000000;1.000000;1.000000;1.000000;,
  104;1.000000;1.000000;1.000000;1.000000;,
  105;1.000000;1.000000;1.000000;1.000000;,
  106;1.000000;1.000000;1.000000;1.000000;,
  107;1.000000;1.000000;1.000000;1.000000;,
  108;1.000000;1.000000;1.000000;1.000000;,
  109;1.000000;1.000000;1.000000;1.000000;,
  110;1.000000;1.000000;1.000000;1.000000;,
  111;1.000000;1.000000;1.000000;1.000000;,
  112;1.000000;1.000000;1.000000;1.000000;,
  113;1.000000;1.000000;1.000000;1.000000;,
  114;1.000000;1.000000;1.000000;1.000000;,
  115;1.000000;1.000000;1.000000;1.000000;,
  116;1.000000;1.000000;1.000000;1.000000;,
  117;1.000000;1.000000;1.000000;1.000000;,
  118;1.000000;1.000000;1.000000;1.000000;,
  119;1.000000;1.000000;1.000000;1.000000;,
  120;1.000000;1.000000;1.000000;1.000000;,
  121;1.000000;1.000000;1.000000;1.000000;,
  122;1.000000;1.000000;1.000000;1.000000;,
  123;1.000000;1.000000;1.000000;1.000000;,
  124;1.000000;1.000000;1.000000;1.000000;,
  125;1.000000;1.000000;1.000000;1.000000;,
  126;1.000000;1.000000;1.000000;1.000000;,
  127;1.000000;1.000000;1.000000;1.000000;,
  128;1.000000;1.000000;1.000000;1.000000;,
  129;1.000000;1.000000;1.000000;1.000000;,
  130;1.000000;1.000000;1.000000;1.000000;,
  131;1.000000;1.000000;1.000000;1.000000;,
  132;1.000000;1.000000;1.000000;1.000000;,
  133;1.000000;1.000000;1.000000;1.000000;,
  134;1.000000;1.000000;1.000000;1.000000;,
  135;1.000000;1.000000;1.000000;1.000000;,
  136;1.000000;1.000000;1.000000;1.000000;,
  137;1.000000;1.000000;1.000000;1.000000;,
  138;1.000000;1.000000;1.000000;1.000000;,
  139;1.000000;1.000000;1.000000;1.000000;,
  140;1.000000;1.000000;1.000000;1.000000;,
  141;1.000000;1.000000;1.000000;1.000000;,
  142;1.000000;1.000000;1.000000;1.000000;,
  143;1.000000;1.000000;1.000000;1.000000;,
  144;1.000000;1.000000;1.000000;1.000000;,
  145;1.000000;1.000000;1.000000;1.000000;,
  146;1.000000;1.000000;1.000000;1.000000;,
  147;1.000000;1.000000;1.000000;1.000000;,
  148;1.000000;1.000000;1.000000;1.000000;,
  149;1.000000;1.000000;1.000000;1.000000;,
  150;1.000000;1.000000;1.000000;1.000000;,
  151;1.000000;1.000000;1.000000;1.000000;,
  152;1.000000;1.000000;1.000000;1.000000;,
  153;1.000000;1.000000;1.000000;1.000000;,
  154;1.000000;1.000000;1.000000;1.000000;,
  155;1.000000;1.000000;1.000000;1.000000;,
  156;1.000000;1.000000;1.000000;1.000000;,
  157;1.000000;1.000000;1.000000;1.000000;,
  158;1.000000;1.000000;1.000000;1.000000;,
  159;1.000000;1.000000;1.000000;1.000000;,
  160;1.000000;1.000000;1.000000;1.000000;,
  161;1.000000;1.000000;1.000000;1.000000;,
  162;1.000000;1.000000;1.000000;1.000000;,
  163;1.000000;1.000000;1.000000;1.000000;,
  164;1.000000;1.000000;1.000000;1.000000;,
  165;1.000000;1.000000;1.000000;1.000000;,
  166;1.000000;1.000000;1.000000;1.000000;,
  167;1.000000;1.000000;1.000000;1.000000;,
  168;1.000000;1.000000;1.000000;1.000000;,
  169;1.000000;1.000000;1.000000;1.000000;,
  170;1.000000;1.000000;1.000000;1.000000;,
  171;1.000000;1.000000;1.000000;1.000000;;
 }
}
