xof 0302txt 0064
template Header {
 <3D82AB43-62DA-11cf-AB39-0020AF71E433>
 WORD major;
 WORD minor;
 DWORD flags;
}

template Vector {
 <3D82AB5E-62DA-11cf-AB39-0020AF71E433>
 FLOAT x;
 FLOAT y;
 FLOAT z;
}

template Coords2d {
 <F6F23F44-7686-11cf-8F52-0040333594A3>
 FLOAT u;
 FLOAT v;
}

template Matrix4x4 {
 <F6F23F45-7686-11cf-8F52-0040333594A3>
 array FLOAT matrix[16];
}

template ColorRGBA {
 <35FF44E0-6C7C-11cf-8F52-0040333594A3>
 FLOAT red;
 FLOAT green;
 FLOAT blue;
 FLOAT alpha;
}

template ColorRGB {
 <D3E16E81-7835-11cf-8F52-0040333594A3>
 FLOAT red;
 FLOAT green;
 FLOAT blue;
}

template IndexedColor {
 <1630B820-7842-11cf-8F52-0040333594A3>
 DWORD index;
 ColorRGBA indexColor;
}

template Boolean {
 <4885AE61-78E8-11cf-8F52-0040333594A3>
 WORD truefalse;
}

template Boolean2d {
 <4885AE63-78E8-11cf-8F52-0040333594A3>
 Boolean u;
 Boolean v;
}

template MaterialWrap {
 <4885AE60-78E8-11cf-8F52-0040333594A3>
 Boolean u;
 Boolean v;
}

template TextureFilename {
 <A42790E1-7810-11cf-8F52-0040333594A3>
 STRING filename;
}

template Material {
 <3D82AB4D-62DA-11cf-AB39-0020AF71E433>
 ColorRGBA faceColor;
 FLOAT power;
 ColorRGB specularColor;
 ColorRGB emissiveColor;
 [...]
}

template MeshFace {
 <3D82AB5F-62DA-11cf-AB39-0020AF71E433>
 DWORD nFaceVertexIndices;
 array DWORD faceVertexIndices[nFaceVertexIndices];
}

template MeshFaceWraps {
 <4885AE62-78E8-11cf-8F52-0040333594A3>
 DWORD nFaceWrapValues;
 Boolean2d faceWrapValues;
}

template MeshTextureCoords {
 <F6F23F40-7686-11cf-8F52-0040333594A3>
 DWORD nTextureCoords;
 array Coords2d textureCoords[nTextureCoords];
}

template MeshMaterialList {
 <F6F23F42-7686-11cf-8F52-0040333594A3>
 DWORD nMaterials;
 DWORD nFaceIndexes;
 array DWORD faceIndexes[nFaceIndexes];
 [Material]
}

template MeshNormals {
 <F6F23F43-7686-11cf-8F52-0040333594A3>
 DWORD nNormals;
 array Vector normals[nNormals];
 DWORD nFaceNormals;
 array MeshFace faceNormals[nFaceNormals];
}

template MeshVertexColors {
 <1630B821-7842-11cf-8F52-0040333594A3>
 DWORD nVertexColors;
 array IndexedColor vertexColors[nVertexColors];
}

template Mesh {
 <3D82AB44-62DA-11cf-AB39-0020AF71E433>
 DWORD nVertices;
 array Vector vertices[nVertices];
 DWORD nFaces;
 array MeshFace faces[nFaces];
 [...]
}

Header{
1;
0;
1;
}

Mesh {
 192;
 -126.47301;-42.63950;-33.51905;,
 -122.49870;-57.47180;-31.90515;,
 -147.80011;-58.82160;0.07135;,
 -151.74040;-44.11620;-1.52875;,
 -155.78450;-29.02350;-3.17095;,
 -130.55200;-27.41660;-35.17545;,
 -151.74040;-44.11620;-1.52875;,
 -158.17050;-55.03400;36.72545;,
 -162.00940;-40.70710;35.16655;,
 -165.94940;-26.00290;33.56655;,
 -162.00940;-40.70710;35.16655;,
 -152.09641;-45.92720;76.75045;,
 -155.76820;-32.22400;75.25935;,
 -159.53671;-18.15980;73.72905;,
 -155.76820;-32.22400;75.25935;,
 -132.90210;-33.85480;111.32055;,
 -136.34401;-21.00970;109.92285;,
 -139.87651;-7.82620;108.48835;,
 -136.34401;-21.00970;109.92285;,
 -103.89741;-20.86220;133.50145;,
 -107.05041;-9.09500;132.22095;,
 -110.28641;2.98220;130.90686;,
 -107.05041;-9.09500;132.22095;,
 -66.98041;-7.70510;141.95224;,
 -69.79060;2.78290;140.81105;,
 -72.67490;13.54720;139.63974;,
 -69.79060;2.78290;140.81105;,
 -29.25970;3.38350;134.86685;,
 -31.67910;12.41280;133.88435;,
 -34.16230;21.68000;132.87595;,
 -31.67910;12.41280;133.88435;,
 3.39499;11.13610;114.32995;,
 1.40790;18.55230;113.52295;,
 -0.63161;26.16380;112.69475;,
 1.40790;18.55230;113.52295;,
 26.24629;14.51930;82.02835;,
 24.72540;20.19530;81.41075;,
 23.16449;26.02090;80.77686;,
 24.72540;20.19530;81.41075;,
 35.65590;12.92920;40.49285;,
 34.62730;16.76810;40.07505;,
 33.57159;20.70810;39.64635;,
 34.62730;16.76810;40.07505;,
 30.35749;8.26900;3.67945;,
 29.83870;10.20500;3.46875;,
 29.30619;12.19200;3.25255;,
 29.83870;10.20500;3.46875;,
 9.49300;0.00260;-29.98715;,
 127.91109;36.93390;35.92175;,
 131.57599;23.25620;38.16455;,
 156.35089;26.57130;5.92015;,
 152.71730;40.13190;3.69655;,
 148.42140;56.16460;1.06765;,
 123.57800;53.10500;33.27015;,
 152.71730;40.13190;3.69655;,
 165.94940;25.66430;-31.12655;,
 162.40939;38.87600;-33.29285;,
 158.22400;54.49599;-35.85415;,
 162.40939;38.87600;-33.29285;,
 158.88049;20.27000;-71.65755;,
 155.49460;32.90650;-73.72955;,
 151.49150;47.84669;-76.17935;,
 155.49460;32.90650;-73.72955;,
 138.59639;12.26510;-106.78205;,
 135.42250;24.11030;-108.72425;,
 131.66989;38.11480;-111.02065;,
 135.42250;24.11030;-108.72425;,
 108.51150;3.30340;-129.51224;,
 105.60400;14.15460;-131.29153;,
 102.16630;26.98400;-133.39514;,
 105.60400;14.15460;-131.29153;,
 70.55589;-5.97720;-138.49146;,
 67.96439;3.69440;-140.07736;,
 64.90050;15.12900;-141.95224;,
 67.96439;3.69440;-140.07736;,
 31.87819;-13.49440;-131.89285;,
 29.64720;-5.16790;-133.25815;,
 27.00949;4.67640;-134.87234;,
 29.64720;-5.16790;-133.25815;,
 -1.66210;-17.94180;-111.80645;,
 -3.49461;-11.10300;-112.92785;,
 -5.66111;-3.01750;-114.25365;,
 -3.49461;-11.10300;-112.92785;,
 -25.33060;-18.27510;-79.92055;,
 -26.73310;-13.04090;-80.77875;,
 -28.39130;-6.85250;-81.79345;,
 -26.73310;-13.04090;-80.77875;,
 -35.50190;-13.84240;-38.77245;,
 -36.45050;-10.30230;-39.35295;,
 -37.57201;-6.11690;-40.03915;,
 -36.45050;-10.30230;-39.35295;,
 -31.07690;-5.92260;-2.40335;,
 -31.55521;-4.13730;-2.69605;,
 -32.12070;-2.02650;-3.04215;,
 -31.55521;-4.13730;-2.69605;,
 -11.15251;5.85240;30.78495;,
 67.38159;-98.67060;66.05365;,
 57.45539;-108.98180;61.68055;,
 87.04240;-124.94061;38.56335;,
 96.88360;-114.71761;42.89895;,
 107.61620;-103.56880;47.62725;,
 78.20679;-87.42560;70.82275;,
 96.88360;-114.71761;42.89895;,
 108.74030;-128.96820;7.28405;,
 118.32829;-119.00840;11.50815;,
 128.78459;-108.14650;16.11465;,
 118.32829;-119.00840;11.50815;,
 121.02020;-120.05441;-31.33695;,
 130.19089;-110.52810;-27.29665;,
 140.19200;-100.13910;-22.89055;,
 130.19089;-110.52810;-27.29665;,
 122.58949;-101.49471;-68.24665;,
 131.18579;-92.56490;-64.45945;,
 140.56070;-82.82640;-60.32925;,
 131.18579;-92.56490;-64.45945;,
 112.89169;-76.40961;-96.15305;,
 120.76669;-68.22910;-92.68365;,
 129.35489;-59.30780;-88.90005;,
 120.76669;-68.22910;-92.68365;,
 92.64469;-46.36580;-113.32325;,
 99.66350;-39.07470;-110.23095;,
 107.31809;-31.12330;-106.85875;,
 99.66350;-39.07470;-110.23095;,
 65.84399;-16.88360;-116.24445;,
 71.88670;-10.60660;-113.58225;,
 78.47669;-3.76110;-110.67895;,
 71.88670;-10.60660;-113.58225;,
 37.20049;7.79000;-105.33745;,
 42.16359;12.94570;-103.15095;,
 47.57619;18.56820;-100.76635;,
 42.16359;12.94570;-103.15095;,
 10.51229;24.21820;-80.94735;,
 14.31089;28.16410;-79.27385;,
 18.45350;32.46740;-77.44885;,
 14.31089;28.16410;-79.27385;,
 -10.82080;29.86100;-44.48745;,
 -8.25171;32.52980;-43.35565;,
 -5.45001;35.44020;-42.12135;,
 -8.25171;32.52980;-43.35565;,
 -20.45271;24.97720;-8.59325;,
 -19.15710;26.32310;-8.02245;,
 -17.74410;27.79080;-7.39995;,
 -19.15710;26.32310;-8.02245;,
 -18.46111;8.74160;28.41385;,
 -78.43600;93.95650;-66.30685;,
 -87.05251;84.74100;-70.86985;,
 -115.29951;102.11200;-47.10355;,
 -106.75671;111.24860;-42.57955;,
 -95.37720;123.41899;-36.55335;,
 -66.95831;106.23190;-60.22865;,
 -106.75671;111.24860;-42.57955;,
 -135.03331;108.20970;-14.87295;,
 -126.71031;117.11110;-10.46535;,
 -115.62370;128.96820;-4.59435;,
 -126.71031;117.11110;-10.46535;,
 -144.78191;101.96359;24.97405;,
 -136.82120;110.47760;29.18975;,
 -126.21721;121.81860;34.80525;,
 -136.82120;110.47760;29.18975;,
 -143.57770;86.32680;63.22705;,
 -136.11551;94.30760;67.17875;,
 -126.17551;104.93840;72.44265;,
 -136.11551;94.30760;67.17875;,
 -131.13150;64.13830;92.46465;,
 -124.29550;71.44940;96.08475;,
 -115.18961;81.18810;100.90685;,
 -124.29550;71.44940;96.08475;,
 -108.24120;36.88029;110.91515;,
 -102.14831;43.39650;114.14165;,
 -94.03240;52.07660;118.43955;,
 -102.14831;43.39650;114.14165;,
 -79.00530;9.96450;115.01585;,
 -73.75990;15.57450;117.79355;,
 -66.77271;23.04730;121.49365;,
 -73.75990;15.57450;117.79355;,
 -48.10820;-12.33410;105.20045;,
 -43.80001;-7.72640;107.48195;,
 -38.06110;-1.58870;110.52095;,
 -43.80001;-7.72640;107.48195;,
 -19.34051;-26.57060;81.81755;,
 -16.04310;-23.04400;83.56365;,
 -11.65080;-18.34640;85.88965;,
 -16.04310;-23.04400;83.56365;,
 3.93099;-30.17060;46.29645;,
 6.16109;-27.78550;47.47745;,
 9.13179;-24.60840;49.05055;,
 6.16109;-27.78550;47.47745;,
 15.78539;-22.94450;11.47875;,
 16.91010;-21.74160;12.07425;,
 18.40820;-20.13930;12.86765;,
 16.91010;-21.74160;12.07425;,
 16.18600;-4.18770;-24.36975;;
 
 192;
 4;0,1,2,3;,
 4;0,3,4,5;,
 4;0,5,4,6;,
 4;0,6,2,1;,
 4;3,2,7,8;,
 4;3,8,9,4;,
 4;6,4,9,10;,
 4;6,10,7,2;,
 4;8,7,11,12;,
 4;8,12,13,9;,
 4;10,9,13,14;,
 4;10,14,11,7;,
 4;12,11,15,16;,
 4;12,16,17,13;,
 4;14,13,17,18;,
 4;14,18,15,11;,
 4;16,15,19,20;,
 4;16,20,21,17;,
 4;18,17,21,22;,
 4;18,22,19,15;,
 4;20,19,23,24;,
 4;20,24,25,21;,
 4;22,21,25,26;,
 4;22,26,23,19;,
 4;24,23,27,28;,
 4;24,28,29,25;,
 4;26,25,29,30;,
 4;26,30,27,23;,
 4;28,27,31,32;,
 4;28,32,33,29;,
 4;30,29,33,34;,
 4;30,34,31,27;,
 4;32,31,35,36;,
 4;32,36,37,33;,
 4;34,33,37,38;,
 4;34,38,35,31;,
 4;36,35,39,40;,
 4;36,40,41,37;,
 4;38,37,41,42;,
 4;38,42,39,35;,
 4;40,39,43,44;,
 4;40,44,45,41;,
 4;42,41,45,46;,
 4;42,46,43,39;,
 3;44,47,45;,
 3;44,43,47;,
 3;46,47,43;,
 3;46,45,47;,
 4;48,49,50,51;,
 4;48,51,52,53;,
 4;48,53,52,54;,
 4;48,54,50,49;,
 4;51,50,55,56;,
 4;51,56,57,52;,
 4;54,52,57,58;,
 4;54,58,55,50;,
 4;56,55,59,60;,
 4;56,60,61,57;,
 4;58,57,61,62;,
 4;58,62,59,55;,
 4;60,59,63,64;,
 4;60,64,65,61;,
 4;62,61,65,66;,
 4;62,66,63,59;,
 4;64,63,67,68;,
 4;64,68,69,65;,
 4;66,65,69,70;,
 4;66,70,67,63;,
 4;68,67,71,72;,
 4;68,72,73,69;,
 4;70,69,73,74;,
 4;70,74,71,67;,
 4;72,71,75,76;,
 4;72,76,77,73;,
 4;74,73,77,78;,
 4;74,78,75,71;,
 4;76,75,79,80;,
 4;76,80,81,77;,
 4;78,77,81,82;,
 4;78,82,79,75;,
 4;80,79,83,84;,
 4;80,84,85,81;,
 4;82,81,85,86;,
 4;82,86,83,79;,
 4;84,83,87,88;,
 4;84,88,89,85;,
 4;86,85,89,90;,
 4;86,90,87,83;,
 4;88,87,91,92;,
 4;88,92,93,89;,
 4;90,89,93,94;,
 4;90,94,91,87;,
 3;92,95,93;,
 3;92,91,95;,
 3;94,95,91;,
 3;94,93,95;,
 4;96,97,98,99;,
 4;96,99,100,101;,
 4;96,101,100,102;,
 4;96,102,98,97;,
 4;99,98,103,104;,
 4;99,104,105,100;,
 4;102,100,105,106;,
 4;102,106,103,98;,
 4;104,103,107,108;,
 4;104,108,109,105;,
 4;106,105,109,110;,
 4;106,110,107,103;,
 4;108,107,111,112;,
 4;108,112,113,109;,
 4;110,109,113,114;,
 4;110,114,111,107;,
 4;112,111,115,116;,
 4;112,116,117,113;,
 4;114,113,117,118;,
 4;114,118,115,111;,
 4;116,115,119,120;,
 4;116,120,121,117;,
 4;118,117,121,122;,
 4;118,122,119,115;,
 4;120,119,123,124;,
 4;120,124,125,121;,
 4;122,121,125,126;,
 4;122,126,123,119;,
 4;124,123,127,128;,
 4;124,128,129,125;,
 4;126,125,129,130;,
 4;126,130,127,123;,
 4;128,127,131,132;,
 4;128,132,133,129;,
 4;130,129,133,134;,
 4;130,134,131,127;,
 4;132,131,135,136;,
 4;132,136,137,133;,
 4;134,133,137,138;,
 4;134,138,135,131;,
 4;136,135,139,140;,
 4;136,140,141,137;,
 4;138,137,141,142;,
 4;138,142,139,135;,
 3;140,143,141;,
 3;140,139,143;,
 3;142,143,139;,
 3;142,141,143;,
 4;144,145,146,147;,
 4;144,147,148,149;,
 4;144,149,148,150;,
 4;144,150,146,145;,
 4;147,146,151,152;,
 4;147,152,153,148;,
 4;150,148,153,154;,
 4;150,154,151,146;,
 4;152,151,155,156;,
 4;152,156,157,153;,
 4;154,153,157,158;,
 4;154,158,155,151;,
 4;156,155,159,160;,
 4;156,160,161,157;,
 4;158,157,161,162;,
 4;158,162,159,155;,
 4;160,159,163,164;,
 4;160,164,165,161;,
 4;162,161,165,166;,
 4;162,166,163,159;,
 4;164,163,167,168;,
 4;164,168,169,165;,
 4;166,165,169,170;,
 4;166,170,167,163;,
 4;168,167,171,172;,
 4;168,172,173,169;,
 4;170,169,173,174;,
 4;170,174,171,167;,
 4;172,171,175,176;,
 4;172,176,177,173;,
 4;174,173,177,178;,
 4;174,178,175,171;,
 4;176,175,179,180;,
 4;176,180,181,177;,
 4;178,177,181,182;,
 4;178,182,179,175;,
 4;180,179,183,184;,
 4;180,184,185,181;,
 4;182,181,185,186;,
 4;182,186,183,179;,
 4;184,183,187,188;,
 4;184,188,189,185;,
 4;186,185,189,190;,
 4;186,190,187,183;,
 3;188,191,189;,
 3;188,187,191;,
 3;190,191,187;,
 3;190,189,191;;
 
 MeshMaterialList {
  1;
  192;
  0,
  0,
  0,
  0,
  0,
  0,
  0,
  0,
  0,
  0,
  0,
  0,
  0,
  0,
  0,
  0,
  0,
  0,
  0,
  0,
  0,
  0,
  0,
  0,
  0,
  0,
  0,
  0,
  0,
  0,
  0,
  0,
  0,
  0,
  0,
  0,
  0,
  0,
  0,
  0,
  0,
  0,
  0,
  0,
  0,
  0,
  0,
  0,
  0,
  0,
  0,
  0,
  0,
  0,
  0,
  0,
  0,
  0,
  0,
  0,
  0,
  0,
  0,
  0,
  0,
  0,
  0,
  0,
  0,
  0,
  0,
  0,
  0,
  0,
  0,
  0,
  0,
  0,
  0,
  0,
  0,
  0,
  0,
  0,
  0,
  0,
  0,
  0,
  0,
  0,
  0,
  0,
  0,
  0,
  0,
  0,
  0,
  0,
  0,
  0,
  0,
  0,
  0,
  0,
  0,
  0,
  0,
  0,
  0,
  0,
  0,
  0,
  0,
  0,
  0,
  0,
  0,
  0,
  0,
  0,
  0,
  0,
  0,
  0,
  0,
  0,
  0,
  0,
  0,
  0,
  0,
  0,
  0,
  0,
  0,
  0,
  0,
  0,
  0,
  0,
  0,
  0,
  0,
  0,
  0,
  0,
  0,
  0,
  0,
  0,
  0,
  0,
  0,
  0,
  0,
  0,
  0,
  0,
  0,
  0,
  0,
  0,
  0,
  0,
  0,
  0,
  0,
  0,
  0,
  0,
  0,
  0,
  0,
  0,
  0,
  0,
  0,
  0,
  0,
  0,
  0,
  0,
  0,
  0,
  0,
  0,
  0,
  0,
  0,
  0,
  0,
  0;;
  Material {
   0.800000;0.800000;0.800000;1.000000;;
   5.000000;
   0.000000;0.000000;0.000000;;
   0.000000;0.000000;0.000000;;
   TextureFilename {
    "hadou.png";
   }
  }
 }
 MeshNormals {
  296;
  -0.747626;0.592427;0.300143;,
  -0.738593;0.665601;0.107031;,
  -0.738569;0.665626;0.107043;,
  -0.635495;0.724712;-0.266345;,
  -0.635486;0.724721;-0.266341;,
  -0.435731;0.672953;-0.597723;,
  -0.435730;0.672954;-0.597723;,
  -0.158288;0.510757;-0.845028;,
  -0.158284;0.510760;-0.845027;,
  0.131548;0.277040;-0.951811;,
  0.131547;0.277039;-0.951811;,
  0.398298;0.005591;-0.917239;,
  0.398292;0.005586;-0.917242;,
  0.613341;-0.276693;-0.739766;,
  0.613337;-0.276697;-0.739768;,
  0.731732;-0.515100;-0.446364;,
  0.731730;-0.515101;-0.446366;,
  0.738583;-0.665610;-0.107045;,
  0.738584;-0.665609;-0.107044;,
  0.634837;-0.724734;0.267849;,
  0.634839;-0.724732;0.267851;,
  0.413743;-0.662927;0.623975;,
  0.413743;-0.662927;0.623974;,
  0.276390;-0.588349;0.759904;,
  0.276389;-0.588352;0.759902;,
  0.820894;0.160341;-0.548110;,
  0.908170;0.203549;-0.365780;,
  0.908163;0.203569;-0.365785;,
  0.965293;0.260572;0.017649;,
  0.965292;0.260575;0.017647;,
  0.874821;0.277607;0.397017;,
  0.874822;0.277602;0.397018;,
  0.639924;0.250513;0.726457;,
  0.639924;0.250513;0.726458;,
  0.316779;0.186082;0.930067;,
  0.316778;0.186085;0.930067;,
  -0.048787;0.095117;0.994270;,
  -0.048787;0.095117;0.994270;,
  -0.420247;-0.013877;0.907304;,
  -0.420246;-0.013880;0.907304;,
  -0.725149;-0.120534;0.677961;,
  -0.725148;-0.120534;0.677961;,
  -0.908168;-0.203543;0.365789;,
  -0.908168;-0.203542;0.365789;,
  -0.965220;-0.260729;-0.019280;,
  -0.965219;-0.260729;-0.019281;,
  -0.859623;-0.277047;-0.429293;,
  -0.859623;-0.277048;-0.429293;,
  -0.750255;-0.266850;-0.604904;,
  -0.750255;-0.266850;-0.604903;,
  0.766478;-0.572559;-0.291012;,
  0.751158;-0.652359;-0.100945;,
  0.751168;-0.652348;-0.100941;,
  0.634886;-0.725353;0.266051;,
  0.634884;-0.725355;0.266049;,
  0.422085;-0.687335;0.591113;,
  0.422081;-0.687339;0.591112;,
  0.133319;-0.537072;0.832934;,
  0.133317;-0.537073;0.832934;,
  -0.163513;-0.310727;0.936329;,
  -0.163514;-0.310728;0.936329;,
  -0.432468;-0.041603;0.900689;,
  -0.432471;-0.041606;0.900687;,
  -0.644525;0.243829;0.724662;,
  -0.644526;0.243827;0.724662;,
  -0.755035;0.490541;0.435078;,
  -0.755034;0.490541;0.435078;,
  -0.751158;0.652357;0.100955;,
  -0.751158;0.652357;0.100954;,
  -0.634175;0.725432;-0.267528;,
  -0.634175;0.725431;-0.267529;,
  -0.398987;0.678479;-0.616827;,
  -0.398986;0.678481;-0.616826;,
  -0.255598;0.610263;-0.749832;,
  -0.255596;0.610266;-0.749830;,
  -0.828309;-0.132663;0.544339;,
  -0.913116;-0.185087;0.363265;,
  -0.913118;-0.185080;0.363265;,
  -0.965056;-0.261456;-0.017529;,
  -0.965057;-0.261454;-0.017528;,
  -0.869457;-0.297625;-0.394288;,
  -0.869458;-0.297624;-0.394288;,
  -0.630111;-0.287138;-0.721465;,
  -0.630110;-0.287138;-0.721466;,
  -0.304215;-0.232971;-0.923676;,
  -0.304214;-0.232969;-0.923677;,
  0.062219;-0.145242;-0.987438;,
  0.062218;-0.145236;-0.987439;,
  0.432503;-0.031863;-0.901069;,
  0.432502;-0.031857;-0.901070;,
  0.734307;0.086354;-0.673302;,
  0.734306;0.086355;-0.673303;,
  0.913110;0.185099;-0.363275;,
  0.913110;0.185098;-0.363276;,
  0.964960;0.261698;0.019148;,
  0.964960;0.261698;0.019149;,
  0.853824;0.298690;0.426344;,
  0.853824;0.298690;0.426344;,
  0.742083;0.297348;0.600747;,
  0.742083;0.297346;0.600748;,
  -0.750255;-0.266850;-0.604904;,
  -0.859623;-0.277047;-0.429293;,
  0.859623;0.277047;0.429293;,
  -0.965219;-0.260729;-0.019281;,
  0.965220;0.260729;0.019281;,
  -0.908168;-0.203543;0.365789;,
  0.908168;0.203543;-0.365789;,
  -0.725149;-0.120534;0.677961;,
  0.725149;0.120534;-0.677961;,
  -0.420246;-0.013878;0.907304;,
  0.420246;0.013878;-0.907304;,
  -0.048787;0.095117;0.994270;,
  0.048787;-0.095117;-0.994270;,
  0.316779;0.186084;0.930067;,
  -0.316779;-0.186084;-0.930067;,
  0.639924;0.250513;0.726458;,
  -0.639924;-0.250513;-0.726458;,
  0.874822;0.277604;0.397018;,
  -0.874822;-0.277604;-0.397018;,
  0.965293;0.260574;0.017648;,
  -0.965293;-0.260574;-0.017648;,
  0.908167;0.203559;-0.365783;,
  -0.908167;-0.203559;0.365783;,
  0.742083;0.297347;0.600748;,
  0.853824;0.298690;0.426344;,
  -0.853824;-0.298690;-0.426344;,
  0.964960;0.261698;0.019148;,
  -0.964960;-0.261698;-0.019148;,
  0.913110;0.185098;-0.363276;,
  -0.913110;-0.185098;0.363276;,
  0.734307;0.086355;-0.673303;,
  -0.734307;-0.086355;0.673303;,
  0.432502;-0.031860;-0.901070;,
  -0.432502;0.031860;0.901070;,
  0.062218;-0.145239;-0.987438;,
  -0.062218;0.145239;0.987438;,
  -0.304214;-0.232970;-0.923677;,
  0.304214;0.232970;0.923677;,
  -0.630111;-0.287138;-0.721466;,
  0.630111;0.287138;0.721466;,
  -0.869457;-0.297625;-0.394289;,
  0.869457;0.297625;0.394289;,
  -0.965056;-0.261455;-0.017528;,
  0.965056;0.261455;0.017528;,
  -0.913117;-0.185084;0.363265;,
  0.913117;0.185084;-0.363265;,
  0.276389;-0.588351;0.759903;,
  0.413743;-0.662927;0.623975;,
  -0.413743;0.662927;-0.623975;,
  0.634838;-0.724733;0.267850;,
  -0.634838;0.724733;-0.267850;,
  0.738584;-0.665609;-0.107045;,
  -0.738584;0.665609;0.107045;,
  0.731731;-0.515101;-0.446365;,
  -0.731731;0.515101;0.446365;,
  0.613339;-0.276695;-0.739767;,
  -0.613339;0.276695;0.739767;,
  0.398295;0.005589;-0.917240;,
  -0.398295;-0.005589;0.917240;,
  0.131548;0.277039;-0.951811;,
  -0.131548;-0.277039;0.951811;,
  -0.158286;0.510759;-0.845027;,
  0.158286;-0.510759;0.845027;,
  -0.435731;0.672954;-0.597723;,
  0.435730;-0.672954;0.597723;,
  -0.635490;0.724716;-0.266343;,
  0.635490;-0.724716;0.266343;,
  -0.738581;0.665614;0.107037;,
  0.738581;-0.665614;-0.107037;,
  -0.255597;0.610265;-0.749831;,
  -0.398986;0.678480;-0.616826;,
  0.398986;-0.678480;0.616826;,
  -0.634175;0.725431;-0.267528;,
  0.634175;-0.725431;0.267528;,
  -0.751158;0.652357;0.100955;,
  0.751158;-0.652357;-0.100955;,
  -0.755034;0.490541;0.435078;,
  0.755034;-0.490541;-0.435078;,
  -0.644526;0.243828;0.724662;,
  0.644526;-0.243828;-0.724662;,
  -0.432469;-0.041605;0.900688;,
  0.432469;0.041605;-0.900688;,
  -0.163514;-0.310728;0.936329;,
  0.163514;0.310728;-0.936329;,
  0.133318;-0.537073;0.832934;,
  -0.133318;0.537073;-0.832934;,
  0.422083;-0.687337;0.591112;,
  -0.422083;0.687337;-0.591112;,
  0.634885;-0.725354;0.266050;,
  -0.634885;0.725354;-0.266050;,
  0.751163;-0.652353;-0.100943;,
  -0.751163;0.652353;0.100943;,
  0.750255;0.266850;0.604904;,
  0.750255;0.266850;0.604903;,
  0.859623;0.277048;0.429293;,
  0.859623;0.277047;0.429293;,
  0.750255;0.266850;0.604904;,
  0.965219;0.260729;0.019281;,
  0.965220;0.260729;0.019280;,
  0.908168;0.203542;-0.365789;,
  0.908168;0.203543;-0.365789;,
  0.725148;0.120534;-0.677961;,
  0.725149;0.120534;-0.677961;,
  0.420246;0.013880;-0.907304;,
  0.420247;0.013877;-0.907304;,
  0.048787;-0.095117;-0.994270;,
  0.048787;-0.095117;-0.994270;,
  -0.316778;-0.186085;-0.930067;,
  -0.316779;-0.186082;-0.930067;,
  -0.639924;-0.250513;-0.726458;,
  -0.639924;-0.250513;-0.726457;,
  -0.874822;-0.277602;-0.397018;,
  -0.874821;-0.277607;-0.397017;,
  -0.965292;-0.260575;-0.017647;,
  -0.965293;-0.260572;-0.017649;,
  -0.908163;-0.203569;0.365785;,
  -0.908170;-0.203549;0.365780;,
  -0.820894;-0.160341;0.548110;,
  -0.742083;-0.297347;-0.600748;,
  -0.742083;-0.297346;-0.600748;,
  -0.853824;-0.298690;-0.426344;,
  -0.853824;-0.298690;-0.426344;,
  -0.742083;-0.297348;-0.600747;,
  -0.964960;-0.261698;-0.019149;,
  -0.964960;-0.261698;-0.019148;,
  -0.913110;-0.185098;0.363276;,
  -0.913110;-0.185099;0.363275;,
  -0.734306;-0.086355;0.673303;,
  -0.734307;-0.086354;0.673302;,
  -0.432502;0.031857;0.901070;,
  -0.432503;0.031863;0.901069;,
  -0.062218;0.145236;0.987439;,
  -0.062219;0.145242;0.987438;,
  0.304214;0.232969;0.923677;,
  0.304215;0.232971;0.923676;,
  0.630110;0.287138;0.721466;,
  0.630111;0.287138;0.721465;,
  0.869458;0.297624;0.394288;,
  0.869457;0.297625;0.394288;,
  0.965057;0.261454;0.017528;,
  0.965056;0.261456;0.017529;,
  0.913118;0.185080;-0.363265;,
  0.913116;0.185087;-0.363265;,
  0.828309;0.132663;-0.544339;,
  -0.276389;0.588351;-0.759903;,
  -0.276389;0.588352;-0.759902;,
  -0.413743;0.662927;-0.623974;,
  -0.413743;0.662927;-0.623975;,
  -0.276390;0.588349;-0.759904;,
  -0.634839;0.724732;-0.267851;,
  -0.634837;0.724734;-0.267849;,
  -0.738584;0.665609;0.107044;,
  -0.738583;0.665610;0.107045;,
  -0.731730;0.515101;0.446366;,
  -0.731732;0.515100;0.446364;,
  -0.613337;0.276697;0.739768;,
  -0.613341;0.276693;0.739766;,
  -0.398292;-0.005586;0.917242;,
  -0.398298;-0.005591;0.917239;,
  -0.131547;-0.277039;0.951811;,
  -0.131548;-0.277040;0.951811;,
  0.158284;-0.510760;0.845027;,
  0.158288;-0.510757;0.845028;,
  0.435730;-0.672954;0.597723;,
  0.435731;-0.672953;0.597723;,
  0.635486;-0.724721;0.266341;,
  0.635495;-0.724712;0.266345;,
  0.738569;-0.665626;-0.107043;,
  0.738593;-0.665601;-0.107031;,
  0.747626;-0.592427;-0.300143;,
  0.255597;-0.610265;0.749831;,
  0.255596;-0.610266;0.749830;,
  0.398986;-0.678481;0.616826;,
  0.398987;-0.678479;0.616827;,
  0.255598;-0.610263;0.749832;,
  0.634175;-0.725431;0.267529;,
  0.634175;-0.725432;0.267528;,
  0.751158;-0.652357;-0.100954;,
  0.751158;-0.652357;-0.100955;,
  0.755034;-0.490541;-0.435078;,
  0.755035;-0.490541;-0.435078;,
  0.644526;-0.243827;-0.724662;,
  0.644525;-0.243829;-0.724662;,
  0.432471;0.041606;-0.900687;,
  0.432468;0.041603;-0.900689;,
  0.163514;0.310728;-0.936329;,
  0.163513;0.310727;-0.936329;,
  -0.133317;0.537073;-0.832934;,
  -0.133319;0.537072;-0.832934;,
  -0.422081;0.687339;-0.591112;,
  -0.422085;0.687335;-0.591113;,
  -0.634884;0.725355;-0.266049;,
  -0.634886;0.725353;-0.266051;,
  -0.751168;0.652348;0.100941;,
  -0.751158;0.652359;0.100945;,
  -0.766478;0.572559;0.291012;;
  192;
  4;100,48,46,101;,
  4;100,101,47,49;,
  4;192,193,194,102;,
  4;192,102,195,196;,
  4;101,46,44,103;,
  4;101,103,45,47;,
  4;102,194,197,104;,
  4;102,104,198,195;,
  4;103,44,42,105;,
  4;103,105,43,45;,
  4;104,197,199,106;,
  4;104,106,200,198;,
  4;105,42,40,107;,
  4;105,107,41,43;,
  4;106,199,201,108;,
  4;106,108,202,200;,
  4;107,40,38,109;,
  4;107,109,39,41;,
  4;108,201,203,110;,
  4;108,110,204,202;,
  4;109,38,36,111;,
  4;109,111,37,39;,
  4;110,203,205,112;,
  4;110,112,206,204;,
  4;111,36,34,113;,
  4;111,113,35,37;,
  4;112,205,207,114;,
  4;112,114,208,206;,
  4;113,34,32,115;,
  4;113,115,33,35;,
  4;114,207,209,116;,
  4;114,116,210,208;,
  4;115,32,30,117;,
  4;115,117,31,33;,
  4;116,209,211,118;,
  4;116,118,212,210;,
  4;117,30,28,119;,
  4;117,119,29,31;,
  4;118,211,213,120;,
  4;118,120,214,212;,
  4;119,28,26,121;,
  4;119,121,27,29;,
  4;120,213,215,122;,
  4;120,122,216,214;,
  3;121,25,27;,
  3;121,26,25;,
  3;122,217,216;,
  3;122,215,217;,
  4;123,98,96,124;,
  4;123,124,97,99;,
  4;218,219,220,125;,
  4;218,125,221,222;,
  4;124,96,94,126;,
  4;124,126,95,97;,
  4;125,220,223,127;,
  4;125,127,224,221;,
  4;126,94,92,128;,
  4;126,128,93,95;,
  4;127,223,225,129;,
  4;127,129,226,224;,
  4;128,92,90,130;,
  4;128,130,91,93;,
  4;129,225,227,131;,
  4;129,131,228,226;,
  4;130,90,88,132;,
  4;130,132,89,91;,
  4;131,227,229,133;,
  4;131,133,230,228;,
  4;132,88,86,134;,
  4;132,134,87,89;,
  4;133,229,231,135;,
  4;133,135,232,230;,
  4;134,86,84,136;,
  4;134,136,85,87;,
  4;135,231,233,137;,
  4;135,137,234,232;,
  4;136,84,82,138;,
  4;136,138,83,85;,
  4;137,233,235,139;,
  4;137,139,236,234;,
  4;138,82,80,140;,
  4;138,140,81,83;,
  4;139,235,237,141;,
  4;139,141,238,236;,
  4;140,80,78,142;,
  4;140,142,79,81;,
  4;141,237,239,143;,
  4;141,143,240,238;,
  4;142,78,76,144;,
  4;142,144,77,79;,
  4;143,239,241,145;,
  4;143,145,242,240;,
  3;144,75,77;,
  3;144,76,75;,
  3;145,243,242;,
  3;145,241,243;,
  4;146,23,21,147;,
  4;146,147,22,24;,
  4;244,245,246,148;,
  4;244,148,247,248;,
  4;147,21,19,149;,
  4;147,149,20,22;,
  4;148,246,249,150;,
  4;148,150,250,247;,
  4;149,19,17,151;,
  4;149,151,18,20;,
  4;150,249,251,152;,
  4;150,152,252,250;,
  4;151,17,15,153;,
  4;151,153,16,18;,
  4;152,251,253,154;,
  4;152,154,254,252;,
  4;153,15,13,155;,
  4;153,155,14,16;,
  4;154,253,255,156;,
  4;154,156,256,254;,
  4;155,13,11,157;,
  4;155,157,12,14;,
  4;156,255,257,158;,
  4;156,158,258,256;,
  4;157,11,9,159;,
  4;157,159,10,12;,
  4;158,257,259,160;,
  4;158,160,260,258;,
  4;159,9,7,161;,
  4;159,161,8,10;,
  4;160,259,261,162;,
  4;160,162,262,260;,
  4;161,7,5,163;,
  4;161,163,6,8;,
  4;162,261,263,164;,
  4;162,164,264,262;,
  4;163,5,3,165;,
  4;163,165,4,6;,
  4;164,263,265,166;,
  4;164,166,266,264;,
  4;165,3,1,167;,
  4;165,167,2,4;,
  4;166,265,267,168;,
  4;166,168,268,266;,
  3;167,0,2;,
  3;167,1,0;,
  3;168,269,268;,
  3;168,267,269;,
  4;169,73,71,170;,
  4;169,170,72,74;,
  4;270,271,272,171;,
  4;270,171,273,274;,
  4;170,71,69,172;,
  4;170,172,70,72;,
  4;171,272,275,173;,
  4;171,173,276,273;,
  4;172,69,67,174;,
  4;172,174,68,70;,
  4;173,275,277,175;,
  4;173,175,278,276;,
  4;174,67,65,176;,
  4;174,176,66,68;,
  4;175,277,279,177;,
  4;175,177,280,278;,
  4;176,65,63,178;,
  4;176,178,64,66;,
  4;177,279,281,179;,
  4;177,179,282,280;,
  4;178,63,61,180;,
  4;178,180,62,64;,
  4;179,281,283,181;,
  4;179,181,284,282;,
  4;180,61,59,182;,
  4;180,182,60,62;,
  4;181,283,285,183;,
  4;181,183,286,284;,
  4;182,59,57,184;,
  4;182,184,58,60;,
  4;183,285,287,185;,
  4;183,185,288,286;,
  4;184,57,55,186;,
  4;184,186,56,58;,
  4;185,287,289,187;,
  4;185,187,290,288;,
  4;186,55,53,188;,
  4;186,188,54,56;,
  4;187,289,291,189;,
  4;187,189,292,290;,
  4;188,53,51,190;,
  4;188,190,52,54;,
  4;189,291,293,191;,
  4;189,191,294,292;,
  3;190,50,52;,
  3;190,51,50;,
  3;191,295,294;,
  3;191,293,295;;
 }
 MeshTextureCoords {
  192;
  0.212720;0.197410;,
  0.212630;0.098790;,
  0.240090;0.099930;,
  0.240180;0.197710;,
  0.240270;0.298060;,
  0.212820;0.298630;,
  0.240180;0.197710;,
  0.271620;0.103320;,
  0.271690;0.198580;,
  0.271760;0.296350;,
  0.271690;0.198580;,
  0.306080;0.108910;,
  0.306120;0.200030;,
  0.306160;0.293540;,
  0.306120;0.200030;,
  0.335910;0.116610;,
  0.335910;0.202020;,
  0.335910;0.289680;,
  0.335910;0.202020;,
  0.362500;0.126270;,
  0.362500;0.204510;,
  0.362500;0.284820;,
  0.362500;0.204510;,
  0.395610;0.137740;,
  0.395610;0.207480;,
  0.395610;0.279050;,
  0.395610;0.207480;,
  0.428920;0.150820;,
  0.428920;0.210860;,
  0.428920;0.272480;,
  0.428920;0.210860;,
  0.457360;0.165280;,
  0.457360;0.214590;,
  0.457360;0.265200;,
  0.457360;0.214590;,
  0.484750;0.180880;,
  0.484830;0.218630;,
  0.484910;0.257360;,
  0.484830;0.218630;,
  0.520050;0.197360;,
  0.520210;0.222880;,
  0.520380;0.249080;,
  0.520210;0.222880;,
  0.551280;0.214420;,
  0.551530;0.227290;,
  0.551790;0.240500;,
  0.551530;0.227290;,
  0.579810;0.231770;,
  1.001730;0.284780;,
  1.001640;0.193210;,
  1.029100;0.194350;,
  1.029180;0.285140;,
  1.029280;0.392480;,
  1.001820;0.393050;,
  1.029180;0.285140;,
  1.060630;0.197740;,
  1.060690;0.286190;,
  1.060770;0.390770;,
  1.060690;0.286190;,
  1.095090;0.203330;,
  1.095120;0.287930;,
  1.095170;0.387960;,
  1.095120;0.287930;,
  1.124910;0.211020;,
  1.124910;0.290330;,
  1.124910;0.384090;,
  1.124910;0.290330;,
  1.151510;0.220690;,
  1.151510;0.293340;,
  1.151510;0.379230;,
  1.151510;0.293340;,
  1.184620;0.232160;,
  1.184620;0.296910;,
  1.184620;0.373470;,
  1.184620;0.296910;,
  1.217930;0.245240;,
  1.217930;0.300980;,
  1.217930;0.366890;,
  1.217930;0.300980;,
  1.246360;0.259700;,
  1.246360;0.305490;,
  1.246360;0.359620;,
  1.246360;0.305490;,
  1.273750;0.275300;,
  1.273830;0.310350;,
  1.273920;0.351780;,
  1.273830;0.310350;,
  1.309050;0.291770;,
  1.309200;0.315470;,
  1.309380;0.343500;,
  1.309200;0.315470;,
  1.340280;0.308830;,
  1.340520;0.320790;,
  1.340790;0.334920;,
  1.340520;0.320790;,
  1.368810;0.326190;,
  -0.173890;0.680890;,
  -0.173980;0.585290;,
  -0.146510;0.586430;,
  -0.146430;0.681210;,
  -0.146340;0.784560;,
  -0.173790;0.785130;,
  -0.146430;0.681210;,
  -0.114990;0.589820;,
  -0.114920;0.682160;,
  -0.114850;0.782860;,
  -0.114920;0.682160;,
  -0.080530;0.595420;,
  -0.080490;0.683730;,
  -0.080450;0.780050;,
  -0.080490;0.683730;,
  -0.050700;0.603110;,
  -0.050700;0.685890;,
  -0.050700;0.776180;,
  -0.050700;0.685890;,
  -0.024110;0.612770;,
  -0.024110;0.688610;,
  -0.024110;0.771320;,
  -0.024110;0.688610;,
  0.009000;0.624240;,
  0.009000;0.691840;,
  0.009000;0.765550;,
  0.009000;0.691840;,
  0.042310;0.637320;,
  0.042310;0.695510;,
  0.042310;0.758980;,
  0.042310;0.695510;,
  0.070750;0.651780;,
  0.070750;0.699580;,
  0.070750;0.751710;,
  0.070750;0.699580;,
  0.098140;0.667390;,
  0.098220;0.703970;,
  0.098300;0.743860;,
  0.098220;0.703970;,
  0.133440;0.683860;,
  0.133600;0.708600;,
  0.133770;0.735580;,
  0.133600;0.708600;,
  0.164670;0.700920;,
  0.164910;0.713400;,
  0.165180;0.727000;,
  0.164910;0.713400;,
  0.193190;0.718280;,
  0.608450;0.747110;,
  0.608370;0.661420;,
  0.635830;0.662550;,
  0.635900;0.747510;,
  0.636000;0.860680;,
  0.608550;0.861260;,
  0.635900;0.747510;,
  0.667350;0.665950;,
  0.667410;0.748720;,
  0.667490;0.858980;,
  0.667410;0.748720;,
  0.701820;0.671540;,
  0.701850;0.750710;,
  0.701900;0.856170;,
  0.701850;0.750710;,
  0.731640;0.679230;,
  0.731640;0.753440;,
  0.731640;0.852300;,
  0.731640;0.753440;,
  0.758240;0.688900;,
  0.758240;0.756880;,
  0.758240;0.847440;,
  0.758240;0.756880;,
  0.791350;0.700370;,
  0.791350;0.760960;,
  0.791350;0.841670;,
  0.791350;0.760960;,
  0.824660;0.713440;,
  0.824660;0.765610;,
  0.824660;0.835100;,
  0.824660;0.765610;,
  0.853100;0.727910;,
  0.853100;0.770750;,
  0.853100;0.827830;,
  0.853100;0.770750;,
  0.880490;0.743510;,
  0.880560;0.776300;,
  0.880650;0.819980;,
  0.880560;0.776300;,
  0.915780;0.759980;,
  0.915930;0.782160;,
  0.916120;0.811700;,
  0.915930;0.782160;,
  0.947020;0.777040;,
  0.947240;0.788230;,
  0.947530;0.803130;,
  0.947240;0.788230;,
  0.975540;0.794400;;
 }
 MeshVertexColors {
  192;
  0;1.000000;1.000000;1.000000;1.000000;,
  1;1.000000;1.000000;1.000000;1.000000;,
  2;1.000000;1.000000;1.000000;1.000000;,
  3;1.000000;1.000000;1.000000;1.000000;,
  4;1.000000;1.000000;1.000000;1.000000;,
  5;1.000000;1.000000;1.000000;1.000000;,
  6;1.000000;1.000000;1.000000;1.000000;,
  7;1.000000;1.000000;1.000000;1.000000;,
  8;1.000000;1.000000;1.000000;1.000000;,
  9;1.000000;1.000000;1.000000;1.000000;,
  10;1.000000;1.000000;1.000000;1.000000;,
  11;1.000000;1.000000;1.000000;1.000000;,
  12;1.000000;1.000000;1.000000;1.000000;,
  13;1.000000;1.000000;1.000000;1.000000;,
  14;1.000000;1.000000;1.000000;1.000000;,
  15;1.000000;1.000000;1.000000;1.000000;,
  16;1.000000;1.000000;1.000000;1.000000;,
  17;1.000000;1.000000;1.000000;1.000000;,
  18;1.000000;1.000000;1.000000;1.000000;,
  19;1.000000;1.000000;1.000000;1.000000;,
  20;1.000000;1.000000;1.000000;1.000000;,
  21;1.000000;1.000000;1.000000;1.000000;,
  22;1.000000;1.000000;1.000000;1.000000;,
  23;1.000000;1.000000;1.000000;1.000000;,
  24;1.000000;1.000000;1.000000;1.000000;,
  25;1.000000;1.000000;1.000000;1.000000;,
  26;1.000000;1.000000;1.000000;1.000000;,
  27;1.000000;1.000000;1.000000;1.000000;,
  28;1.000000;1.000000;1.000000;1.000000;,
  29;1.000000;1.000000;1.000000;1.000000;,
  30;1.000000;1.000000;1.000000;1.000000;,
  31;1.000000;1.000000;1.000000;1.000000;,
  32;1.000000;1.000000;1.000000;1.000000;,
  33;1.000000;1.000000;1.000000;1.000000;,
  34;1.000000;1.000000;1.000000;1.000000;,
  35;1.000000;1.000000;1.000000;1.000000;,
  36;1.000000;1.000000;1.000000;1.000000;,
  37;1.000000;1.000000;1.000000;1.000000;,
  38;1.000000;1.000000;1.000000;1.000000;,
  39;1.000000;1.000000;1.000000;1.000000;,
  40;1.000000;1.000000;1.000000;1.000000;,
  41;1.000000;1.000000;1.000000;1.000000;,
  42;1.000000;1.000000;1.000000;1.000000;,
  43;1.000000;1.000000;1.000000;1.000000;,
  44;1.000000;1.000000;1.000000;1.000000;,
  45;1.000000;1.000000;1.000000;1.000000;,
  46;1.000000;1.000000;1.000000;1.000000;,
  47;1.000000;1.000000;1.000000;1.000000;,
  48;1.000000;1.000000;1.000000;1.000000;,
  49;1.000000;1.000000;1.000000;1.000000;,
  50;1.000000;1.000000;1.000000;1.000000;,
  51;1.000000;1.000000;1.000000;1.000000;,
  52;1.000000;1.000000;1.000000;1.000000;,
  53;1.000000;1.000000;1.000000;1.000000;,
  54;1.000000;1.000000;1.000000;1.000000;,
  55;1.000000;1.000000;1.000000;1.000000;,
  56;1.000000;1.000000;1.000000;1.000000;,
  57;1.000000;1.000000;1.000000;1.000000;,
  58;1.000000;1.000000;1.000000;1.000000;,
  59;1.000000;1.000000;1.000000;1.000000;,
  60;1.000000;1.000000;1.000000;1.000000;,
  61;1.000000;1.000000;1.000000;1.000000;,
  62;1.000000;1.000000;1.000000;1.000000;,
  63;1.000000;1.000000;1.000000;1.000000;,
  64;1.000000;1.000000;1.000000;1.000000;,
  65;1.000000;1.000000;1.000000;1.000000;,
  66;1.000000;1.000000;1.000000;1.000000;,
  67;1.000000;1.000000;1.000000;1.000000;,
  68;1.000000;1.000000;1.000000;1.000000;,
  69;1.000000;1.000000;1.000000;1.000000;,
  70;1.000000;1.000000;1.000000;1.000000;,
  71;1.000000;1.000000;1.000000;1.000000;,
  72;1.000000;1.000000;1.000000;1.000000;,
  73;1.000000;1.000000;1.000000;1.000000;,
  74;1.000000;1.000000;1.000000;1.000000;,
  75;1.000000;1.000000;1.000000;1.000000;,
  76;1.000000;1.000000;1.000000;1.000000;,
  77;1.000000;1.000000;1.000000;1.000000;,
  78;1.000000;1.000000;1.000000;1.000000;,
  79;1.000000;1.000000;1.000000;1.000000;,
  80;1.000000;1.000000;1.000000;1.000000;,
  81;1.000000;1.000000;1.000000;1.000000;,
  82;1.000000;1.000000;1.000000;1.000000;,
  83;1.000000;1.000000;1.000000;1.000000;,
  84;1.000000;1.000000;1.000000;1.000000;,
  85;1.000000;1.000000;1.000000;1.000000;,
  86;1.000000;1.000000;1.000000;1.000000;,
  87;1.000000;1.000000;1.000000;1.000000;,
  88;1.000000;1.000000;1.000000;1.000000;,
  89;1.000000;1.000000;1.000000;1.000000;,
  90;1.000000;1.000000;1.000000;1.000000;,
  91;1.000000;1.000000;1.000000;1.000000;,
  92;1.000000;1.000000;1.000000;1.000000;,
  93;1.000000;1.000000;1.000000;1.000000;,
  94;1.000000;1.000000;1.000000;1.000000;,
  95;1.000000;1.000000;1.000000;1.000000;,
  96;1.000000;1.000000;1.000000;1.000000;,
  97;1.000000;1.000000;1.000000;1.000000;,
  98;1.000000;1.000000;1.000000;1.000000;,
  99;1.000000;1.000000;1.000000;1.000000;,
  100;1.000000;1.000000;1.000000;1.000000;,
  101;1.000000;1.000000;1.000000;1.000000;,
  102;1.000000;1.000000;1.000000;1.000000;,
  103;1.000000;1.000000;1.000000;1.000000;,
  104;1.000000;1.000000;1.000000;1.000000;,
  105;1.000000;1.000000;1.000000;1.000000;,
  106;1.000000;1.000000;1.000000;1.000000;,
  107;1.000000;1.000000;1.000000;1.000000;,
  108;1.000000;1.000000;1.000000;1.000000;,
  109;1.000000;1.000000;1.000000;1.000000;,
  110;1.000000;1.000000;1.000000;1.000000;,
  111;1.000000;1.000000;1.000000;1.000000;,
  112;1.000000;1.000000;1.000000;1.000000;,
  113;1.000000;1.000000;1.000000;1.000000;,
  114;1.000000;1.000000;1.000000;1.000000;,
  115;1.000000;1.000000;1.000000;1.000000;,
  116;1.000000;1.000000;1.000000;1.000000;,
  117;1.000000;1.000000;1.000000;1.000000;,
  118;1.000000;1.000000;1.000000;1.000000;,
  119;1.000000;1.000000;1.000000;1.000000;,
  120;1.000000;1.000000;1.000000;1.000000;,
  121;1.000000;1.000000;1.000000;1.000000;,
  122;1.000000;1.000000;1.000000;1.000000;,
  123;1.000000;1.000000;1.000000;1.000000;,
  124;1.000000;1.000000;1.000000;1.000000;,
  125;1.000000;1.000000;1.000000;1.000000;,
  126;1.000000;1.000000;1.000000;1.000000;,
  127;1.000000;1.000000;1.000000;1.000000;,
  128;1.000000;1.000000;1.000000;1.000000;,
  129;1.000000;1.000000;1.000000;1.000000;,
  130;1.000000;1.000000;1.000000;1.000000;,
  131;1.000000;1.000000;1.000000;1.000000;,
  132;1.000000;1.000000;1.000000;1.000000;,
  133;1.000000;1.000000;1.000000;1.000000;,
  134;1.000000;1.000000;1.000000;1.000000;,
  135;1.000000;1.000000;1.000000;1.000000;,
  136;1.000000;1.000000;1.000000;1.000000;,
  137;1.000000;1.000000;1.000000;1.000000;,
  138;1.000000;1.000000;1.000000;1.000000;,
  139;1.000000;1.000000;1.000000;1.000000;,
  140;1.000000;1.000000;1.000000;1.000000;,
  141;1.000000;1.000000;1.000000;1.000000;,
  142;1.000000;1.000000;1.000000;1.000000;,
  143;1.000000;1.000000;1.000000;1.000000;,
  144;1.000000;1.000000;1.000000;1.000000;,
  145;1.000000;1.000000;1.000000;1.000000;,
  146;1.000000;1.000000;1.000000;1.000000;,
  147;1.000000;1.000000;1.000000;1.000000;,
  148;1.000000;1.000000;1.000000;1.000000;,
  149;1.000000;1.000000;1.000000;1.000000;,
  150;1.000000;1.000000;1.000000;1.000000;,
  151;1.000000;1.000000;1.000000;1.000000;,
  152;1.000000;1.000000;1.000000;1.000000;,
  153;1.000000;1.000000;1.000000;1.000000;,
  154;1.000000;1.000000;1.000000;1.000000;,
  155;1.000000;1.000000;1.000000;1.000000;,
  156;1.000000;1.000000;1.000000;1.000000;,
  157;1.000000;1.000000;1.000000;1.000000;,
  158;1.000000;1.000000;1.000000;1.000000;,
  159;1.000000;1.000000;1.000000;1.000000;,
  160;1.000000;1.000000;1.000000;1.000000;,
  161;1.000000;1.000000;1.000000;1.000000;,
  162;1.000000;1.000000;1.000000;1.000000;,
  163;1.000000;1.000000;1.000000;1.000000;,
  164;1.000000;1.000000;1.000000;1.000000;,
  165;1.000000;1.000000;1.000000;1.000000;,
  166;1.000000;1.000000;1.000000;1.000000;,
  167;1.000000;1.000000;1.000000;1.000000;,
  168;1.000000;1.000000;1.000000;1.000000;,
  169;1.000000;1.000000;1.000000;1.000000;,
  170;1.000000;1.000000;1.000000;1.000000;,
  171;1.000000;1.000000;1.000000;1.000000;,
  172;1.000000;1.000000;1.000000;1.000000;,
  173;1.000000;1.000000;1.000000;1.000000;,
  174;1.000000;1.000000;1.000000;1.000000;,
  175;1.000000;1.000000;1.000000;1.000000;,
  176;1.000000;1.000000;1.000000;1.000000;,
  177;1.000000;1.000000;1.000000;1.000000;,
  178;1.000000;1.000000;1.000000;1.000000;,
  179;1.000000;1.000000;1.000000;1.000000;,
  180;1.000000;1.000000;1.000000;1.000000;,
  181;1.000000;1.000000;1.000000;1.000000;,
  182;1.000000;1.000000;1.000000;1.000000;,
  183;1.000000;1.000000;1.000000;1.000000;,
  184;1.000000;1.000000;1.000000;1.000000;,
  185;1.000000;1.000000;1.000000;1.000000;,
  186;1.000000;1.000000;1.000000;1.000000;,
  187;1.000000;1.000000;1.000000;1.000000;,
  188;1.000000;1.000000;1.000000;1.000000;,
  189;1.000000;1.000000;1.000000;1.000000;,
  190;1.000000;1.000000;1.000000;1.000000;,
  191;1.000000;1.000000;1.000000;1.000000;;
 }
}
