xof 0302txt 0064
template Header {
 <3D82AB43-62DA-11cf-AB39-0020AF71E433>
 WORD major;
 WORD minor;
 DWORD flags;
}

template Vector {
 <3D82AB5E-62DA-11cf-AB39-0020AF71E433>
 FLOAT x;
 FLOAT y;
 FLOAT z;
}

template Coords2d {
 <F6F23F44-7686-11cf-8F52-0040333594A3>
 FLOAT u;
 FLOAT v;
}

template Matrix4x4 {
 <F6F23F45-7686-11cf-8F52-0040333594A3>
 array FLOAT matrix[16];
}

template ColorRGBA {
 <35FF44E0-6C7C-11cf-8F52-0040333594A3>
 FLOAT red;
 FLOAT green;
 FLOAT blue;
 FLOAT alpha;
}

template ColorRGB {
 <D3E16E81-7835-11cf-8F52-0040333594A3>
 FLOAT red;
 FLOAT green;
 FLOAT blue;
}

template IndexedColor {
 <1630B820-7842-11cf-8F52-0040333594A3>
 DWORD index;
 ColorRGBA indexColor;
}

template Boolean {
 <4885AE61-78E8-11cf-8F52-0040333594A3>
 WORD truefalse;
}

template Boolean2d {
 <4885AE63-78E8-11cf-8F52-0040333594A3>
 Boolean u;
 Boolean v;
}

template MaterialWrap {
 <4885AE60-78E8-11cf-8F52-0040333594A3>
 Boolean u;
 Boolean v;
}

template TextureFilename {
 <A42790E1-7810-11cf-8F52-0040333594A3>
 STRING filename;
}

template Material {
 <3D82AB4D-62DA-11cf-AB39-0020AF71E433>
 ColorRGBA faceColor;
 FLOAT power;
 ColorRGB specularColor;
 ColorRGB emissiveColor;
 [...]
}

template MeshFace {
 <3D82AB5F-62DA-11cf-AB39-0020AF71E433>
 DWORD nFaceVertexIndices;
 array DWORD faceVertexIndices[nFaceVertexIndices];
}

template MeshFaceWraps {
 <4885AE62-78E8-11cf-8F52-0040333594A3>
 DWORD nFaceWrapValues;
 Boolean2d faceWrapValues;
}

template MeshTextureCoords {
 <F6F23F40-7686-11cf-8F52-0040333594A3>
 DWORD nTextureCoords;
 array Coords2d textureCoords[nTextureCoords];
}

template MeshMaterialList {
 <F6F23F42-7686-11cf-8F52-0040333594A3>
 DWORD nMaterials;
 DWORD nFaceIndexes;
 array DWORD faceIndexes[nFaceIndexes];
 [Material]
}

template MeshNormals {
 <F6F23F43-7686-11cf-8F52-0040333594A3>
 DWORD nNormals;
 array Vector normals[nNormals];
 DWORD nFaceNormals;
 array MeshFace faceNormals[nFaceNormals];
}

template MeshVertexColors {
 <1630B821-7842-11cf-8F52-0040333594A3>
 DWORD nVertexColors;
 array IndexedColor vertexColors[nVertexColors];
}

template Mesh {
 <3D82AB44-62DA-11cf-AB39-0020AF71E433>
 DWORD nVertices;
 array Vector vertices[nVertices];
 DWORD nFaces;
 array MeshFace faces[nFaces];
 [...]
}

Header{
1;
0;
1;
}

Mesh {
 259;
 29.25200;8.31280;-90.02840;,
 29.25200;-7.41390;-90.02840;,
 55.64060;-7.41390;-76.58270;,
 55.64060;8.31280;-76.58270;,
 76.58270;-7.41390;-55.64060;,
 76.58270;8.31280;-55.64060;,
 90.02840;-7.41390;-29.25200;,
 90.02840;8.31280;-29.25200;,
 94.66150;-7.41390;0.00000;,
 94.66150;8.31280;0.00000;,
 90.02840;-7.41390;29.25200;,
 90.02840;8.31280;29.25200;,
 76.58270;-7.41390;55.64060;,
 76.58270;8.31280;55.64060;,
 55.64060;-7.41390;76.58270;,
 55.64060;8.31280;76.58270;,
 29.25200;-7.41390;90.02840;,
 29.25200;8.31280;90.02840;,
 -0.00000;-7.41390;94.66150;,
 0.00000;8.31280;94.66150;,
 -29.25200;-7.41390;90.02840;,
 -29.25200;8.31280;90.02840;,
 -55.64070;-7.41390;76.58270;,
 -55.64070;8.31280;76.58270;,
 -76.58280;-7.41390;55.64060;,
 -76.58280;8.31280;55.64060;,
 -90.02840;-7.41390;29.25190;,
 -90.02840;8.31280;29.25190;,
 -94.66150;-7.41390;-0.00010;,
 -94.66150;8.31280;-0.00010;,
 -90.02840;-7.41390;-29.25210;,
 -90.02840;8.31280;-29.25210;,
 -76.58270;-7.41390;-55.64070;,
 -76.58270;8.31280;-55.64070;,
 -55.64050;-7.41390;-76.58280;,
 -55.64050;8.31280;-76.58280;,
 -29.25190;-7.41390;-90.02840;,
 -29.25190;8.31280;-90.02840;,
 -13.17890;8.31280;-92.57410;,
 -13.17890;-7.41390;-92.57410;,
 13.81430;8.31280;-92.47350;,
 13.81430;-7.41390;-92.47350;,
 -26.30670;8.31280;-285.98669;,
 -26.30670;-7.41390;-285.98669;,
 -13.28000;-7.63870;-317.29660;,
 -13.28000;8.36900;-317.29660;,
 26.36030;-7.41390;-285.98669;,
 26.36030;8.31280;-285.98669;,
 13.50680;8.36900;-317.32391;,
 13.50680;-7.63870;-317.32391;,
 -13.18360;-7.41390;-100.02810;,
 -13.18360;8.31280;-100.02810;,
 -26.10610;-7.41390;-124.74770;,
 -26.10610;8.31280;-124.74770;,
 13.80430;8.31280;-100.02810;,
 13.80430;-7.41390;-100.02810;,
 26.77690;8.31280;-124.74770;,
 26.77690;-7.41390;-124.74770;,
 -13.21680;-7.41390;-152.27631;,
 -13.21680;8.31280;-152.27631;,
 -26.17250;-7.41390;-178.11951;,
 -26.17250;8.31280;-178.11951;,
 13.73550;8.31280;-152.27631;,
 13.73550;-7.41390;-152.27631;,
 26.63900;8.31280;-178.11951;,
 26.63900;-7.41390;-178.11951;,
 -13.24960;-7.41390;-203.96271;,
 -13.24960;8.31280;-203.96271;,
 -26.23960;-7.41390;-232.05310;,
 -26.23960;8.31280;-232.05310;,
 13.66740;8.31280;-203.96271;,
 13.66740;-7.41390;-203.96271;,
 26.49960;8.31280;-232.05310;,
 26.49960;-7.41390;-232.05310;,
 -13.28490;-7.41390;-259.58170;,
 -13.28490;8.31280;-259.58170;,
 13.59410;8.31280;-259.58170;,
 13.59410;-7.41390;-259.58170;,
 0.00000;8.42520;-395.45169;,
 0.00000;-7.86340;-395.45169;,
 12.46690;-7.86340;-393.47720;,
 12.46690;8.42520;-393.47720;,
 23.71350;-7.86340;-387.74670;,
 23.71350;8.42520;-387.74670;,
 32.63880;-7.86340;-378.82141;,
 32.63880;8.42520;-378.82141;,
 38.36920;-7.86340;-367.57480;,
 38.36920;8.42520;-367.57480;,
 40.34380;-7.86340;-355.10791;,
 40.34380;8.42520;-355.10791;,
 38.36920;-7.86340;-342.64111;,
 38.36920;8.42520;-342.64111;,
 32.63880;-7.86340;-331.39441;,
 32.63880;8.42520;-331.39441;,
 23.71350;-7.86340;-322.46921;,
 23.71350;8.42520;-322.46921;,
 13.50680;-7.63870;-317.32391;,
 13.50680;8.36900;-317.32391;,
 -13.28000;8.36900;-317.29660;,
 -13.28000;-7.63870;-317.29660;,
 -23.71350;-7.86340;-322.46921;,
 -23.71350;8.42520;-322.46921;,
 -32.63880;-7.86340;-331.39441;,
 -32.63880;8.42520;-331.39441;,
 -38.36920;-7.86340;-342.64111;,
 -38.36920;8.42520;-342.64111;,
 -40.34380;-7.86340;-355.10800;,
 -40.34380;8.42520;-355.10800;,
 -38.36920;-7.86340;-367.57489;,
 -38.36920;8.42520;-367.57489;,
 -32.63880;-7.86340;-378.82141;,
 -32.63880;8.42520;-378.82141;,
 -23.71340;-7.86340;-387.74670;,
 -23.71340;8.42520;-387.74670;,
 -12.46690;-7.86340;-393.47720;,
 -12.46690;8.42520;-393.47720;,
 0.00000;-7.86340;-395.45169;,
 0.00000;8.42520;-395.45169;,
 -74.67430;0.00000;100.00000;,
 -50.40430;0.00000;100.00000;,
 -50.40430;0.00000;78.18130;,
 -74.67430;0.00000;78.18130;,
 -100.00000;0.00000;78.18130;,
 -100.00000;0.00000;100.00000;,
 -50.40430;0.00000;50.31580;,
 -74.67430;0.00000;50.31580;,
 -100.00000;0.00000;50.31580;,
 -50.40430;0.00000;25.14690;,
 -74.67430;0.00000;25.14690;,
 -100.00000;0.00000;25.14690;,
 -50.40430;0.00000;3.57360;,
 -74.67430;0.00000;3.57360;,
 -100.00000;0.00000;3.57360;,
 -50.40430;0.00000;-21.59520;,
 -74.67430;0.00000;-21.59520;,
 -100.00000;0.00000;-21.59520;,
 -50.40430;0.00000;-44.96640;,
 -74.67430;0.00000;-44.96640;,
 -100.00000;0.00000;-44.96640;,
 -50.40430;0.00000;-72.83190;,
 -74.67430;0.00000;-72.83190;,
 -100.00000;0.00000;-72.83190;,
 -50.40430;0.00000;-95.30410;,
 -74.67430;0.00000;-95.30410;,
 -100.00000;0.00000;-95.30410;,
 70.94550;0.00000;50.31580;,
 49.37220;0.00000;50.31580;,
 49.37220;0.00000;78.18130;,
 70.94550;0.00000;78.18130;,
 100.00000;0.00000;78.18130;,
 100.00000;0.00000;50.31580;,
 49.37220;0.00000;100.00000;,
 70.94550;0.00000;100.00000;,
 100.00000;0.00000;100.00000;,
 70.94550;0.00000;3.57360;,
 49.37220;0.00000;3.57360;,
 49.37220;0.00000;25.14690;,
 70.94550;0.00000;25.14690;,
 100.00000;0.00000;25.14690;,
 100.00000;0.00000;3.57360;,
 70.94550;0.00000;-44.96640;,
 49.37220;0.00000;-44.96640;,
 49.37220;0.00000;-21.59520;,
 70.94550;0.00000;-21.59520;,
 100.00000;0.00000;-21.59520;,
 100.00000;0.00000;-44.96640;,
 70.94550;0.00000;-95.30410;,
 49.37220;0.00000;-95.30410;,
 49.37220;0.00000;-72.83190;,
 70.94550;0.00000;-72.83190;,
 100.00000;0.00000;-72.83190;,
 100.00000;0.00000;-95.30410;,
 -24.33660;0.00000;50.31580;,
 -24.33660;0.00000;78.18130;,
 -0.06660;0.00000;78.18130;,
 -0.06660;0.00000;50.31580;,
 -24.33660;0.00000;100.00000;,
 -0.06660;0.00000;100.00000;,
 -24.33660;0.00000;3.57360;,
 -24.33660;0.00000;25.14690;,
 -0.06660;0.00000;25.14690;,
 -0.06660;0.00000;3.57360;,
 -24.33660;0.00000;-44.96640;,
 -24.33660;0.00000;-21.59520;,
 -0.06660;0.00000;-21.59520;,
 -0.06660;0.00000;-44.96640;,
 -24.33660;0.00000;-95.30410;,
 -24.33660;0.00000;-72.83190;,
 -0.06660;0.00000;-72.83190;,
 -0.06660;0.00000;-95.30410;,
 23.30450;0.00000;50.31580;,
 23.30450;0.00000;78.18130;,
 23.30450;0.00000;100.00000;,
 23.30450;0.00000;3.57360;,
 23.30450;0.00000;25.14690;,
 23.30450;0.00000;-44.96640;,
 23.30450;0.00000;-21.59520;,
 23.30450;0.00000;-95.30410;,
 23.30450;0.00000;-72.83190;,
 -50.40430;0.00000;-122.04500;,
 -24.33660;0.00000;-122.04500;,
 -24.33660;0.00000;-151.03510;,
 -50.40430;0.00000;-151.03510;,
 -0.06660;0.00000;-122.04500;,
 -0.06660;0.00000;-151.03510;,
 23.30450;0.00000;-122.04500;,
 23.30450;0.00000;-151.03510;,
 49.37220;0.00000;-122.04500;,
 49.37220;0.00000;-151.03510;,
 -50.40430;0.00000;-177.77609;,
 -24.33660;0.00000;-177.77609;,
 -24.33660;0.00000;-203.17059;,
 -50.40430;0.00000;-203.17059;,
 -0.06660;0.00000;-177.77609;,
 -0.06660;0.00000;-203.17059;,
 23.30450;0.00000;-177.77609;,
 23.30450;0.00000;-203.17059;,
 49.37220;0.00000;-177.77609;,
 49.37220;0.00000;-203.17059;,
 -50.40430;0.00000;-225.41710;,
 -24.33660;0.00000;-225.41710;,
 -24.33660;0.00000;-251.71060;,
 -50.40430;0.00000;-251.71060;,
 -0.06660;0.00000;-225.41710;,
 -0.06660;0.00000;-251.71060;,
 23.30450;0.00000;-225.41710;,
 23.30450;0.00000;-251.71060;,
 49.37220;0.00000;-225.41710;,
 49.37220;0.00000;-251.71060;,
 -50.40430;0.00000;-274.85599;,
 -24.33660;0.00000;-274.85599;,
 -24.33660;0.00000;-297.55389;,
 -50.40430;0.00000;-297.55389;,
 -0.06660;0.00000;-274.85599;,
 -0.06660;0.00000;-297.55389;,
 23.30450;0.00000;-274.85599;,
 23.30450;0.00000;-297.55389;,
 49.37220;0.00000;-274.85599;,
 49.37220;0.00000;-297.55389;,
 -50.40430;0.00000;-326.09259;,
 -24.33660;0.00000;-326.09259;,
 -24.33660;0.00000;-350.58829;,
 -50.40430;0.00000;-350.58829;,
 -0.06660;0.00000;-326.09259;,
 -0.06660;0.00000;-350.58829;,
 23.30450;0.00000;-326.09259;,
 23.30450;0.00000;-350.58829;,
 49.37220;0.00000;-326.09259;,
 49.37220;0.00000;-350.58829;,
 -50.40430;0.00000;-375.53140;,
 -24.33660;0.00000;-375.53140;,
 -24.33660;0.00000;-407.41959;,
 -50.40430;0.00000;-407.41959;,
 -0.06660;0.00000;-375.53140;,
 -0.06660;0.00000;-407.41959;,
 23.30450;0.00000;-375.53140;,
 23.30450;0.00000;-407.41959;,
 49.37220;0.00000;-375.53140;,
 49.37220;0.00000;-407.41959;;
 
 168;
 4;0,1,2,3;,
 4;3,2,4,5;,
 4;5,4,6,7;,
 4;7,6,8,9;,
 4;9,8,10,11;,
 4;11,10,12,13;,
 4;13,12,14,15;,
 4;15,14,16,17;,
 4;17,16,18,19;,
 4;19,18,20,21;,
 4;21,20,22,23;,
 4;23,22,24,25;,
 4;25,24,26,27;,
 4;27,26,28,29;,
 4;29,28,30,31;,
 4;31,30,32,33;,
 4;33,32,34,35;,
 4;35,34,36,37;,
 4;38,37,36,39;,
 4;40,41,1,0;,
 4;42,43,44,45;,
 4;46,47,48,49;,
 4;50,51,38,39;,
 4;50,52,53,51;,
 4;54,55,41,40;,
 4;54,56,57,55;,
 4;58,59,53,52;,
 4;58,60,61,59;,
 4;62,63,57,56;,
 4;62,64,65,63;,
 4;66,67,61,60;,
 4;66,68,69,67;,
 4;70,71,65,64;,
 4;70,72,73,71;,
 4;74,75,69,68;,
 4;74,43,42,75;,
 4;76,77,73,72;,
 4;76,47,46,77;,
 4;78,79,80,81;,
 4;81,80,82,83;,
 4;83,82,84,85;,
 4;85,84,86,87;,
 4;87,86,88,89;,
 4;89,88,90,91;,
 4;91,90,92,93;,
 4;93,92,94,95;,
 4;95,94,96,97;,
 4;98,99,100,101;,
 4;101,100,102,103;,
 4;103,102,104,105;,
 4;105,104,106,107;,
 4;107,106,108,109;,
 4;109,108,110,111;,
 4;111,110,112,113;,
 4;113,112,114,115;,
 4;115,114,116,117;,
 4;118,119,120,121;,
 4;118,121,122,123;,
 4;121,120,124,125;,
 4;121,125,126,122;,
 4;125,124,127,128;,
 4;125,128,129,126;,
 4;128,127,130,131;,
 4;128,131,132,129;,
 4;131,130,133,134;,
 4;131,134,135,132;,
 4;134,133,136,137;,
 4;134,137,138,135;,
 4;137,136,139,140;,
 4;137,140,141,138;,
 4;140,139,142,143;,
 4;140,143,144,141;,
 4;145,146,147,148;,
 4;145,148,149,150;,
 4;148,147,151,152;,
 4;148,152,153,149;,
 4;154,155,156,157;,
 4;154,157,158,159;,
 4;157,156,146,145;,
 4;157,145,150,158;,
 4;160,161,162,163;,
 4;160,163,164,165;,
 4;163,162,155,154;,
 4;163,154,159,164;,
 4;166,167,168,169;,
 4;166,169,170,171;,
 4;169,168,161,160;,
 4;169,160,165,170;,
 4;172,124,120,173;,
 4;172,173,174,175;,
 4;173,120,119,176;,
 4;173,176,177,174;,
 4;178,130,127,179;,
 4;178,179,180,181;,
 4;179,127,124,172;,
 4;179,172,175,180;,
 4;182,136,133,183;,
 4;182,183,184,185;,
 4;183,133,130,178;,
 4;183,178,181,184;,
 4;186,142,139,187;,
 4;186,187,188,189;,
 4;187,139,136,182;,
 4;187,182,185,188;,
 4;190,175,174,191;,
 4;190,191,147,146;,
 4;191,174,177,192;,
 4;191,192,151,147;,
 4;193,181,180,194;,
 4;193,194,156,155;,
 4;194,180,175,190;,
 4;194,190,146,156;,
 4;195,185,184,196;,
 4;195,196,162,161;,
 4;196,184,181,193;,
 4;196,193,155,162;,
 4;197,189,188,198;,
 4;197,198,168,167;,
 4;198,188,185,195;,
 4;198,195,161,168;,
 4;199,142,186,200;,
 4;199,200,201,202;,
 4;200,186,189,203;,
 4;200,203,204,201;,
 4;203,189,197,205;,
 4;203,205,206,204;,
 4;205,197,167,207;,
 4;205,207,208,206;,
 4;209,202,201,210;,
 4;209,210,211,212;,
 4;210,201,204,213;,
 4;210,213,214,211;,
 4;213,204,206,215;,
 4;213,215,216,214;,
 4;215,206,208,217;,
 4;215,217,218,216;,
 4;219,212,211,220;,
 4;219,220,221,222;,
 4;220,211,214,223;,
 4;220,223,224,221;,
 4;223,214,216,225;,
 4;223,225,226,224;,
 4;225,216,218,227;,
 4;225,227,228,226;,
 4;229,222,221,230;,
 4;229,230,231,232;,
 4;230,221,224,233;,
 4;230,233,234,231;,
 4;233,224,226,235;,
 4;233,235,236,234;,
 4;235,226,228,237;,
 4;235,237,238,236;,
 4;239,232,231,240;,
 4;239,240,241,242;,
 4;240,231,234,243;,
 4;240,243,244,241;,
 4;243,234,236,245;,
 4;243,245,246,244;,
 4;245,236,238,247;,
 4;245,247,248,246;,
 4;249,242,241,250;,
 4;249,250,251,252;,
 4;250,241,244,253;,
 4;250,253,254,251;,
 4;253,244,246,255;,
 4;253,255,256,254;,
 4;255,246,248,257;,
 4;255,257,258,256;;
 
 MeshMaterialList {
  1;
  168;
  0,
  0,
  0,
  0,
  0,
  0,
  0,
  0,
  0,
  0,
  0,
  0,
  0,
  0,
  0,
  0,
  0,
  0,
  0,
  0,
  0,
  0,
  0,
  0,
  0,
  0,
  0,
  0,
  0,
  0,
  0,
  0,
  0,
  0,
  0,
  0,
  0,
  0,
  0,
  0,
  0,
  0,
  0,
  0,
  0,
  0,
  0,
  0,
  0,
  0,
  0,
  0,
  0,
  0,
  0,
  0,
  0,
  0,
  0,
  0,
  0,
  0,
  0,
  0,
  0,
  0,
  0,
  0,
  0,
  0,
  0,
  0,
  0,
  0,
  0,
  0,
  0,
  0,
  0,
  0,
  0,
  0,
  0,
  0,
  0,
  0,
  0,
  0,
  0,
  0,
  0,
  0,
  0,
  0,
  0,
  0,
  0,
  0,
  0,
  0,
  0,
  0,
  0,
  0,
  0,
  0,
  0,
  0,
  0,
  0,
  0,
  0,
  0,
  0,
  0,
  0,
  0,
  0,
  0,
  0,
  0,
  0,
  0,
  0,
  0,
  0,
  0,
  0,
  0,
  0,
  0,
  0,
  0,
  0,
  0,
  0,
  0,
  0,
  0,
  0,
  0,
  0,
  0,
  0,
  0,
  0,
  0,
  0,
  0,
  0,
  0,
  0,
  0,
  0,
  0,
  0,
  0,
  0,
  0,
  0,
  0,
  0,
  0,
  0,
  0,
  0,
  0,
  0;;
  Material {
   1.000000;1.000000;1.000000;1.000000;;
   0.000000;
   0.000000;0.000000;0.000000;;
   0.000000;0.000000;0.000000;;
  }
 }
 MeshNormals {
  60;
  -0.309018;0.000000;0.951056;,
  -0.587786;0.000000;0.809017;,
  -0.809017;0.000000;0.587786;,
  -0.951056;0.000000;0.309018;,
  -1.000000;0.000000;0.000000;,
  -0.951056;0.000000;-0.309018;,
  -0.809017;0.000000;-0.587786;,
  -0.587786;0.000000;-0.809017;,
  -0.309018;0.000000;-0.951056;,
  0.000000;0.000000;-1.000000;,
  0.309017;0.000000;-0.951056;,
  0.587785;0.000000;-0.809017;,
  0.809018;0.000000;-0.587784;,
  0.951057;0.000000;-0.309016;,
  1.000000;0.000000;0.000000;,
  0.951056;0.000000;0.309018;,
  0.809016;0.000000;0.587787;,
  0.587783;0.000000;0.809018;,
  0.309016;0.000000;0.951057;,
  0.156434;0.000000;0.987688;,
  -0.156435;0.000000;0.987688;,
  0.923277;0.000000;0.384136;,
  -0.925198;0.000000;0.379486;,
  0.999760;0.000000;-0.021895;,
  -0.999791;0.000000;-0.020430;,
  1.000000;0.000000;-0.000507;,
  -0.999999;0.000000;0.001054;,
  0.999994;0.000000;0.003349;,
  -0.999988;0.000000;0.004935;,
  0.999490;0.000000;-0.031938;,
  -0.999533;0.000000;-0.030546;,
  0.971061;0.000000;-0.238830;,
  -0.971105;0.000000;-0.238654;,
  0.999910;0.000000;-0.013402;,
  -0.999947;0.000000;-0.010333;,
  0.999883;0.000000;0.015270;,
  -0.999832;0.000000;0.018341;,
  0.999958;0.000000;-0.009157;,
  -0.999982;0.000000;-0.005981;,
  0.000000;0.000000;1.000000;,
  -0.309017;0.000000;0.951057;,
  -0.587787;0.000000;0.809016;,
  -0.809018;0.000000;0.587784;,
  -0.951056;0.000000;0.309017;,
  -1.000000;0.000000;-0.000001;,
  -0.951057;0.000000;-0.309016;,
  -0.809017;0.000000;-0.587785;,
  -0.586039;0.000000;-0.810283;,
  0.583332;0.000000;-0.812234;,
  0.809017;0.000000;-0.587785;,
  0.951057;0.000000;-0.309016;,
  0.951056;0.000000;0.309019;,
  0.809015;0.000000;0.587788;,
  0.587786;0.000000;0.809016;,
  0.309018;0.000000;0.951056;,
  1.000000;0.000000;-0.000631;,
  -0.999999;0.000000;0.001324;,
  -0.450147;0.000000;-0.892955;,
  0.444179;0.000000;-0.895938;,
  0.000000;1.000000;0.000000;;
  168;
  4;0,0,1,1;,
  4;1,1,2,2;,
  4;2,2,3,3;,
  4;3,3,4,4;,
  4;4,4,5,5;,
  4;5,5,6,6;,
  4;6,6,7,7;,
  4;7,7,8,8;,
  4;8,8,9,9;,
  4;9,9,10,10;,
  4;10,10,11,11;,
  4;11,11,12,12;,
  4;12,12,13,13;,
  4;13,13,14,14;,
  4;14,14,15,15;,
  4;15,15,16,16;,
  4;16,16,17,17;,
  4;17,17,18,18;,
  4;19,18,18,19;,
  4;20,20,0,0;,
  4;29,29,21,21;,
  4;30,30,22,22;,
  4;31,31,55,55;,
  4;31,23,23,31;,
  4;32,32,56,56;,
  4;32,24,24,32;,
  4;33,33,23,23;,
  4;33,25,25,33;,
  4;34,34,24,24;,
  4;34,26,26,34;,
  4;35,35,25,25;,
  4;35,27,27,35;,
  4;36,36,26,26;,
  4;36,28,28,36;,
  4;37,37,27,27;,
  4;37,29,29,37;,
  4;38,38,28,28;,
  4;38,30,30,38;,
  4;39,39,40,40;,
  4;40,40,41,41;,
  4;41,41,42,42;,
  4;42,42,43,43;,
  4;43,43,44,44;,
  4;44,44,45,45;,
  4;45,45,46,46;,
  4;46,46,47,47;,
  4;47,47,57,57;,
  4;58,58,48,48;,
  4;48,48,49,49;,
  4;49,49,50,50;,
  4;50,50,14,14;,
  4;14,14,51,51;,
  4;51,51,52,52;,
  4;52,52,53,53;,
  4;53,53,54,54;,
  4;54,54,39,39;,
  4;59,59,59,59;,
  4;59,59,59,59;,
  4;59,59,59,59;,
  4;59,59,59,59;,
  4;59,59,59,59;,
  4;59,59,59,59;,
  4;59,59,59,59;,
  4;59,59,59,59;,
  4;59,59,59,59;,
  4;59,59,59,59;,
  4;59,59,59,59;,
  4;59,59,59,59;,
  4;59,59,59,59;,
  4;59,59,59,59;,
  4;59,59,59,59;,
  4;59,59,59,59;,
  4;59,59,59,59;,
  4;59,59,59,59;,
  4;59,59,59,59;,
  4;59,59,59,59;,
  4;59,59,59,59;,
  4;59,59,59,59;,
  4;59,59,59,59;,
  4;59,59,59,59;,
  4;59,59,59,59;,
  4;59,59,59,59;,
  4;59,59,59,59;,
  4;59,59,59,59;,
  4;59,59,59,59;,
  4;59,59,59,59;,
  4;59,59,59,59;,
  4;59,59,59,59;,
  4;59,59,59,59;,
  4;59,59,59,59;,
  4;59,59,59,59;,
  4;59,59,59,59;,
  4;59,59,59,59;,
  4;59,59,59,59;,
  4;59,59,59,59;,
  4;59,59,59,59;,
  4;59,59,59,59;,
  4;59,59,59,59;,
  4;59,59,59,59;,
  4;59,59,59,59;,
  4;59,59,59,59;,
  4;59,59,59,59;,
  4;59,59,59,59;,
  4;59,59,59,59;,
  4;59,59,59,59;,
  4;59,59,59,59;,
  4;59,59,59,59;,
  4;59,59,59,59;,
  4;59,59,59,59;,
  4;59,59,59,59;,
  4;59,59,59,59;,
  4;59,59,59,59;,
  4;59,59,59,59;,
  4;59,59,59,59;,
  4;59,59,59,59;,
  4;59,59,59,59;,
  4;59,59,59,59;,
  4;59,59,59,59;,
  4;59,59,59,59;,
  4;59,59,59,59;,
  4;59,59,59,59;,
  4;59,59,59,59;,
  4;59,59,59,59;,
  4;59,59,59,59;,
  4;59,59,59,59;,
  4;59,59,59,59;,
  4;59,59,59,59;,
  4;59,59,59,59;,
  4;59,59,59,59;,
  4;59,59,59,59;,
  4;59,59,59,59;,
  4;59,59,59,59;,
  4;59,59,59,59;,
  4;59,59,59,59;,
  4;59,59,59,59;,
  4;59,59,59,59;,
  4;59,59,59,59;,
  4;59,59,59,59;,
  4;59,59,59,59;,
  4;59,59,59,59;,
  4;59,59,59,59;,
  4;59,59,59,59;,
  4;59,59,59,59;,
  4;59,59,59,59;,
  4;59,59,59,59;,
  4;59,59,59,59;,
  4;59,59,59,59;,
  4;59,59,59,59;,
  4;59,59,59,59;,
  4;59,59,59,59;,
  4;59,59,59,59;,
  4;59,59,59,59;,
  4;59,59,59,59;,
  4;59,59,59,59;,
  4;59,59,59,59;,
  4;59,59,59,59;,
  4;59,59,59,59;,
  4;59,59,59,59;,
  4;59,59,59,59;,
  4;59,59,59,59;,
  4;59,59,59,59;,
  4;59,59,59,59;,
  4;59,59,59,59;,
  4;59,59,59,59;,
  4;59,59,59,59;,
  4;59,59,59,59;,
  4;59,59,59,59;,
  4;59,59,59,59;;
 }
 MeshTextureCoords {
  259;
  0.050000;0.000000;,
  0.050000;1.000000;,
  0.100000;1.000000;,
  0.100000;0.000000;,
  0.150000;1.000000;,
  0.150000;0.000000;,
  0.200000;1.000000;,
  0.200000;0.000000;,
  0.250000;1.000000;,
  0.250000;0.000000;,
  0.300000;1.000000;,
  0.300000;0.000000;,
  0.350000;1.000000;,
  0.350000;0.000000;,
  0.400000;1.000000;,
  0.400000;0.000000;,
  0.450000;1.000000;,
  0.450000;0.000000;,
  0.500000;1.000000;,
  0.500000;0.000000;,
  0.550000;1.000000;,
  0.550000;0.000000;,
  0.600000;1.000000;,
  0.600000;0.000000;,
  0.650000;1.000000;,
  0.650000;0.000000;,
  0.700000;1.000000;,
  0.700000;0.000000;,
  0.750000;1.000000;,
  0.750000;0.000000;,
  0.800000;1.000000;,
  0.800000;0.000000;,
  0.850000;1.000000;,
  0.850000;0.000000;,
  0.900000;1.000000;,
  0.900000;0.000000;,
  0.950000;1.000000;,
  0.950000;0.000000;,
  0.977470;0.000000;,
  0.977470;1.000000;,
  0.023610;0.000000;,
  0.023610;1.000000;,
  0.986830;0.000000;,
  0.986830;1.000000;,
  0.988350;1.000000;,
  0.988350;0.000000;,
  0.013600;1.000000;,
  0.013600;0.000000;,
  0.011980;0.000000;,
  0.011980;1.000000;,
  0.977830;1.000000;,
  0.977830;0.000000;,
  0.979030;1.000000;,
  0.979030;0.000000;,
  0.023220;0.000000;,
  0.023220;1.000000;,
  0.021940;0.000000;,
  0.021940;1.000000;,
  0.980360;1.000000;,
  0.980360;0.000000;,
  0.981610;1.000000;,
  0.981610;0.000000;,
  0.020520;0.000000;,
  0.020520;1.000000;,
  0.019180;0.000000;,
  0.019180;1.000000;,
  0.982860;1.000000;,
  0.982860;0.000000;,
  0.984220;1.000000;,
  0.984220;0.000000;,
  0.017850;0.000000;,
  0.017850;1.000000;,
  0.016390;0.000000;,
  0.016390;1.000000;,
  0.985560;1.000000;,
  0.985560;0.000000;,
  0.014970;0.000000;,
  0.014970;1.000000;,
  0.000000;0.000000;,
  0.000000;1.000000;,
  0.050000;1.000000;,
  0.050000;0.000000;,
  0.100000;1.000000;,
  0.100000;0.000000;,
  0.150000;1.000000;,
  0.150000;0.000000;,
  0.200000;1.000000;,
  0.200000;0.000000;,
  0.250000;1.000000;,
  0.250000;0.000000;,
  0.300000;1.000000;,
  0.300000;0.000000;,
  0.350000;1.000000;,
  0.350000;0.000000;,
  0.400000;1.000000;,
  0.400000;0.000000;,
  0.450000;1.000000;,
  0.450000;0.000000;,
  0.550000;0.000000;,
  0.550000;1.000000;,
  0.600000;1.000000;,
  0.600000;0.000000;,
  0.650000;1.000000;,
  0.650000;0.000000;,
  0.700000;1.000000;,
  0.700000;0.000000;,
  0.750000;1.000000;,
  0.750000;0.000000;,
  0.800000;1.000000;,
  0.800000;0.000000;,
  0.850000;1.000000;,
  0.850000;0.000000;,
  0.900000;1.000000;,
  0.900000;0.000000;,
  0.950000;1.000000;,
  0.950000;0.000000;,
  1.000000;1.000000;,
  1.000000;0.000000;,
  0.126630;0.000000;,
  0.247980;0.000000;,
  0.247980;0.043000;,
  0.126630;0.043000;,
  0.000000;0.043000;,
  0.000000;0.000000;,
  0.247980;0.097920;,
  0.126630;0.097920;,
  0.000000;0.097920;,
  0.247980;0.147520;,
  0.126630;0.147520;,
  0.000000;0.147520;,
  0.247980;0.190030;,
  0.126630;0.190030;,
  0.000000;0.190030;,
  0.247980;0.239630;,
  0.126630;0.239630;,
  0.000000;0.239630;,
  0.247980;0.285690;,
  0.126630;0.285690;,
  0.000000;0.285690;,
  0.247980;0.340610;,
  0.126630;0.340610;,
  0.000000;0.340610;,
  0.247980;0.384900;,
  0.126630;0.384900;,
  0.000000;0.384900;,
  0.854730;0.097920;,
  0.746860;0.097920;,
  0.746860;0.043000;,
  0.854730;0.043000;,
  1.000000;0.043000;,
  1.000000;0.097920;,
  0.746860;0.000000;,
  0.854730;0.000000;,
  1.000000;0.000000;,
  0.854730;0.190030;,
  0.746860;0.190030;,
  0.746860;0.147520;,
  0.854730;0.147520;,
  1.000000;0.147520;,
  1.000000;0.190030;,
  0.854730;0.285690;,
  0.746860;0.285690;,
  0.746860;0.239630;,
  0.854730;0.239630;,
  1.000000;0.239630;,
  1.000000;0.285690;,
  0.854730;0.384900;,
  0.746860;0.384900;,
  0.746860;0.340610;,
  0.854730;0.340610;,
  1.000000;0.340610;,
  1.000000;0.384900;,
  0.378320;0.097920;,
  0.378320;0.043000;,
  0.499670;0.043000;,
  0.499670;0.097920;,
  0.378320;0.000000;,
  0.499670;0.000000;,
  0.378320;0.190030;,
  0.378320;0.147520;,
  0.499670;0.147520;,
  0.499670;0.190030;,
  0.378320;0.285690;,
  0.378320;0.239630;,
  0.499670;0.239630;,
  0.499670;0.285690;,
  0.378320;0.384900;,
  0.378320;0.340610;,
  0.499670;0.340610;,
  0.499670;0.384900;,
  0.616520;0.097920;,
  0.616520;0.043000;,
  0.616520;0.000000;,
  0.616520;0.190030;,
  0.616520;0.147520;,
  0.616520;0.285690;,
  0.616520;0.239630;,
  0.616520;0.384900;,
  0.616520;0.340610;,
  0.247980;0.437600;,
  0.378320;0.437600;,
  0.378320;0.494730;,
  0.247980;0.494730;,
  0.499670;0.437600;,
  0.499670;0.494730;,
  0.616520;0.437600;,
  0.616520;0.494730;,
  0.746860;0.437600;,
  0.746860;0.494730;,
  0.247980;0.547430;,
  0.378320;0.547430;,
  0.378320;0.597480;,
  0.247980;0.597480;,
  0.499670;0.547430;,
  0.499670;0.597480;,
  0.616520;0.547430;,
  0.616520;0.597480;,
  0.746860;0.547430;,
  0.746860;0.597480;,
  0.247980;0.641320;,
  0.378320;0.641320;,
  0.378320;0.693140;,
  0.247980;0.693140;,
  0.499670;0.641320;,
  0.499670;0.693140;,
  0.616520;0.641320;,
  0.616520;0.693140;,
  0.746860;0.641320;,
  0.746860;0.693140;,
  0.247980;0.738750;,
  0.378320;0.738750;,
  0.378320;0.783480;,
  0.247980;0.783480;,
  0.499670;0.738750;,
  0.499670;0.783480;,
  0.616520;0.738750;,
  0.616520;0.783480;,
  0.746860;0.738750;,
  0.746860;0.783480;,
  0.247980;0.839720;,
  0.378320;0.839720;,
  0.378320;0.888000;,
  0.247980;0.888000;,
  0.499670;0.839720;,
  0.499670;0.888000;,
  0.616520;0.839720;,
  0.616520;0.888000;,
  0.746860;0.839720;,
  0.746860;0.888000;,
  0.247980;0.937160;,
  0.378320;0.937160;,
  0.378320;1.000000;,
  0.247980;1.000000;,
  0.499670;0.937160;,
  0.499670;1.000000;,
  0.616520;0.937160;,
  0.616520;1.000000;,
  0.746860;0.937160;,
  0.746860;1.000000;;
 }
 MeshVertexColors {
  259;
  0;1.000000;1.000000;1.000000;1.000000;,
  1;1.000000;1.000000;1.000000;1.000000;,
  2;1.000000;1.000000;1.000000;1.000000;,
  3;1.000000;1.000000;1.000000;1.000000;,
  4;1.000000;1.000000;1.000000;1.000000;,
  5;1.000000;1.000000;1.000000;1.000000;,
  6;1.000000;1.000000;1.000000;1.000000;,
  7;1.000000;1.000000;1.000000;1.000000;,
  8;1.000000;1.000000;1.000000;1.000000;,
  9;1.000000;1.000000;1.000000;1.000000;,
  10;1.000000;1.000000;1.000000;1.000000;,
  11;1.000000;1.000000;1.000000;1.000000;,
  12;1.000000;1.000000;1.000000;1.000000;,
  13;1.000000;1.000000;1.000000;1.000000;,
  14;1.000000;1.000000;1.000000;1.000000;,
  15;1.000000;1.000000;1.000000;1.000000;,
  16;1.000000;1.000000;1.000000;1.000000;,
  17;1.000000;1.000000;1.000000;1.000000;,
  18;1.000000;1.000000;1.000000;1.000000;,
  19;1.000000;1.000000;1.000000;1.000000;,
  20;1.000000;1.000000;1.000000;1.000000;,
  21;1.000000;1.000000;1.000000;1.000000;,
  22;1.000000;1.000000;1.000000;1.000000;,
  23;1.000000;1.000000;1.000000;1.000000;,
  24;1.000000;1.000000;1.000000;1.000000;,
  25;1.000000;1.000000;1.000000;1.000000;,
  26;1.000000;1.000000;1.000000;1.000000;,
  27;1.000000;1.000000;1.000000;1.000000;,
  28;1.000000;1.000000;1.000000;1.000000;,
  29;1.000000;1.000000;1.000000;1.000000;,
  30;1.000000;1.000000;1.000000;1.000000;,
  31;1.000000;1.000000;1.000000;1.000000;,
  32;1.000000;1.000000;1.000000;1.000000;,
  33;1.000000;1.000000;1.000000;1.000000;,
  34;1.000000;1.000000;1.000000;1.000000;,
  35;1.000000;1.000000;1.000000;1.000000;,
  36;1.000000;1.000000;1.000000;1.000000;,
  37;1.000000;1.000000;1.000000;1.000000;,
  38;1.000000;1.000000;1.000000;1.000000;,
  39;1.000000;1.000000;1.000000;1.000000;,
  40;1.000000;1.000000;1.000000;1.000000;,
  41;1.000000;1.000000;1.000000;1.000000;,
  42;1.000000;1.000000;1.000000;1.000000;,
  43;1.000000;1.000000;1.000000;1.000000;,
  44;1.000000;1.000000;1.000000;1.000000;,
  45;1.000000;1.000000;1.000000;1.000000;,
  46;1.000000;1.000000;1.000000;1.000000;,
  47;1.000000;1.000000;1.000000;1.000000;,
  48;1.000000;1.000000;1.000000;1.000000;,
  49;1.000000;1.000000;1.000000;1.000000;,
  50;1.000000;1.000000;1.000000;1.000000;,
  51;1.000000;1.000000;1.000000;1.000000;,
  52;1.000000;1.000000;1.000000;1.000000;,
  53;1.000000;1.000000;1.000000;1.000000;,
  54;1.000000;1.000000;1.000000;1.000000;,
  55;1.000000;1.000000;1.000000;1.000000;,
  56;1.000000;1.000000;1.000000;1.000000;,
  57;1.000000;1.000000;1.000000;1.000000;,
  58;1.000000;1.000000;1.000000;1.000000;,
  59;1.000000;1.000000;1.000000;1.000000;,
  60;1.000000;1.000000;1.000000;1.000000;,
  61;1.000000;1.000000;1.000000;1.000000;,
  62;1.000000;1.000000;1.000000;1.000000;,
  63;1.000000;1.000000;1.000000;1.000000;,
  64;1.000000;1.000000;1.000000;1.000000;,
  65;1.000000;1.000000;1.000000;1.000000;,
  66;1.000000;1.000000;1.000000;1.000000;,
  67;1.000000;1.000000;1.000000;1.000000;,
  68;1.000000;1.000000;1.000000;1.000000;,
  69;1.000000;1.000000;1.000000;1.000000;,
  70;1.000000;1.000000;1.000000;1.000000;,
  71;1.000000;1.000000;1.000000;1.000000;,
  72;1.000000;1.000000;1.000000;1.000000;,
  73;1.000000;1.000000;1.000000;1.000000;,
  74;1.000000;1.000000;1.000000;1.000000;,
  75;1.000000;1.000000;1.000000;1.000000;,
  76;1.000000;1.000000;1.000000;1.000000;,
  77;1.000000;1.000000;1.000000;1.000000;,
  78;1.000000;1.000000;1.000000;1.000000;,
  79;1.000000;1.000000;1.000000;1.000000;,
  80;1.000000;1.000000;1.000000;1.000000;,
  81;1.000000;1.000000;1.000000;1.000000;,
  82;1.000000;1.000000;1.000000;1.000000;,
  83;1.000000;1.000000;1.000000;1.000000;,
  84;1.000000;1.000000;1.000000;1.000000;,
  85;1.000000;1.000000;1.000000;1.000000;,
  86;1.000000;1.000000;1.000000;1.000000;,
  87;1.000000;1.000000;1.000000;1.000000;,
  88;1.000000;1.000000;1.000000;1.000000;,
  89;1.000000;1.000000;1.000000;1.000000;,
  90;1.000000;1.000000;1.000000;1.000000;,
  91;1.000000;1.000000;1.000000;1.000000;,
  92;1.000000;1.000000;1.000000;1.000000;,
  93;1.000000;1.000000;1.000000;1.000000;,
  94;1.000000;1.000000;1.000000;1.000000;,
  95;1.000000;1.000000;1.000000;1.000000;,
  96;1.000000;1.000000;1.000000;1.000000;,
  97;1.000000;1.000000;1.000000;1.000000;,
  98;1.000000;1.000000;1.000000;1.000000;,
  99;1.000000;1.000000;1.000000;1.000000;,
  100;1.000000;1.000000;1.000000;1.000000;,
  101;1.000000;1.000000;1.000000;1.000000;,
  102;1.000000;1.000000;1.000000;1.000000;,
  103;1.000000;1.000000;1.000000;1.000000;,
  104;1.000000;1.000000;1.000000;1.000000;,
  105;1.000000;1.000000;1.000000;1.000000;,
  106;1.000000;1.000000;1.000000;1.000000;,
  107;1.000000;1.000000;1.000000;1.000000;,
  108;1.000000;1.000000;1.000000;1.000000;,
  109;1.000000;1.000000;1.000000;1.000000;,
  110;1.000000;1.000000;1.000000;1.000000;,
  111;1.000000;1.000000;1.000000;1.000000;,
  112;1.000000;1.000000;1.000000;1.000000;,
  113;1.000000;1.000000;1.000000;1.000000;,
  114;1.000000;1.000000;1.000000;1.000000;,
  115;1.000000;1.000000;1.000000;1.000000;,
  116;1.000000;1.000000;1.000000;1.000000;,
  117;1.000000;1.000000;1.000000;1.000000;,
  118;1.000000;1.000000;1.000000;1.000000;,
  119;1.000000;1.000000;1.000000;1.000000;,
  120;1.000000;1.000000;1.000000;1.000000;,
  121;1.000000;1.000000;1.000000;1.000000;,
  122;1.000000;1.000000;1.000000;1.000000;,
  123;1.000000;1.000000;1.000000;1.000000;,
  124;1.000000;1.000000;1.000000;1.000000;,
  125;1.000000;1.000000;1.000000;1.000000;,
  126;1.000000;1.000000;1.000000;1.000000;,
  127;1.000000;1.000000;1.000000;1.000000;,
  128;1.000000;1.000000;1.000000;1.000000;,
  129;1.000000;1.000000;1.000000;1.000000;,
  130;1.000000;1.000000;1.000000;1.000000;,
  131;1.000000;1.000000;1.000000;1.000000;,
  132;1.000000;1.000000;1.000000;1.000000;,
  133;1.000000;1.000000;1.000000;1.000000;,
  134;1.000000;1.000000;1.000000;1.000000;,
  135;1.000000;1.000000;1.000000;1.000000;,
  136;1.000000;1.000000;1.000000;1.000000;,
  137;1.000000;1.000000;1.000000;1.000000;,
  138;1.000000;1.000000;1.000000;1.000000;,
  139;1.000000;1.000000;1.000000;1.000000;,
  140;1.000000;1.000000;1.000000;1.000000;,
  141;1.000000;1.000000;1.000000;1.000000;,
  142;1.000000;1.000000;1.000000;1.000000;,
  143;1.000000;1.000000;1.000000;1.000000;,
  144;1.000000;1.000000;1.000000;1.000000;,
  145;1.000000;1.000000;1.000000;1.000000;,
  146;1.000000;1.000000;1.000000;1.000000;,
  147;1.000000;1.000000;1.000000;1.000000;,
  148;1.000000;1.000000;1.000000;1.000000;,
  149;1.000000;1.000000;1.000000;1.000000;,
  150;1.000000;1.000000;1.000000;1.000000;,
  151;1.000000;1.000000;1.000000;1.000000;,
  152;1.000000;1.000000;1.000000;1.000000;,
  153;1.000000;1.000000;1.000000;1.000000;,
  154;1.000000;1.000000;1.000000;1.000000;,
  155;1.000000;1.000000;1.000000;1.000000;,
  156;1.000000;1.000000;1.000000;1.000000;,
  157;1.000000;1.000000;1.000000;1.000000;,
  158;1.000000;1.000000;1.000000;1.000000;,
  159;1.000000;1.000000;1.000000;1.000000;,
  160;1.000000;1.000000;1.000000;1.000000;,
  161;1.000000;1.000000;1.000000;1.000000;,
  162;1.000000;1.000000;1.000000;1.000000;,
  163;1.000000;1.000000;1.000000;1.000000;,
  164;1.000000;1.000000;1.000000;1.000000;,
  165;1.000000;1.000000;1.000000;1.000000;,
  166;1.000000;1.000000;1.000000;1.000000;,
  167;1.000000;1.000000;1.000000;1.000000;,
  168;1.000000;1.000000;1.000000;1.000000;,
  169;1.000000;1.000000;1.000000;1.000000;,
  170;1.000000;1.000000;1.000000;1.000000;,
  171;1.000000;1.000000;1.000000;1.000000;,
  172;1.000000;1.000000;1.000000;1.000000;,
  173;1.000000;1.000000;1.000000;1.000000;,
  174;1.000000;1.000000;1.000000;1.000000;,
  175;1.000000;1.000000;1.000000;1.000000;,
  176;1.000000;1.000000;1.000000;1.000000;,
  177;1.000000;1.000000;1.000000;1.000000;,
  178;1.000000;1.000000;1.000000;1.000000;,
  179;1.000000;1.000000;1.000000;1.000000;,
  180;1.000000;1.000000;1.000000;1.000000;,
  181;1.000000;1.000000;1.000000;1.000000;,
  182;1.000000;1.000000;1.000000;1.000000;,
  183;1.000000;1.000000;1.000000;1.000000;,
  184;1.000000;1.000000;1.000000;1.000000;,
  185;1.000000;1.000000;1.000000;1.000000;,
  186;1.000000;1.000000;1.000000;1.000000;,
  187;1.000000;1.000000;1.000000;1.000000;,
  188;1.000000;1.000000;1.000000;1.000000;,
  189;1.000000;1.000000;1.000000;1.000000;,
  190;1.000000;1.000000;1.000000;1.000000;,
  191;1.000000;1.000000;1.000000;1.000000;,
  192;1.000000;1.000000;1.000000;1.000000;,
  193;1.000000;1.000000;1.000000;1.000000;,
  194;1.000000;1.000000;1.000000;1.000000;,
  195;1.000000;1.000000;1.000000;1.000000;,
  196;1.000000;1.000000;1.000000;1.000000;,
  197;1.000000;1.000000;1.000000;1.000000;,
  198;1.000000;1.000000;1.000000;1.000000;,
  199;1.000000;1.000000;1.000000;1.000000;,
  200;1.000000;1.000000;1.000000;1.000000;,
  201;1.000000;1.000000;1.000000;1.000000;,
  202;1.000000;1.000000;1.000000;1.000000;,
  203;1.000000;1.000000;1.000000;1.000000;,
  204;1.000000;1.000000;1.000000;1.000000;,
  205;1.000000;1.000000;1.000000;1.000000;,
  206;1.000000;1.000000;1.000000;1.000000;,
  207;1.000000;1.000000;1.000000;1.000000;,
  208;1.000000;1.000000;1.000000;1.000000;,
  209;1.000000;1.000000;1.000000;1.000000;,
  210;1.000000;1.000000;1.000000;1.000000;,
  211;1.000000;1.000000;1.000000;1.000000;,
  212;1.000000;1.000000;1.000000;1.000000;,
  213;1.000000;1.000000;1.000000;1.000000;,
  214;1.000000;1.000000;1.000000;1.000000;,
  215;1.000000;1.000000;1.000000;1.000000;,
  216;1.000000;1.000000;1.000000;1.000000;,
  217;1.000000;1.000000;1.000000;1.000000;,
  218;1.000000;1.000000;1.000000;1.000000;,
  219;1.000000;1.000000;1.000000;1.000000;,
  220;1.000000;1.000000;1.000000;1.000000;,
  221;1.000000;1.000000;1.000000;1.000000;,
  222;1.000000;1.000000;1.000000;1.000000;,
  223;1.000000;1.000000;1.000000;1.000000;,
  224;1.000000;1.000000;1.000000;1.000000;,
  225;1.000000;1.000000;1.000000;1.000000;,
  226;1.000000;1.000000;1.000000;1.000000;,
  227;1.000000;1.000000;1.000000;1.000000;,
  228;1.000000;1.000000;1.000000;1.000000;,
  229;1.000000;1.000000;1.000000;1.000000;,
  230;1.000000;1.000000;1.000000;1.000000;,
  231;1.000000;1.000000;1.000000;1.000000;,
  232;1.000000;1.000000;1.000000;1.000000;,
  233;1.000000;1.000000;1.000000;1.000000;,
  234;1.000000;1.000000;1.000000;1.000000;,
  235;1.000000;1.000000;1.000000;1.000000;,
  236;1.000000;1.000000;1.000000;1.000000;,
  237;1.000000;1.000000;1.000000;1.000000;,
  238;1.000000;1.000000;1.000000;1.000000;,
  239;1.000000;1.000000;1.000000;1.000000;,
  240;1.000000;1.000000;1.000000;1.000000;,
  241;1.000000;1.000000;1.000000;1.000000;,
  242;1.000000;1.000000;1.000000;1.000000;,
  243;1.000000;1.000000;1.000000;1.000000;,
  244;1.000000;1.000000;1.000000;1.000000;,
  245;1.000000;1.000000;1.000000;1.000000;,
  246;1.000000;1.000000;1.000000;1.000000;,
  247;1.000000;1.000000;1.000000;1.000000;,
  248;1.000000;1.000000;1.000000;1.000000;,
  249;1.000000;1.000000;1.000000;1.000000;,
  250;1.000000;1.000000;1.000000;1.000000;,
  251;1.000000;1.000000;1.000000;1.000000;,
  252;1.000000;1.000000;1.000000;1.000000;,
  253;1.000000;1.000000;1.000000;1.000000;,
  254;1.000000;1.000000;1.000000;1.000000;,
  255;1.000000;1.000000;1.000000;1.000000;,
  256;1.000000;1.000000;1.000000;1.000000;,
  257;1.000000;1.000000;1.000000;1.000000;,
  258;1.000000;1.000000;1.000000;1.000000;;
 }
}
