xof 0302txt 0064
template Header {
 <3D82AB43-62DA-11cf-AB39-0020AF71E433>
 WORD major;
 WORD minor;
 DWORD flags;
}

template Vector {
 <3D82AB5E-62DA-11cf-AB39-0020AF71E433>
 FLOAT x;
 FLOAT y;
 FLOAT z;
}

template Coords2d {
 <F6F23F44-7686-11cf-8F52-0040333594A3>
 FLOAT u;
 FLOAT v;
}

template Matrix4x4 {
 <F6F23F45-7686-11cf-8F52-0040333594A3>
 array FLOAT matrix[16];
}

template ColorRGBA {
 <35FF44E0-6C7C-11cf-8F52-0040333594A3>
 FLOAT red;
 FLOAT green;
 FLOAT blue;
 FLOAT alpha;
}

template ColorRGB {
 <D3E16E81-7835-11cf-8F52-0040333594A3>
 FLOAT red;
 FLOAT green;
 FLOAT blue;
}

template IndexedColor {
 <1630B820-7842-11cf-8F52-0040333594A3>
 DWORD index;
 ColorRGBA indexColor;
}

template Boolean {
 <4885AE61-78E8-11cf-8F52-0040333594A3>
 WORD truefalse;
}

template Boolean2d {
 <4885AE63-78E8-11cf-8F52-0040333594A3>
 Boolean u;
 Boolean v;
}

template MaterialWrap {
 <4885AE60-78E8-11cf-8F52-0040333594A3>
 Boolean u;
 Boolean v;
}

template TextureFilename {
 <A42790E1-7810-11cf-8F52-0040333594A3>
 STRING filename;
}

template Material {
 <3D82AB4D-62DA-11cf-AB39-0020AF71E433>
 ColorRGBA faceColor;
 FLOAT power;
 ColorRGB specularColor;
 ColorRGB emissiveColor;
 [...]
}

template MeshFace {
 <3D82AB5F-62DA-11cf-AB39-0020AF71E433>
 DWORD nFaceVertexIndices;
 array DWORD faceVertexIndices[nFaceVertexIndices];
}

template MeshFaceWraps {
 <4885AE62-78E8-11cf-8F52-0040333594A3>
 DWORD nFaceWrapValues;
 Boolean2d faceWrapValues;
}

template MeshTextureCoords {
 <F6F23F40-7686-11cf-8F52-0040333594A3>
 DWORD nTextureCoords;
 array Coords2d textureCoords[nTextureCoords];
}

template MeshMaterialList {
 <F6F23F42-7686-11cf-8F52-0040333594A3>
 DWORD nMaterials;
 DWORD nFaceIndexes;
 array DWORD faceIndexes[nFaceIndexes];
 [Material]
}

template MeshNormals {
 <F6F23F43-7686-11cf-8F52-0040333594A3>
 DWORD nNormals;
 array Vector normals[nNormals];
 DWORD nFaceNormals;
 array MeshFace faceNormals[nFaceNormals];
}

template MeshVertexColors {
 <1630B821-7842-11cf-8F52-0040333594A3>
 DWORD nVertexColors;
 array IndexedColor vertexColors[nVertexColors];
}

template Mesh {
 <3D82AB44-62DA-11cf-AB39-0020AF71E433>
 DWORD nVertices;
 array Vector vertices[nVertices];
 DWORD nFaces;
 array MeshFace faces[nFaces];
 [...]
}

Header{
1;
0;
1;
}

Mesh {
 671;
 -3.54995;3.59531;-0.59812;,
 -3.07476;3.48561;-0.59812;,
 -3.18447;3.01042;-0.59812;,
 -3.65966;3.12012;-0.59812;,
 -3.07476;3.48561;0.19812;,
 -3.54995;3.59531;0.19812;,
 -3.65966;3.12012;0.19812;,
 -3.18447;3.01042;0.19812;,
 -3.54995;3.59531;0.19812;,
 -3.54995;3.59531;-0.59812;,
 -3.65966;3.12012;-0.59812;,
 -3.65966;3.12012;0.19812;,
 -3.07476;3.48561;0.19812;,
 -3.07476;3.48561;-0.59812;,
 -3.54995;3.59531;-0.59812;,
 -3.65966;3.12012;-0.59812;,
 -3.18447;3.01042;-0.59812;,
 -3.18447;3.01042;0.19812;,
 -3.07476;3.48561;-0.59812;,
 -2.59958;3.37591;-0.59812;,
 -2.70928;2.90071;-0.59812;,
 -3.18447;3.01042;-0.59812;,
 -2.59958;3.37591;0.19812;,
 -2.70928;2.90071;0.19812;,
 -2.59958;3.37591;0.19812;,
 -2.59958;3.37591;-0.59812;,
 -3.07476;3.48561;-0.59812;,
 -3.18447;3.01042;-0.59812;,
 -2.70928;2.90071;-0.59812;,
 -2.70928;2.90071;0.19812;,
 -2.59958;3.37591;-0.59812;,
 -2.12439;3.26620;-0.59812;,
 -2.23410;2.79101;-0.59812;,
 -2.70928;2.90071;-0.59812;,
 -2.12439;3.26620;0.19812;,
 -2.23410;2.79101;0.19812;,
 -2.12439;3.26620;0.19812;,
 -2.12439;3.26620;-0.59812;,
 -2.59958;3.37591;-0.59812;,
 -2.70928;2.90071;-0.59812;,
 -2.23410;2.79101;-0.59812;,
 -2.23410;2.79101;0.19812;,
 -2.12439;3.26620;-0.59812;,
 -1.64921;3.15650;-0.59812;,
 -1.75892;2.68130;-0.59812;,
 -2.23410;2.79101;-0.59812;,
 -1.64921;3.15650;0.19812;,
 -1.75892;2.68130;0.19812;,
 -1.64921;3.15650;0.19812;,
 -1.64921;3.15650;-0.59812;,
 -2.12439;3.26620;-0.59812;,
 -2.23410;2.79101;-0.59812;,
 -1.75892;2.68130;-0.59812;,
 -1.75892;2.68130;0.19812;,
 -1.64921;3.15650;-0.59812;,
 -1.17403;3.04679;-0.59812;,
 -1.28373;2.57160;-0.59812;,
 -1.75892;2.68130;-0.59812;,
 -1.17403;3.04679;0.19812;,
 -1.28373;2.57160;0.19812;,
 -1.17403;3.04679;-0.59812;,
 -0.69883;2.93708;-0.59812;,
 -0.80854;2.46189;-0.59812;,
 -1.28373;2.57160;-0.59812;,
 -0.69883;2.93708;0.19812;,
 -1.17403;3.04679;0.19812;,
 -1.28373;2.57160;0.19812;,
 -0.80854;2.46189;0.19812;,
 -0.69883;2.93708;0.19812;,
 -0.69883;2.93708;-0.59812;,
 -1.17403;3.04679;-0.59812;,
 -1.28373;2.57160;-0.59812;,
 -0.80854;2.46189;-0.59812;,
 -0.80854;2.46189;0.19812;,
 -0.69883;2.93708;-0.59812;,
 -0.22365;2.82738;-0.59812;,
 -0.33336;2.35218;-0.59812;,
 -0.80854;2.46189;-0.59812;,
 -0.22365;2.82738;0.19812;,
 -0.33336;2.35218;0.19812;,
 -0.22365;2.82738;0.19812;,
 -0.22365;2.82738;-0.59812;,
 -0.69883;2.93708;-0.59812;,
 -0.80854;2.46189;-0.59812;,
 -0.33336;2.35218;-0.59812;,
 -0.33336;2.35218;0.19812;,
 -0.22365;2.82738;-0.59812;,
 0.25153;2.71767;-0.59812;,
 0.14183;2.24249;-0.59812;,
 -0.33336;2.35218;-0.59812;,
 0.25153;2.71767;0.19812;,
 0.14183;2.24249;0.19812;,
 0.25153;2.71767;0.19812;,
 0.25153;2.71767;-0.59812;,
 -0.22365;2.82738;-0.59812;,
 -0.33336;2.35218;-0.59812;,
 0.14183;2.24249;-0.59812;,
 0.14183;2.24249;0.19812;,
 0.25153;2.71767;-0.59812;,
 0.72673;2.60797;-0.59812;,
 0.61702;2.13278;-0.59812;,
 0.14183;2.24249;-0.59812;,
 0.72673;2.60797;-0.59812;,
 0.72673;2.60797;0.19812;,
 0.61702;2.13278;0.19812;,
 0.61702;2.13278;-0.59812;,
 0.72673;2.60797;0.19812;,
 0.61702;2.13278;0.19812;,
 0.72673;2.60797;-0.59812;,
 0.25153;2.71767;-0.59812;,
 0.14183;2.24249;-0.59812;,
 0.61702;2.13278;-0.59812;,
 -1.53950;3.63168;-0.59812;,
 -1.06432;3.52197;-0.59812;,
 -1.17403;3.04679;-0.59812;,
 -1.64921;3.15650;-0.59812;,
 -1.06432;3.52197;-0.59812;,
 -1.06432;3.52197;0.19812;,
 -1.17403;3.04679;0.19812;,
 -1.06432;3.52197;0.19812;,
 -1.53950;3.63168;0.19812;,
 -1.64921;3.15650;0.19812;,
 -1.17403;3.04679;0.19812;,
 -1.53950;3.63168;0.19812;,
 -1.53950;3.63168;-0.59812;,
 -1.64921;3.15650;0.19812;,
 -1.42980;4.10686;-0.59812;,
 -0.95462;3.99716;-0.59812;,
 -1.06432;3.52197;-0.59812;,
 -1.53950;3.63168;-0.59812;,
 -0.95462;3.99716;-0.59812;,
 -0.95462;3.99716;0.19812;,
 -1.06432;3.52197;0.19812;,
 -1.06432;3.52197;-0.59812;,
 -0.95462;3.99716;0.19812;,
 -1.42980;4.10686;0.19812;,
 -1.53950;3.63168;0.19812;,
 -1.06432;3.52197;0.19812;,
 -1.42980;4.10686;0.19812;,
 -1.42980;4.10686;-0.59812;,
 -1.53950;3.63168;-0.59812;,
 -1.53950;3.63168;0.19812;,
 -1.32009;4.58205;-0.59812;,
 -0.84491;4.47234;-0.59812;,
 -0.95462;3.99716;-0.59812;,
 -1.42980;4.10686;-0.59812;,
 -0.84491;4.47234;-0.59812;,
 -0.84491;4.47234;0.19812;,
 -0.95462;3.99716;0.19812;,
 -0.95462;3.99716;-0.59812;,
 -0.84491;4.47234;0.19812;,
 -1.32009;4.58205;0.19812;,
 -1.42980;4.10686;0.19812;,
 -0.95462;3.99716;0.19812;,
 -1.32009;4.58205;0.19812;,
 -1.32009;4.58205;-0.59812;,
 -1.42980;4.10686;-0.59812;,
 -1.42980;4.10686;0.19812;,
 -0.84491;4.47234;-0.59812;,
 -1.32009;4.58205;-0.59812;,
 -1.75892;2.68130;-0.59812;,
 -1.28373;2.57160;-0.59812;,
 -1.39343;2.09641;-0.59812;,
 -1.86862;2.20612;-0.59812;,
 -1.28373;2.57160;0.19812;,
 -1.39343;2.09641;0.19812;,
 -1.39343;2.09641;-0.59812;,
 -1.28373;2.57160;0.19812;,
 -1.75892;2.68130;0.19812;,
 -1.86862;2.20612;0.19812;,
 -1.39343;2.09641;0.19812;,
 -1.75892;2.68130;0.19812;,
 -1.86862;2.20612;-0.59812;,
 -1.86862;2.20612;0.19812;,
 -1.86862;2.20612;-0.59812;,
 -1.39343;2.09641;-0.59812;,
 -1.50315;1.62123;-0.59812;,
 -1.97833;1.73094;-0.59812;,
 -1.39343;2.09641;-0.59812;,
 -1.39343;2.09641;0.19812;,
 -1.50315;1.62123;0.19812;,
 -1.50315;1.62123;-0.59812;,
 -1.39343;2.09641;0.19812;,
 -1.86862;2.20612;0.19812;,
 -1.97833;1.73094;0.19812;,
 -1.50315;1.62123;0.19812;,
 -1.86862;2.20612;0.19812;,
 -1.86862;2.20612;-0.59812;,
 -1.97833;1.73094;-0.59812;,
 -1.97833;1.73094;0.19812;,
 -1.97833;1.73094;-0.59812;,
 -1.50315;1.62123;-0.59812;,
 -1.61284;1.14604;-0.59812;,
 -2.08803;1.25575;-0.59812;,
 -1.50315;1.62123;-0.59812;,
 -1.50315;1.62123;0.19812;,
 -1.61284;1.14604;0.19812;,
 -1.61284;1.14604;-0.59812;,
 -1.50315;1.62123;0.19812;,
 -1.97833;1.73094;0.19812;,
 -2.08803;1.25575;0.19812;,
 -1.61284;1.14604;0.19812;,
 -1.97833;1.73094;0.19812;,
 -1.97833;1.73094;-0.59812;,
 -2.08803;1.25575;-0.59812;,
 -2.08803;1.25575;0.19812;,
 -2.08803;1.25575;-0.59812;,
 -1.61284;1.14604;-0.59812;,
 -1.72255;0.67085;-0.59812;,
 -2.19774;0.78056;-0.59812;,
 -1.61284;1.14604;-0.59812;,
 -1.61284;1.14604;0.19812;,
 -1.72255;0.67085;0.19812;,
 -1.72255;0.67085;-0.59812;,
 -1.61284;1.14604;0.19812;,
 -2.08803;1.25575;0.19812;,
 -2.19774;0.78056;0.19812;,
 -1.72255;0.67085;0.19812;,
 -2.08803;1.25575;0.19812;,
 -2.08803;1.25575;-0.59812;,
 -2.19774;0.78056;-0.59812;,
 -2.19774;0.78056;0.19812;,
 -2.19774;0.78056;-0.59812;,
 -1.72255;0.67085;-0.59812;,
 -1.83225;0.19567;-0.59812;,
 -2.30745;0.30538;-0.59812;,
 -1.72255;0.67085;-0.59812;,
 -1.72255;0.67085;0.19812;,
 -1.83225;0.19567;0.19812;,
 -1.83225;0.19567;-0.59812;,
 -1.72255;0.67085;0.19812;,
 -2.19774;0.78056;0.19812;,
 -2.30745;0.30538;0.19812;,
 -1.83225;0.19567;0.19812;,
 -2.19774;0.78056;0.19812;,
 -2.19774;0.78056;-0.59812;,
 -2.30745;0.30538;-0.59812;,
 -2.30745;0.30538;0.19812;,
 -2.30745;0.30538;-0.59812;,
 -1.83225;0.19567;-0.59812;,
 -1.94196;-0.27951;-0.59812;,
 -2.41715;-0.16981;-0.59812;,
 -1.83225;0.19567;-0.59812;,
 -1.83225;0.19567;0.19812;,
 -1.94196;-0.27951;0.19812;,
 -1.94196;-0.27951;-0.59812;,
 -1.83225;0.19567;0.19812;,
 -2.30745;0.30538;0.19812;,
 -2.41715;-0.16981;0.19812;,
 -1.94196;-0.27951;0.19812;,
 -2.30745;0.30538;0.19812;,
 -2.30745;0.30538;-0.59812;,
 -2.41715;-0.16981;-0.59812;,
 -2.41715;-0.16981;0.19812;,
 -2.41715;-0.16981;-0.59812;,
 -1.94196;-0.27951;-0.59812;,
 -2.05166;-0.75471;-0.59812;,
 -2.52686;-0.64500;-0.59812;,
 -1.94196;-0.27951;-0.59812;,
 -1.94196;-0.27951;0.19812;,
 -2.05166;-0.75471;0.19812;,
 -2.05166;-0.75471;-0.59812;,
 -1.94196;-0.27951;0.19812;,
 -2.41715;-0.16981;0.19812;,
 -2.52686;-0.64500;0.19812;,
 -2.05166;-0.75471;0.19812;,
 -2.41715;-0.16981;0.19812;,
 -2.41715;-0.16981;-0.59812;,
 -2.52686;-0.64500;-0.59812;,
 -2.52686;-0.64500;0.19812;,
 -2.52686;-0.64500;-0.59812;,
 -2.05166;-0.75471;-0.59812;,
 -2.16137;-1.22989;-0.59812;,
 -2.63655;-1.12018;-0.59812;,
 -2.05166;-0.75471;0.19812;,
 -2.52686;-0.64500;0.19812;,
 -2.63655;-1.12018;0.19812;,
 -2.16137;-1.22989;0.19812;,
 -2.52686;-0.64500;0.19812;,
 -2.52686;-0.64500;-0.59812;,
 -2.63655;-1.12018;-0.59812;,
 -2.63655;-1.12018;0.19812;,
 -2.63655;-1.12018;-0.59812;,
 -2.16137;-1.22989;-0.59812;,
 -2.16137;-1.22989;0.19812;,
 -2.05166;-0.75471;-0.59812;,
 -1.57648;-0.86441;-0.59812;,
 -1.68619;-1.33960;-0.59812;,
 -2.16137;-1.22989;-0.59812;,
 -1.57648;-0.86441;0.19812;,
 -2.05166;-0.75471;0.19812;,
 -1.68619;-1.33960;0.19812;,
 -1.57648;-0.86441;0.19812;,
 -1.57648;-0.86441;-0.59812;,
 -2.16137;-1.22989;-0.59812;,
 -1.68619;-1.33960;-0.59812;,
 -1.68619;-1.33960;0.19812;,
 -1.57648;-0.86441;-0.59812;,
 -1.10130;-0.97412;-0.59812;,
 -1.21100;-1.44930;-0.59812;,
 -1.68619;-1.33960;-0.59812;,
 -1.10130;-0.97412;0.19812;,
 -1.21100;-1.44930;0.19812;,
 -1.10130;-0.97412;0.19812;,
 -1.10130;-0.97412;-0.59812;,
 -1.57648;-0.86441;-0.59812;,
 -1.68619;-1.33960;-0.59812;,
 -1.21100;-1.44930;-0.59812;,
 -1.21100;-1.44930;0.19812;,
 -1.10130;-0.97412;-0.59812;,
 -0.62611;-1.08382;-0.59812;,
 -0.73582;-1.55901;-0.59812;,
 -1.21100;-1.44930;-0.59812;,
 -0.62611;-1.08382;0.19812;,
 -0.73582;-1.55901;0.19812;,
 -0.62611;-1.08382;0.19812;,
 -0.62611;-1.08382;-0.59812;,
 -1.10130;-0.97412;-0.59812;,
 -1.21100;-1.44930;-0.59812;,
 -0.73582;-1.55901;-0.59812;,
 -0.73582;-1.55901;0.19812;,
 -0.62611;-1.08382;-0.59812;,
 0.10510;-1.25042;-0.59812;,
 -0.00461;-1.72560;-0.59812;,
 -0.73582;-1.55901;-0.59812;,
 0.10510;-1.25042;0.19812;,
 -0.00461;-1.72560;0.19812;,
 0.10510;-1.25042;0.19812;,
 0.10510;-1.25042;-0.59812;,
 -0.62611;-1.08382;-0.59812;,
 -0.73582;-1.55901;-0.59812;,
 -0.00461;-1.72560;-0.59812;,
 -0.00461;-1.72560;0.19812;,
 0.10510;-1.25042;-0.59812;,
 0.58028;-1.36012;-0.59812;,
 0.47058;-1.83531;-0.59812;,
 -0.00461;-1.72560;-0.59812;,
 0.58028;-1.36012;0.19812;,
 0.47058;-1.83531;0.19812;,
 0.58028;-1.36012;-0.59812;,
 1.05547;-1.46982;-0.59812;,
 0.94576;-1.94501;-0.59812;,
 0.47058;-1.83531;-0.59812;,
 1.05547;-1.46982;0.19812;,
 0.58028;-1.36012;0.19812;,
 0.47058;-1.83531;0.19812;,
 0.94576;-1.94501;0.19812;,
 1.05547;-1.46982;0.19812;,
 1.05547;-1.46982;-0.59812;,
 0.58028;-1.36012;-0.59812;,
 0.47058;-1.83531;-0.59812;,
 0.94576;-1.94501;-0.59812;,
 0.94576;-1.94501;0.19812;,
 1.05547;-1.46982;-0.59812;,
 1.53066;-1.57953;-0.59812;,
 1.42095;-2.05472;-0.59812;,
 0.94576;-1.94501;-0.59812;,
 1.53066;-1.57953;0.19812;,
 1.42095;-2.05472;0.19812;,
 1.53066;-1.57953;0.19812;,
 1.53066;-1.57953;-0.59812;,
 1.05547;-1.46982;-0.59812;,
 0.94576;-1.94501;-0.59812;,
 1.42095;-2.05472;-0.59812;,
 1.42095;-2.05472;0.19812;,
 1.53066;-1.57953;-0.59812;,
 2.00584;-1.68923;-0.59812;,
 1.89614;-2.16443;-0.59812;,
 1.42095;-2.05472;-0.59812;,
 2.00584;-1.68923;0.19812;,
 1.89614;-2.16443;0.19812;,
 2.00584;-1.68923;0.19812;,
 2.00584;-1.68923;-0.59812;,
 1.53066;-1.57953;-0.59812;,
 1.42095;-2.05472;-0.59812;,
 1.89614;-2.16443;-0.59812;,
 1.89614;-2.16443;0.19812;,
 2.00584;-1.68923;-0.59812;,
 2.48102;-1.79894;-0.59812;,
 2.37132;-2.27413;-0.59812;,
 1.89614;-2.16443;-0.59812;,
 2.48102;-1.79894;0.19812;,
 2.37132;-2.27413;0.19812;,
 2.48102;-1.79894;0.19812;,
 2.48102;-1.79894;-0.59812;,
 2.00584;-1.68923;-0.59812;,
 1.89614;-2.16443;-0.59812;,
 2.37132;-2.27413;-0.59812;,
 2.37132;-2.27413;0.19812;,
 2.59073;-1.32376;-0.59812;,
 3.06592;-1.43346;-0.59812;,
 2.95622;-1.90864;-0.59812;,
 2.48102;-1.79894;-0.59812;,
 3.06592;-1.43346;-0.59812;,
 3.06592;-1.43346;0.19812;,
 2.95622;-1.90864;0.19812;,
 2.95622;-1.90864;-0.59812;,
 3.06592;-1.43346;0.19812;,
 2.59073;-1.32376;0.19812;,
 2.48102;-1.79894;0.19812;,
 2.95622;-1.90864;0.19812;,
 2.59073;-1.32376;0.19812;,
 2.59073;-1.32376;-0.59812;,
 2.48102;-1.79894;0.19812;,
 2.48102;-1.79894;-0.59812;,
 2.95622;-1.90864;-0.59812;,
 2.70044;-0.84857;-0.59812;,
 3.17563;-0.95828;-0.59812;,
 3.06592;-1.43346;-0.59812;,
 2.59073;-1.32376;-0.59812;,
 3.17563;-0.95828;-0.59812;,
 3.17563;-0.95828;0.19812;,
 3.06592;-1.43346;0.19812;,
 3.06592;-1.43346;-0.59812;,
 3.17563;-0.95828;0.19812;,
 2.70044;-0.84857;0.19812;,
 2.59073;-1.32376;0.19812;,
 3.06592;-1.43346;0.19812;,
 2.70044;-0.84857;0.19812;,
 2.70044;-0.84857;-0.59812;,
 2.59073;-1.32376;-0.59812;,
 2.59073;-1.32376;0.19812;,
 2.81014;-0.37339;-0.59812;,
 3.28534;-0.48309;-0.59812;,
 3.17563;-0.95828;-0.59812;,
 2.70044;-0.84857;-0.59812;,
 3.28534;-0.48309;-0.59812;,
 3.28534;-0.48309;0.19812;,
 3.17563;-0.95828;0.19812;,
 3.17563;-0.95828;-0.59812;,
 3.28534;-0.48309;0.19812;,
 2.81014;-0.37339;0.19812;,
 2.70044;-0.84857;0.19812;,
 3.17563;-0.95828;0.19812;,
 2.81014;-0.37339;0.19812;,
 2.81014;-0.37339;-0.59812;,
 2.70044;-0.84857;-0.59812;,
 2.70044;-0.84857;0.19812;,
 2.91985;0.10180;-0.59812;,
 3.39504;-0.00790;-0.59812;,
 3.28534;-0.48309;-0.59812;,
 2.81014;-0.37339;-0.59812;,
 3.39504;-0.00790;-0.59812;,
 3.39504;-0.00790;0.19812;,
 3.28534;-0.48309;0.19812;,
 3.28534;-0.48309;-0.59812;,
 3.39504;-0.00790;0.19812;,
 2.91985;0.10180;0.19812;,
 2.81014;-0.37339;0.19812;,
 3.28534;-0.48309;0.19812;,
 2.91985;0.10180;0.19812;,
 2.91985;0.10180;-0.59812;,
 2.81014;-0.37339;-0.59812;,
 2.81014;-0.37339;0.19812;,
 3.39504;-0.00790;-0.59812;,
 2.91985;0.10180;-0.59812;,
 2.55437;0.68669;-0.59812;,
 3.02955;0.57699;-0.59812;,
 2.91985;0.10180;-0.59812;,
 2.44466;0.21151;-0.59812;,
 3.02955;0.57699;-0.59812;,
 3.02955;0.57699;0.19812;,
 2.91985;0.10180;0.19812;,
 3.02955;0.57699;0.19812;,
 2.55437;0.68669;0.19812;,
 2.44466;0.21151;0.19812;,
 2.91985;0.10180;0.19812;,
 2.55437;0.68669;0.19812;,
 3.02955;0.57699;-0.59812;,
 2.55437;0.68669;-0.59812;,
 2.44466;0.21151;-0.59812;,
 2.44466;0.21151;0.19812;,
 2.07919;0.79640;-0.59812;,
 2.55437;0.68669;-0.59812;,
 2.44466;0.21151;-0.59812;,
 1.96948;0.32122;-0.59812;,
 2.07919;0.79640;0.19812;,
 1.96948;0.32122;0.19812;,
 2.07919;0.79640;0.19812;,
 2.55437;0.68669;-0.59812;,
 2.07919;0.79640;-0.59812;,
 1.96948;0.32122;-0.59812;,
 2.44466;0.21151;-0.59812;,
 1.96948;0.32122;0.19812;,
 1.60399;0.90610;-0.59812;,
 2.07919;0.79640;-0.59812;,
 1.96948;0.32122;-0.59812;,
 1.49429;0.43092;-0.59812;,
 1.60399;0.90610;0.19812;,
 1.49429;0.43092;0.19812;,
 1.60399;0.90610;0.19812;,
 2.07919;0.79640;-0.59812;,
 1.60399;0.90610;-0.59812;,
 1.49429;0.43092;-0.59812;,
 1.96948;0.32122;-0.59812;,
 1.49429;0.43092;0.19812;,
 1.12881;1.01581;-0.59812;,
 1.60399;0.90610;-0.59812;,
 1.49429;0.43092;-0.59812;,
 1.01911;0.54062;-0.59812;,
 1.12881;1.01581;0.19812;,
 1.01911;0.54062;0.19812;,
 1.12881;1.01581;0.19812;,
 1.12881;1.01581;-0.59812;,
 1.01911;0.54062;-0.59812;,
 1.01911;0.54062;0.19812;,
 1.60399;0.90610;-0.59812;,
 1.12881;1.01581;-0.59812;,
 1.01911;0.54062;-0.59812;,
 1.49429;0.43092;-0.59812;,
 0.54392;0.65032;-0.59812;,
 1.01911;0.54062;-0.59812;,
 0.90940;0.06543;-0.59812;,
 0.43422;0.17514;-0.59812;,
 1.01911;0.54062;0.19812;,
 0.90940;0.06543;0.19812;,
 0.90940;0.06543;-0.59812;,
 1.01911;0.54062;0.19812;,
 0.54392;0.65032;0.19812;,
 0.43422;0.17514;0.19812;,
 0.90940;0.06543;0.19812;,
 0.54392;0.65032;0.19812;,
 0.54392;0.65032;-0.59812;,
 0.43422;0.17514;-0.59812;,
 0.43422;0.17514;0.19812;,
 0.54392;0.65032;-0.59812;,
 0.43422;0.17514;-0.59812;,
 0.90940;0.06543;-0.59812;,
 0.79969;-0.40975;-0.59812;,
 0.32451;-0.30004;-0.59812;,
 0.90940;0.06543;-0.59812;,
 0.90940;0.06543;0.19812;,
 0.79969;-0.40975;0.19812;,
 0.79969;-0.40975;-0.59812;,
 0.90940;0.06543;0.19812;,
 0.43422;0.17514;0.19812;,
 0.32451;-0.30004;0.19812;,
 0.79969;-0.40975;0.19812;,
 0.43422;0.17514;0.19812;,
 0.43422;0.17514;-0.59812;,
 0.32451;-0.30004;-0.59812;,
 0.32451;-0.30004;0.19812;,
 0.32451;-0.30004;-0.59812;,
 0.79969;-0.40975;-0.59812;,
 0.68999;-0.88493;-0.59812;,
 0.21480;-0.77523;-0.59812;,
 0.79969;-0.40975;-0.59812;,
 0.79969;-0.40975;0.19812;,
 0.68999;-0.88493;0.19812;,
 0.68999;-0.88493;-0.59812;,
 0.79969;-0.40975;0.19812;,
 0.32451;-0.30004;0.19812;,
 0.21480;-0.77523;0.19812;,
 0.68999;-0.88493;0.19812;,
 0.32451;-0.30004;0.19812;,
 0.32451;-0.30004;-0.59812;,
 0.21480;-0.77523;-0.59812;,
 0.21480;-0.77523;0.19812;,
 0.21480;-0.77523;-0.59812;,
 0.68999;-0.88493;-0.59812;,
 0.58028;-1.36012;-0.59812;,
 0.10510;-1.25042;-0.59812;,
 0.68999;-0.88493;-0.59812;,
 0.68999;-0.88493;0.19812;,
 0.58028;-1.36012;0.19812;,
 0.68999;-0.88493;0.19812;,
 0.21480;-0.77523;0.19812;,
 0.10510;-1.25042;0.19812;,
 0.58028;-1.36012;0.19812;,
 0.21480;-0.77523;0.19812;,
 0.21480;-0.77523;-0.59812;,
 0.10510;-1.25042;0.19812;,
 -0.00461;-1.72560;-0.59812;,
 0.47058;-1.83531;-0.59812;,
 0.36087;-2.31049;-0.59812;,
 -0.11431;-2.20079;-0.59812;,
 0.47058;-1.83531;0.19812;,
 0.36087;-2.31049;0.19812;,
 0.36087;-2.31049;-0.59812;,
 0.47058;-1.83531;0.19812;,
 -0.00461;-1.72560;0.19812;,
 -0.11431;-2.20079;0.19812;,
 0.36087;-2.31049;0.19812;,
 -0.00461;-1.72560;0.19812;,
 -0.11431;-2.20079;-0.59812;,
 -0.11431;-2.20079;0.19812;,
 -0.11431;-2.20079;-0.59812;,
 0.36087;-2.31049;-0.59812;,
 0.25116;-2.78568;-0.59812;,
 -0.22402;-2.67597;-0.59812;,
 0.36087;-2.31049;-0.59812;,
 0.36087;-2.31049;0.19812;,
 0.25116;-2.78568;0.19812;,
 0.25116;-2.78568;-0.59812;,
 0.36087;-2.31049;0.19812;,
 -0.11431;-2.20079;0.19812;,
 -0.22402;-2.67597;0.19812;,
 0.25116;-2.78568;0.19812;,
 -0.11431;-2.20079;0.19812;,
 -0.11431;-2.20079;-0.59812;,
 -0.22402;-2.67597;-0.59812;,
 -0.22402;-2.67597;0.19812;,
 -0.22402;-2.67597;-0.59812;,
 0.25116;-2.78568;-0.59812;,
 0.14146;-3.26087;-0.59812;,
 -0.33372;-3.15116;-0.59812;,
 0.25116;-2.78568;-0.59812;,
 0.25116;-2.78568;0.19812;,
 0.14146;-3.26087;0.19812;,
 0.14146;-3.26087;-0.59812;,
 0.25116;-2.78568;0.19812;,
 -0.22402;-2.67597;0.19812;,
 -0.33372;-3.15116;0.19812;,
 0.14146;-3.26087;0.19812;,
 -0.22402;-2.67597;0.19812;,
 -0.22402;-2.67597;-0.59812;,
 -0.33372;-3.15116;-0.59812;,
 -0.33372;-3.15116;0.19812;,
 -0.33372;-3.15116;-0.59812;,
 0.14146;-3.26087;-0.59812;,
 0.03175;-3.73605;-0.59812;,
 -0.44343;-3.62634;-0.59812;,
 0.14146;-3.26087;-0.59812;,
 0.14146;-3.26087;0.19812;,
 0.03175;-3.73605;0.19812;,
 0.03175;-3.73605;-0.59812;,
 0.14146;-3.26087;0.19812;,
 -0.33372;-3.15116;0.19812;,
 -0.44343;-3.62634;0.19812;,
 0.03175;-3.73605;0.19812;,
 -0.33372;-3.15116;0.19812;,
 -0.33372;-3.15116;-0.59812;,
 -0.44343;-3.62634;-0.59812;,
 -0.44343;-3.62634;0.19812;,
 -0.44343;-3.62634;-0.59812;,
 0.03175;-3.73605;-0.59812;,
 -0.07795;-4.21123;-0.59812;,
 -0.55314;-4.10153;-0.59812;,
 0.03175;-3.73605;-0.59812;,
 0.03175;-3.73605;0.19812;,
 -0.07795;-4.21123;0.19812;,
 -0.07795;-4.21123;-0.59812;,
 0.03175;-3.73605;0.19812;,
 -0.44343;-3.62634;0.19812;,
 -0.55314;-4.10153;0.19812;,
 -0.07795;-4.21123;0.19812;,
 -0.44343;-3.62634;0.19812;,
 -0.44343;-3.62634;-0.59812;,
 -0.55314;-4.10153;-0.59812;,
 -0.55314;-4.10153;0.19812;,
 -0.55314;-4.10153;-0.59812;,
 -0.07795;-4.21123;-0.59812;,
 -0.18766;-4.68642;-0.59812;,
 -0.66284;-4.57672;-0.59812;,
 -0.07795;-4.21123;-0.59812;,
 -0.07795;-4.21123;0.19812;,
 -0.18766;-4.68642;0.19812;,
 -0.18766;-4.68642;-0.59812;,
 -0.07795;-4.21123;0.19812;,
 -0.55314;-4.10153;0.19812;,
 -0.66284;-4.57672;0.19812;,
 -0.18766;-4.68642;0.19812;,
 -0.55314;-4.10153;0.19812;,
 -0.55314;-4.10153;-0.59812;,
 -0.66284;-4.57672;-0.59812;,
 -0.66284;-4.57672;0.19812;,
 -0.66284;-4.57672;-0.59812;,
 -0.18766;-4.68642;-0.59812;,
 2.95622;-1.90864;0.19812;,
 2.84565;-2.38650;0.19812;,
 2.84565;-2.38650;-0.59812;;
 
 198;
 4;0,1,2,3;,
 4;4,5,6,7;,
 4;8,9,10,11;,
 4;8,12,13,14;,
 4;15,16,17,11;,
 4;18,19,20,21;,
 4;22,12,17,23;,
 4;4,24,25,26;,
 4;27,28,29,7;,
 4;30,31,32,33;,
 4;34,24,29,35;,
 4;22,36,37,38;,
 4;39,40,41,23;,
 4;42,43,44,45;,
 4;46,36,41,47;,
 4;34,48,49,50;,
 4;51,52,53,35;,
 4;54,55,56,57;,
 4;58,48,53,59;,
 4;60,61,62,63;,
 4;64,65,66,67;,
 4;58,68,69,70;,
 4;71,72,73,59;,
 4;74,75,76,77;,
 4;78,68,73,79;,
 4;64,80,81,82;,
 4;83,84,85,67;,
 4;86,87,88,89;,
 4;90,80,85,91;,
 4;78,92,93,94;,
 4;95,96,97,79;,
 4;98,99,100,101;,
 4;102,103,104,105;,
 4;106,92,97,107;,
 4;90,103,108,109;,
 4;110,111,104,91;,
 4;112,113,114,115;,
 4;116,117,118,70;,
 4;119,120,121,122;,
 4;123,124,49,125;,
 4;126,127,128,129;,
 4;130,131,132,133;,
 4;134,135,136,137;,
 4;138,139,140,141;,
 4;142,143,144,145;,
 4;146,147,148,149;,
 4;150,151,152,153;,
 4;154,155,156,157;,
 4;154,147,158,159;,
 4;160,161,162,163;,
 4;71,164,165,166;,
 4;167,168,169,170;,
 4;171,52,172,173;,
 4;174,175,176,177;,
 4;178,179,180,181;,
 4;182,183,184,185;,
 4;186,187,188,189;,
 4;190,191,192,193;,
 4;194,195,196,197;,
 4;198,199,200,201;,
 4;202,203,204,205;,
 4;206,207,208,209;,
 4;210,211,212,213;,
 4;214,215,216,217;,
 4;218,219,220,221;,
 4;222,223,224,225;,
 4;226,227,228,229;,
 4;230,231,232,233;,
 4;234,235,236,237;,
 4;238,239,240,241;,
 4;242,243,244,245;,
 4;246,247,248,249;,
 4;250,251,252,253;,
 4;254,255,256,257;,
 4;258,259,260,261;,
 4;262,263,264,265;,
 4;266,267,268,269;,
 4;270,271,272,273;,
 4;274,275,276,277;,
 4;278,279,280,281;,
 4;282,283,284,281;,
 4;285,286,287,288;,
 4;289,290,284,291;,
 4;274,292,293,261;,
 4;294,295,296,277;,
 4;297,298,299,300;,
 4;301,292,296,302;,
 4;289,303,304,305;,
 4;306,307,308,291;,
 4;309,310,311,312;,
 4;313,303,308,314;,
 4;301,315,316,317;,
 4;318,319,320,302;,
 4;321,322,323,324;,
 4;325,315,320,326;,
 4;313,327,328,329;,
 4;330,331,332,314;,
 4;333,334,335,336;,
 4;337,327,332,338;,
 4;339,340,341,342;,
 4;343,344,345,346;,
 4;337,347,348,349;,
 4;350,351,352,338;,
 4;353,354,355,356;,
 4;357,347,352,358;,
 4;343,359,360,361;,
 4;362,363,364,346;,
 4;365,366,367,368;,
 4;369,359,364,370;,
 4;357,371,372,373;,
 4;374,375,376,358;,
 4;377,378,379,380;,
 4;381,371,376,382;,
 4;369,383,384,385;,
 4;386,387,388,370;,
 4;389,390,391,392;,
 4;393,394,395,396;,
 4;397,398,399,400;,
 4;401,402,384,403;,
 4;404,405,395,403;,
 4;406,407,408,409;,
 4;410,411,412,413;,
 4;414,415,416,417;,
 4;418,419,420,421;,
 4;422,423,424,425;,
 4;426,427,428,429;,
 4;430,431,432,433;,
 4;434,435,436,437;,
 4;438,439,440,441;,
 4;442,443,444,445;,
 4;446,447,448,449;,
 4;450,451,452,453;,
 4;450,443,454,455;,
 4;456,457,458,459;,
 4;460,461,462,455;,
 4;463,464,465,466;,
 4;467,461,468,469;,
 4;470,451,462,471;,
 4;472,473,474,475;,
 4;467,476,477,471;,
 4;478,464,479,480;,
 4;481,482,465,483;,
 4;484,485,486,487;,
 4;478,488,489,483;,
 4;490,476,491,492;,
 4;493,494,477,495;,
 4;496,497,498,499;,
 4;490,500,501,495;,
 4;502,503,504,505;,
 4;502,488,506,507;,
 4;508,509,489,505;,
 4;510,511,512,513;,
 4;508,514,515,516;,
 4;517,518,519,520;,
 4;521,522,523,524;,
 4;521,514,504,525;,
 4;526,527,528,529;,
 4;530,531,532,533;,
 4;534,535,536,537;,
 4;538,539,540,541;,
 4;542,543,544,545;,
 4;546,547,548,549;,
 4;550,551,552,553;,
 4;554,555,556,557;,
 4;558,559,560,561;,
 4;562,563,564,349;,
 4;565,566,567,568;,
 4;569,570,328,571;,
 4;572,573,574,575;,
 4;350,576,577,578;,
 4;579,580,581,582;,
 4;583,331,584,585;,
 4;586,587,588,589;,
 4;590,591,592,593;,
 4;594,595,596,597;,
 4;598,599,600,601;,
 4;602,603,604,605;,
 4;606,607,608,609;,
 4;610,611,612,613;,
 4;614,615,616,617;,
 4;618,619,620,621;,
 4;622,623,624,625;,
 4;626,627,628,629;,
 4;630,631,632,633;,
 4;634,635,636,637;,
 4;638,639,640,641;,
 4;642,643,644,645;,
 4;646,647,648,649;,
 4;650,651,652,653;,
 4;654,655,656,657;,
 4;658,659,660,661;,
 4;662,663,664,665;,
 4;666,667,656,665;,
 4;668,391,384,383;,
 4;669,668,383,382;,
 4;670,669,382,379;,
 4;391,670,379,384;,
 4;391,668,669,670;;
 
 MeshMaterialList {
  1;
  198;
  0,
  0,
  0,
  0,
  0,
  0,
  0,
  0,
  0,
  0,
  0,
  0,
  0,
  0,
  0,
  0,
  0,
  0,
  0,
  0,
  0,
  0,
  0,
  0,
  0,
  0,
  0,
  0,
  0,
  0,
  0,
  0,
  0,
  0,
  0,
  0,
  0,
  0,
  0,
  0,
  0,
  0,
  0,
  0,
  0,
  0,
  0,
  0,
  0,
  0,
  0,
  0,
  0,
  0,
  0,
  0,
  0,
  0,
  0,
  0,
  0,
  0,
  0,
  0,
  0,
  0,
  0,
  0,
  0,
  0,
  0,
  0,
  0,
  0,
  0,
  0,
  0,
  0,
  0,
  0,
  0,
  0,
  0,
  0,
  0,
  0,
  0,
  0,
  0,
  0,
  0,
  0,
  0,
  0,
  0,
  0,
  0,
  0,
  0,
  0,
  0,
  0,
  0,
  0,
  0,
  0,
  0,
  0,
  0,
  0,
  0,
  0,
  0,
  0,
  0,
  0,
  0,
  0,
  0,
  0,
  0,
  0,
  0,
  0,
  0,
  0,
  0,
  0,
  0,
  0,
  0,
  0,
  0,
  0,
  0,
  0,
  0,
  0,
  0,
  0,
  0,
  0,
  0,
  0,
  0,
  0,
  0,
  0,
  0,
  0,
  0,
  0,
  0,
  0,
  0,
  0,
  0,
  0,
  0,
  0,
  0,
  0,
  0,
  0,
  0,
  0,
  0,
  0,
  0,
  0,
  0,
  0,
  0,
  0,
  0,
  0,
  0,
  0,
  0,
  0,
  0,
  0,
  0,
  0,
  0,
  0,
  0,
  0,
  0,
  0,
  0,
  0,
  0,
  0,
  0,
  0,
  0,
  0;;
  Material {
   0.050000;0.050000;0.050000;1.000000;;
   5.000000;
   0.000000;0.000000;0.000000;;
   0.960000;0.960000;0.960000;;
   TextureFilename {
    "Texture.png";
   }
  }
 }
 MeshNormals {
  109;
  0.000000;0.000000;-1.000000;,
  0.000000;0.000000;1.000000;,
  0.974368;-0.224958;-0.000000;,
  0.974370;-0.224951;-0.000000;,
  0.974367;-0.224963;-0.000000;,
  0.974368;-0.224961;-0.000000;,
  0.974370;-0.224951;-0.000000;,
  0.974373;-0.224939;-0.000000;,
  0.974370;-0.224951;-0.000000;,
  0.974370;-0.224953;-0.000000;,
  0.974371;-0.224949;-0.000000;,
  0.974374;-0.224934;-0.000000;,
  0.974316;-0.225187;-0.000000;,
  0.974368;-0.224961;-0.000000;,
  0.974371;-0.224949;-0.000000;,
  0.974373;-0.224939;-0.000000;,
  0.974368;-0.224961;-0.000000;,
  0.974370;-0.224953;-0.000000;,
  0.974370;-0.224951;-0.000000;,
  0.974368;-0.224961;-0.000000;,
  0.974371;-0.224949;-0.000000;,
  0.974370;-0.224951;-0.000000;,
  0.974370;-0.224953;-0.000000;,
  0.974370;-0.224951;-0.000000;,
  0.974368;-0.224958;-0.000000;,
  -0.230522;-0.973067;0.000000;,
  -0.974368;0.224958;0.000000;,
  0.224939;0.974373;0.000000;,
  0.224941;0.974372;0.000000;,
  -0.224939;-0.974373;0.000000;,
  -0.224949;-0.974371;0.000000;,
  0.224951;0.974370;0.000000;,
  -0.224951;-0.974370;0.000000;,
  0.224951;0.974370;0.000000;,
  -0.224953;-0.974370;0.000000;,
  0.224943;0.974372;0.000000;,
  -0.224963;-0.974367;0.000000;,
  0.224954;0.974369;0.000000;,
  0.224949;0.974371;0.000000;,
  -0.224958;-0.974368;0.000000;,
  -0.224961;-0.974368;0.000000;,
  0.224953;0.974370;0.000000;,
  -0.224941;-0.974372;0.000000;,
  -0.224939;-0.974373;0.000000;,
  0.224934;0.974374;0.000000;,
  -0.224958;-0.974368;0.000000;,
  -0.974370;0.224953;0.000000;,
  -0.974367;0.224963;0.000000;,
  -0.974370;0.224951;0.000000;,
  -0.974368;0.224958;0.000000;,
  0.224963;0.974367;0.000000;,
  -0.974372;0.224943;0.000000;,
  -0.974370;0.224953;0.000000;,
  -0.974370;0.224951;0.000000;,
  -0.974371;0.224949;0.000000;,
  -0.974368;0.224960;0.000000;,
  -0.974370;0.224951;0.000000;,
  -0.974371;0.224949;0.000000;,
  -0.974372;0.224941;0.000000;,
  -0.974376;0.224924;0.000000;,
  -0.224963;-0.974367;0.000000;,
  -0.224963;-0.974367;0.000000;,
  0.224943;0.974372;0.000000;,
  0.224953;0.974370;0.000000;,
  -0.224951;-0.974370;0.000000;,
  0.224951;0.974370;0.000000;,
  -0.224951;-0.974370;0.000000;,
  0.223544;0.974694;0.000000;,
  -0.223550;-0.974693;0.000000;,
  0.222148;0.975013;0.000000;,
  -0.222136;-0.975016;0.000000;,
  0.224949;0.974371;0.000000;,
  -0.224943;-0.974372;0.000000;,
  -0.224958;-0.974368;0.000000;,
  0.224953;0.974370;0.000000;,
  -0.224951;-0.974370;0.000000;,
  0.224949;0.974371;0.000000;,
  -0.227734;-0.973724;0.000000;,
  -0.974368;0.224961;0.000000;,
  -0.974367;0.224963;0.000000;,
  -0.224934;-0.974374;0.000000;,
  -0.974370;0.224951;0.000000;,
  -0.974368;0.224958;0.000000;,
  0.224939;0.974373;0.000000;,
  0.224953;0.974370;0.000000;,
  0.224943;0.974372;0.000000;,
  -0.224961;-0.974368;0.000000;,
  -0.224958;-0.974368;0.000000;,
  0.224949;0.974371;0.000000;,
  -0.224951;-0.974370;0.000000;,
  0.224949;0.974371;0.000000;,
  -0.224941;-0.974372;0.000000;,
  -0.974373;0.224939;0.000000;,
  0.224963;0.974367;0.000000;,
  -0.974372;0.224943;0.000000;,
  -0.974370;0.224953;0.000000;,
  0.224939;0.974373;0.000000;,
  -0.974368;0.224961;0.000000;,
  -0.974371;0.224949;0.000000;,
  0.974368;-0.224958;-0.000000;,
  -0.974373;0.224939;0.000000;,
  0.974367;-0.224963;-0.000000;,
  -0.974373;0.224939;0.000000;,
  -0.974370;0.224951;0.000000;,
  -0.974370;0.224951;0.000000;,
  -0.974371;0.224949;0.000000;,
  -0.974373;0.224939;0.000000;,
  0.224934;0.974374;0.000000;,
  0.974259;-0.225430;-0.000000;;
  198;
  4;0,0,0,0;,
  4;1,1,1,1;,
  4;26,26,26,26;,
  4;27,28,28,27;,
  4;29,30,30,29;,
  4;0,0,0,0;,
  4;1,1,1,1;,
  4;28,31,31,28;,
  4;30,32,32,30;,
  4;0,0,0,0;,
  4;1,1,1,1;,
  4;31,33,33,31;,
  4;32,34,34,32;,
  4;0,0,0,0;,
  4;1,1,1,1;,
  4;33,35,35,33;,
  4;34,36,36,34;,
  4;0,0,0,0;,
  4;1,1,1,1;,
  4;0,0,0,0;,
  4;1,1,1,1;,
  4;37,38,38,37;,
  4;39,40,40,39;,
  4;0,0,0,0;,
  4;1,1,1,1;,
  4;38,41,41,38;,
  4;40,42,42,40;,
  4;0,0,0,0;,
  4;1,1,1,1;,
  4;41,38,38,41;,
  4;42,43,43,42;,
  4;0,0,0,0;,
  4;2,2,2,2;,
  4;1,1,1,1;,
  4;38,44,44,38;,
  4;43,45,45,43;,
  4;0,0,0,0;,
  4;3,3,4,4;,
  4;1,1,1,1;,
  4;46,46,47,47;,
  4;0,0,0,0;,
  4;3,3,3,3;,
  4;1,1,1,1;,
  4;48,48,46,46;,
  4;0,0,0,0;,
  4;4,4,3,3;,
  4;1,1,1,1;,
  4;49,49,48,48;,
  4;50,50,50,50;,
  4;0,0,0,0;,
  4;7,7,5,5;,
  4;1,1,1,1;,
  4;51,51,52,52;,
  4;0,0,0,0;,
  4;5,5,6,6;,
  4;1,1,1,1;,
  4;52,52,53,53;,
  4;0,0,0,0;,
  4;6,6,7,7;,
  4;1,1,1,1;,
  4;53,53,54,54;,
  4;0,0,0,0;,
  4;7,7,8,8;,
  4;1,1,1,1;,
  4;54,54,55,55;,
  4;0,0,0,0;,
  4;8,8,9,9;,
  4;1,1,1,1;,
  4;55,55,56,56;,
  4;0,0,0,0;,
  4;9,9,10,10;,
  4;1,1,1,1;,
  4;56,56,57,57;,
  4;0,0,0,0;,
  4;10,10,11,11;,
  4;1,1,1,1;,
  4;57,57,58,58;,
  4;0,0,0,0;,
  4;1,1,1,1;,
  4;58,58,59,59;,
  4;60,61,61,60;,
  4;0,0,0,0;,
  4;1,1,1,1;,
  4;62,63,63,62;,
  4;61,64,64,61;,
  4;0,0,0,0;,
  4;1,1,1,1;,
  4;63,65,65,63;,
  4;64,66,66,64;,
  4;0,0,0,0;,
  4;1,1,1,1;,
  4;65,67,67,65;,
  4;66,68,68,66;,
  4;0,0,0,0;,
  4;1,1,1,1;,
  4;67,69,69,67;,
  4;68,70,70,68;,
  4;0,0,0,0;,
  4;1,1,1,1;,
  4;0,0,0,0;,
  4;1,1,1,1;,
  4;27,71,71,27;,
  4;72,32,32,72;,
  4;0,0,0,0;,
  4;1,1,1,1;,
  4;71,31,31,71;,
  4;32,73,73,32;,
  4;0,0,0,0;,
  4;1,1,1,1;,
  4;31,74,74,31;,
  4;73,75,75,73;,
  4;0,0,0,0;,
  4;1,1,1,1;,
  4;74,76,76,74;,
  4;75,77,77,75;,
  4;0,0,0,0;,
  4;9,9,12,12;,
  4;1,1,1,1;,
  4;78,78,79,79;,
  4;80,80,80,80;,
  4;0,0,0,0;,
  4;13,13,9,9;,
  4;1,1,1,1;,
  4;81,81,78,78;,
  4;0,0,0,0;,
  4;14,14,13,13;,
  4;1,1,1,1;,
  4;56,56,81,81;,
  4;0,0,0,0;,
  4;15,15,14,14;,
  4;1,1,1,1;,
  4;82,82,56,56;,
  4;83,83,83,83;,
  4;0,0,0,0;,
  4;7,7,7,7;,
  4;1,1,1,1;,
  4;84,85,85,84;,
  4;86,87,87,86;,
  4;0,0,0,0;,
  4;1,1,1,1;,
  4;88,84,84,88;,
  4;89,86,86,89;,
  4;0,0,0,0;,
  4;1,1,1,1;,
  4;90,88,88,90;,
  4;91,89,89,91;,
  4;0,0,0,0;,
  4;1,1,1,1;,
  4;92,92,92,92;,
  4;93,90,90,93;,
  4;72,91,91,72;,
  4;0,0,0,0;,
  4;2,2,16,16;,
  4;1,1,1,1;,
  4;94,94,95,95;,
  4;96,96,96,96;,
  4;0,0,0,0;,
  4;16,16,17,17;,
  4;1,1,1,1;,
  4;95,95,97,97;,
  4;0,0,0,0;,
  4;17,17,18,18;,
  4;1,1,1,1;,
  4;97,97,98,98;,
  4;0,0,0,0;,
  4;18,18,99,99;,
  4;1,1,1,1;,
  4;98,98,100,100;,
  4;0,0,0,0;,
  4;101,101,19,19;,
  4;1,1,1,1;,
  4;102,102,103,103;,
  4;0,0,0,0;,
  4;19,19,20,20;,
  4;1,1,1,1;,
  4;103,103,104,104;,
  4;0,0,0,0;,
  4;20,20,21,21;,
  4;1,1,1,1;,
  4;104,104,104,104;,
  4;0,0,0,0;,
  4;21,21,22,22;,
  4;1,1,1,1;,
  4;104,104,78,78;,
  4;0,0,0,0;,
  4;22,22,23,23;,
  4;1,1,1,1;,
  4;78,78,105,105;,
  4;0,0,0,0;,
  4;23,23,24,24;,
  4;1,1,1,1;,
  4;105,105,106,106;,
  4;72,72,72,72;,
  4;107,107,76,76;,
  4;1,1,1,1;,
  4;25,25,77,77;,
  4;0,0,0,0;,
  4;12,12,108,108;;
 }
 MeshTextureCoords {
  671;
  0.022270;0.756450;,
  0.260980;0.756450;,
  0.260980;0.995160;,
  0.022270;0.995160;,
  0.022270;0.756450;,
  0.260980;0.756450;,
  0.260980;0.995160;,
  0.022270;0.995160;,
  0.022270;0.756450;,
  0.260980;0.756450;,
  0.260980;0.995160;,
  0.022270;0.995160;,
  0.260980;0.756450;,
  0.260980;0.995160;,
  0.022270;0.995160;,
  0.022270;0.756450;,
  0.260980;0.756450;,
  0.260980;0.995160;,
  0.022270;0.756450;,
  0.260980;0.756450;,
  0.260980;0.995160;,
  0.022270;0.995160;,
  0.022270;0.756450;,
  0.022270;0.995160;,
  0.260980;0.756450;,
  0.260980;0.995160;,
  0.022270;0.995160;,
  0.022270;0.756450;,
  0.260980;0.756450;,
  0.260980;0.995160;,
  0.022270;0.756450;,
  0.260980;0.756450;,
  0.260980;0.995160;,
  0.022270;0.995160;,
  0.022270;0.756450;,
  0.022270;0.995160;,
  0.260980;0.756450;,
  0.260980;0.995160;,
  0.022270;0.995160;,
  0.022270;0.756450;,
  0.260980;0.756450;,
  0.260980;0.995160;,
  0.022270;0.756450;,
  0.260980;0.756450;,
  0.260980;0.995160;,
  0.022270;0.995160;,
  0.022270;0.756450;,
  0.022270;0.995160;,
  0.260980;0.756450;,
  0.260980;0.995160;,
  0.022270;0.995160;,
  0.022270;0.756450;,
  0.260980;0.756450;,
  0.260980;0.995160;,
  0.022270;0.756450;,
  0.260980;0.756450;,
  0.260980;0.995160;,
  0.022270;0.995160;,
  0.022270;0.756450;,
  0.022270;0.995160;,
  0.022270;0.756450;,
  0.260980;0.756450;,
  0.260980;0.995160;,
  0.022270;0.995160;,
  0.022270;0.756450;,
  0.260980;0.756450;,
  0.260980;0.995160;,
  0.022270;0.995160;,
  0.260980;0.756450;,
  0.260980;0.995160;,
  0.022270;0.995160;,
  0.022270;0.756450;,
  0.260980;0.756450;,
  0.260980;0.995160;,
  0.022270;0.756450;,
  0.260980;0.756450;,
  0.260980;0.995160;,
  0.022270;0.995160;,
  0.022270;0.756450;,
  0.022270;0.995160;,
  0.260980;0.756450;,
  0.260980;0.995160;,
  0.022270;0.995160;,
  0.022270;0.756450;,
  0.260980;0.756450;,
  0.260980;0.995160;,
  0.022270;0.756450;,
  0.260980;0.756450;,
  0.260980;0.995160;,
  0.022270;0.995160;,
  0.022270;0.756450;,
  0.022270;0.995160;,
  0.260980;0.756450;,
  0.260980;0.995160;,
  0.022270;0.995160;,
  0.022270;0.756450;,
  0.260980;0.756450;,
  0.260980;0.995160;,
  0.022270;0.756450;,
  0.260980;0.756450;,
  0.260980;0.995160;,
  0.022270;0.995160;,
  0.022270;0.756450;,
  0.260980;0.756450;,
  0.260980;0.995160;,
  0.022270;0.995160;,
  0.022270;0.756450;,
  0.022270;0.995160;,
  0.260980;0.995160;,
  0.022270;0.995160;,
  0.022270;0.756450;,
  0.260980;0.756450;,
  0.022270;0.756450;,
  0.260980;0.756450;,
  0.260980;0.995160;,
  0.022270;0.995160;,
  0.022270;0.756450;,
  0.260980;0.756450;,
  0.260980;0.995160;,
  0.022270;0.756450;,
  0.260980;0.756450;,
  0.260980;0.995160;,
  0.022270;0.995160;,
  0.022270;0.756450;,
  0.260980;0.756450;,
  0.022270;0.995160;,
  0.022270;0.756450;,
  0.260980;0.756450;,
  0.260980;0.995160;,
  0.022270;0.995160;,
  0.022270;0.756450;,
  0.260980;0.756450;,
  0.260980;0.995160;,
  0.022270;0.995160;,
  0.022270;0.756450;,
  0.260980;0.756450;,
  0.260980;0.995160;,
  0.022270;0.995160;,
  0.022270;0.756450;,
  0.260980;0.756450;,
  0.260980;0.995160;,
  0.022270;0.995160;,
  0.022270;0.756450;,
  0.260980;0.756450;,
  0.260980;0.995160;,
  0.022270;0.995160;,
  0.022270;0.756450;,
  0.260980;0.756450;,
  0.260980;0.995160;,
  0.022270;0.995160;,
  0.022270;0.756450;,
  0.260980;0.756450;,
  0.260980;0.995160;,
  0.022270;0.995160;,
  0.022270;0.756450;,
  0.260980;0.756450;,
  0.260980;0.995160;,
  0.022270;0.995160;,
  0.260980;0.995160;,
  0.022270;0.995160;,
  0.022270;0.756450;,
  0.260980;0.756450;,
  0.260980;0.995160;,
  0.022270;0.995160;,
  0.260980;0.756450;,
  0.260980;0.995160;,
  0.022270;0.995160;,
  0.022270;0.756450;,
  0.260980;0.756450;,
  0.260980;0.995160;,
  0.022270;0.995160;,
  0.022270;0.756450;,
  0.260980;0.995160;,
  0.022270;0.995160;,
  0.022270;0.756450;,
  0.260980;0.756450;,
  0.260980;0.995160;,
  0.022270;0.995160;,
  0.022270;0.756450;,
  0.260980;0.756450;,
  0.260980;0.995160;,
  0.022270;0.995160;,
  0.022270;0.756450;,
  0.260980;0.756450;,
  0.260980;0.995160;,
  0.022270;0.995160;,
  0.022270;0.756450;,
  0.260980;0.756450;,
  0.260980;0.995160;,
  0.022270;0.995160;,
  0.022270;0.756450;,
  0.260980;0.756450;,
  0.260980;0.995160;,
  0.022270;0.995160;,
  0.022270;0.756450;,
  0.260980;0.756450;,
  0.260980;0.995160;,
  0.022270;0.995160;,
  0.022270;0.756450;,
  0.260980;0.756450;,
  0.260980;0.995160;,
  0.022270;0.995160;,
  0.022270;0.756450;,
  0.260980;0.756450;,
  0.260980;0.995160;,
  0.022270;0.995160;,
  0.022270;0.756450;,
  0.260980;0.756450;,
  0.260980;0.995160;,
  0.022270;0.995160;,
  0.022270;0.756450;,
  0.260980;0.756450;,
  0.260980;0.995160;,
  0.022270;0.995160;,
  0.022270;0.756450;,
  0.260980;0.756450;,
  0.260980;0.995160;,
  0.022270;0.995160;,
  0.022270;0.756450;,
  0.260980;0.756450;,
  0.260980;0.995160;,
  0.022270;0.995160;,
  0.022270;0.756450;,
  0.260980;0.756450;,
  0.260980;0.995160;,
  0.022270;0.995160;,
  0.022270;0.756450;,
  0.260980;0.756450;,
  0.260980;0.995160;,
  0.022270;0.995160;,
  0.022270;0.756450;,
  0.260980;0.756450;,
  0.260980;0.995160;,
  0.022270;0.995160;,
  0.022270;0.756450;,
  0.260980;0.756450;,
  0.260980;0.995160;,
  0.022270;0.995160;,
  0.022270;0.756450;,
  0.260980;0.756450;,
  0.260980;0.995160;,
  0.022270;0.995160;,
  0.022270;0.756450;,
  0.260980;0.756450;,
  0.260980;0.995160;,
  0.022270;0.995160;,
  0.022270;0.756450;,
  0.260980;0.756450;,
  0.260980;0.995160;,
  0.022270;0.995160;,
  0.022270;0.756450;,
  0.260980;0.756450;,
  0.260980;0.995160;,
  0.022270;0.995160;,
  0.022270;0.756450;,
  0.260980;0.756450;,
  0.260980;0.995160;,
  0.022270;0.995160;,
  0.022270;0.756450;,
  0.260980;0.756450;,
  0.260980;0.995160;,
  0.022270;0.995160;,
  0.022270;0.756450;,
  0.260980;0.756450;,
  0.260980;0.995160;,
  0.022270;0.995160;,
  0.022270;0.756450;,
  0.260980;0.756450;,
  0.260980;0.995160;,
  0.022270;0.995160;,
  0.022270;0.756450;,
  0.260980;0.756450;,
  0.260980;0.995160;,
  0.022270;0.995160;,
  0.022270;0.756450;,
  0.260980;0.756450;,
  0.260980;0.995160;,
  0.022270;0.995160;,
  0.022270;0.756450;,
  0.260980;0.756450;,
  0.260980;0.995160;,
  0.022270;0.995160;,
  0.022270;0.756450;,
  0.260980;0.756450;,
  0.260980;0.995160;,
  0.022270;0.756450;,
  0.260980;0.756450;,
  0.260980;0.995160;,
  0.022270;0.995160;,
  0.022270;0.756450;,
  0.260980;0.756450;,
  0.022270;0.995160;,
  0.260980;0.756450;,
  0.260980;0.995160;,
  0.022270;0.756450;,
  0.260980;0.756450;,
  0.260980;0.995160;,
  0.022270;0.756450;,
  0.260980;0.756450;,
  0.260980;0.995160;,
  0.022270;0.995160;,
  0.022270;0.756450;,
  0.022270;0.995160;,
  0.260980;0.756450;,
  0.260980;0.995160;,
  0.022270;0.995160;,
  0.022270;0.756450;,
  0.260980;0.756450;,
  0.260980;0.995160;,
  0.022270;0.756450;,
  0.260980;0.756450;,
  0.260980;0.995160;,
  0.022270;0.995160;,
  0.022270;0.756450;,
  0.022270;0.995160;,
  0.260980;0.756450;,
  0.260980;0.995160;,
  0.022270;0.995160;,
  0.022270;0.756450;,
  0.260980;0.756450;,
  0.260980;0.995160;,
  0.022270;0.756450;,
  0.260980;0.756450;,
  0.260980;0.995160;,
  0.022270;0.995160;,
  0.022270;0.756450;,
  0.022270;0.995160;,
  0.260980;0.756450;,
  0.260980;0.995160;,
  0.022270;0.995160;,
  0.022270;0.756450;,
  0.260980;0.756450;,
  0.260980;0.995160;,
  0.022270;0.756450;,
  0.260980;0.756450;,
  0.260980;0.995160;,
  0.022270;0.995160;,
  0.022270;0.756450;,
  0.022270;0.995160;,
  0.022270;0.756450;,
  0.260980;0.756450;,
  0.260980;0.995160;,
  0.022270;0.995160;,
  0.022270;0.756450;,
  0.260980;0.756450;,
  0.260980;0.995160;,
  0.022270;0.995160;,
  0.260980;0.756450;,
  0.260980;0.995160;,
  0.022270;0.995160;,
  0.022270;0.756450;,
  0.260980;0.756450;,
  0.260980;0.995160;,
  0.022270;0.756450;,
  0.260980;0.756450;,
  0.260980;0.995160;,
  0.022270;0.995160;,
  0.022270;0.756450;,
  0.022270;0.995160;,
  0.260980;0.756450;,
  0.260980;0.995160;,
  0.022270;0.995160;,
  0.022270;0.756450;,
  0.260980;0.756450;,
  0.260980;0.995160;,
  0.022270;0.756450;,
  0.260980;0.756450;,
  0.260980;0.995160;,
  0.022270;0.995160;,
  0.022270;0.756450;,
  0.022270;0.995160;,
  0.260980;0.756450;,
  0.260980;0.995160;,
  0.022270;0.995160;,
  0.022270;0.756450;,
  0.260980;0.756450;,
  0.260980;0.995160;,
  0.022270;0.756450;,
  0.260980;0.756450;,
  0.260980;0.995160;,
  0.022270;0.995160;,
  0.022270;0.756450;,
  0.022270;0.995160;,
  0.260980;0.756450;,
  0.260980;0.995160;,
  0.022270;0.995160;,
  0.022270;0.756450;,
  0.260980;0.756450;,
  0.260980;0.995160;,
  0.022270;0.756450;,
  0.260980;0.756450;,
  0.260980;0.995160;,
  0.022270;0.995160;,
  0.022270;0.756450;,
  0.260980;0.756450;,
  0.260980;0.995160;,
  0.022270;0.995160;,
  0.022270;0.756450;,
  0.260980;0.756450;,
  0.260980;0.995160;,
  0.022270;0.995160;,
  0.022270;0.756450;,
  0.260980;0.756450;,
  0.022270;0.995160;,
  0.022270;0.756450;,
  0.260980;0.756450;,
  0.022270;0.756450;,
  0.260980;0.756450;,
  0.260980;0.995160;,
  0.022270;0.995160;,
  0.022270;0.756450;,
  0.260980;0.756450;,
  0.260980;0.995160;,
  0.022270;0.995160;,
  0.022270;0.756450;,
  0.260980;0.756450;,
  0.260980;0.995160;,
  0.022270;0.995160;,
  0.022270;0.756450;,
  0.260980;0.756450;,
  0.260980;0.995160;,
  0.022270;0.995160;,
  0.022270;0.756450;,
  0.260980;0.756450;,
  0.260980;0.995160;,
  0.022270;0.995160;,
  0.022270;0.756450;,
  0.260980;0.756450;,
  0.260980;0.995160;,
  0.022270;0.995160;,
  0.022270;0.756450;,
  0.260980;0.756450;,
  0.260980;0.995160;,
  0.022270;0.995160;,
  0.022270;0.756450;,
  0.260980;0.756450;,
  0.260980;0.995160;,
  0.022270;0.995160;,
  0.022270;0.756450;,
  0.260980;0.756450;,
  0.260980;0.995160;,
  0.022270;0.995160;,
  0.022270;0.756450;,
  0.260980;0.756450;,
  0.260980;0.995160;,
  0.022270;0.995160;,
  0.022270;0.756450;,
  0.260980;0.756450;,
  0.260980;0.995160;,
  0.022270;0.995160;,
  0.022270;0.756450;,
  0.260980;0.756450;,
  0.260980;0.995160;,
  0.022270;0.995160;,
  0.260980;0.995160;,
  0.022270;0.995160;,
  0.022270;0.756450;,
  0.260980;0.756450;,
  0.260980;0.995160;,
  0.022270;0.995160;,
  0.022270;0.756450;,
  0.260980;0.756450;,
  0.260980;0.995160;,
  0.022270;0.756450;,
  0.260980;0.756450;,
  0.260980;0.995160;,
  0.022270;0.995160;,
  0.022270;0.756450;,
  0.260980;0.995160;,
  0.022270;0.995160;,
  0.022270;0.756450;,
  0.022270;0.995160;,
  0.022270;0.756450;,
  0.260980;0.756450;,
  0.260980;0.995160;,
  0.022270;0.995160;,
  0.260980;0.756450;,
  0.260980;0.995160;,
  0.022270;0.756450;,
  0.260980;0.995160;,
  0.022270;0.995160;,
  0.022270;0.756450;,
  0.260980;0.756450;,
  0.022270;0.995160;,
  0.022270;0.756450;,
  0.260980;0.756450;,
  0.260980;0.995160;,
  0.022270;0.995160;,
  0.260980;0.756450;,
  0.260980;0.995160;,
  0.022270;0.756450;,
  0.260980;0.995160;,
  0.022270;0.995160;,
  0.022270;0.756450;,
  0.260980;0.756450;,
  0.022270;0.995160;,
  0.022270;0.756450;,
  0.260980;0.756450;,
  0.260980;0.995160;,
  0.022270;0.995160;,
  0.260980;0.756450;,
  0.260980;0.995160;,
  0.022270;0.756450;,
  0.260980;0.756450;,
  0.260980;0.995160;,
  0.022270;0.995160;,
  0.260980;0.995160;,
  0.022270;0.995160;,
  0.022270;0.756450;,
  0.260980;0.756450;,
  0.022270;0.756450;,
  0.260980;0.756450;,
  0.260980;0.995160;,
  0.022270;0.995160;,
  0.260980;0.756450;,
  0.260980;0.995160;,
  0.022270;0.995160;,
  0.022270;0.756450;,
  0.260980;0.756450;,
  0.260980;0.995160;,
  0.022270;0.995160;,
  0.022270;0.756450;,
  0.260980;0.756450;,
  0.260980;0.995160;,
  0.022270;0.995160;,
  0.022270;0.995160;,
  0.022270;0.756450;,
  0.260980;0.756450;,
  0.260980;0.995160;,
  0.022270;0.995160;,
  0.022270;0.756450;,
  0.260980;0.756450;,
  0.260980;0.995160;,
  0.022270;0.995160;,
  0.022270;0.756450;,
  0.260980;0.756450;,
  0.260980;0.995160;,
  0.022270;0.995160;,
  0.022270;0.756450;,
  0.260980;0.756450;,
  0.260980;0.995160;,
  0.022270;0.995160;,
  0.022270;0.756450;,
  0.260980;0.756450;,
  0.260980;0.995160;,
  0.022270;0.995160;,
  0.022270;0.756450;,
  0.260980;0.756450;,
  0.260980;0.995160;,
  0.022270;0.995160;,
  0.022270;0.756450;,
  0.260980;0.756450;,
  0.260980;0.995160;,
  0.022270;0.995160;,
  0.022270;0.756450;,
  0.260980;0.756450;,
  0.260980;0.995160;,
  0.022270;0.995160;,
  0.022270;0.756450;,
  0.260980;0.756450;,
  0.260980;0.995160;,
  0.022270;0.995160;,
  0.022270;0.756450;,
  0.260980;0.756450;,
  0.260980;0.995160;,
  0.022270;0.756450;,
  0.260980;0.756450;,
  0.260980;0.995160;,
  0.022270;0.995160;,
  0.022270;0.756450;,
  0.260980;0.756450;,
  0.022270;0.995160;,
  0.022270;0.756450;,
  0.260980;0.756450;,
  0.260980;0.995160;,
  0.022270;0.995160;,
  0.260980;0.756450;,
  0.260980;0.995160;,
  0.022270;0.995160;,
  0.022270;0.756450;,
  0.260980;0.756450;,
  0.260980;0.995160;,
  0.022270;0.995160;,
  0.022270;0.756450;,
  0.260980;0.995160;,
  0.022270;0.995160;,
  0.022270;0.756450;,
  0.260980;0.756450;,
  0.260980;0.995160;,
  0.022270;0.995160;,
  0.022270;0.756450;,
  0.260980;0.756450;,
  0.260980;0.995160;,
  0.022270;0.995160;,
  0.022270;0.756450;,
  0.260980;0.756450;,
  0.260980;0.995160;,
  0.022270;0.995160;,
  0.022270;0.756450;,
  0.260980;0.756450;,
  0.260980;0.995160;,
  0.022270;0.995160;,
  0.022270;0.756450;,
  0.260980;0.756450;,
  0.260980;0.995160;,
  0.022270;0.995160;,
  0.022270;0.756450;,
  0.260980;0.756450;,
  0.260980;0.995160;,
  0.022270;0.995160;,
  0.022270;0.756450;,
  0.260980;0.756450;,
  0.260980;0.995160;,
  0.022270;0.995160;,
  0.022270;0.756450;,
  0.260980;0.756450;,
  0.260980;0.995160;,
  0.022270;0.995160;,
  0.022270;0.756450;,
  0.260980;0.756450;,
  0.260980;0.995160;,
  0.022270;0.995160;,
  0.022270;0.756450;,
  0.260980;0.756450;,
  0.260980;0.995160;,
  0.022270;0.995160;,
  0.022270;0.756450;,
  0.260980;0.756450;,
  0.260980;0.995160;,
  0.022270;0.995160;,
  0.022270;0.756450;,
  0.260980;0.756450;,
  0.260980;0.995160;,
  0.022270;0.995160;,
  0.022270;0.756450;,
  0.260980;0.756450;,
  0.260980;0.995160;,
  0.022270;0.995160;,
  0.022270;0.756450;,
  0.260980;0.756450;,
  0.260980;0.995160;,
  0.022270;0.995160;,
  0.022270;0.756450;,
  0.260980;0.756450;,
  0.260980;0.995160;,
  0.022270;0.995160;,
  0.022270;0.756450;,
  0.260980;0.756450;,
  0.260980;0.995160;,
  0.022270;0.995160;,
  0.022270;0.756450;,
  0.260980;0.756450;,
  0.260980;0.995160;,
  0.022270;0.995160;,
  0.022270;0.756450;,
  0.260980;0.756450;,
  0.260980;0.995160;,
  0.022270;0.995160;,
  0.022270;0.756450;,
  0.260980;0.756450;,
  0.260980;0.995160;,
  0.022270;0.995160;,
  0.022270;0.756450;,
  0.260980;0.756450;,
  0.260980;0.995160;,
  0.022270;0.995160;,
  0.022270;0.756450;,
  0.260980;0.756450;,
  0.260980;0.756450;,
  0.022270;0.995160;,
  0.260980;0.995160;;
 }
}
