xof 0302txt 0064
template Header {
 <3D82AB43-62DA-11cf-AB39-0020AF71E433>
 WORD major;
 WORD minor;
 DWORD flags;
}

template Vector {
 <3D82AB5E-62DA-11cf-AB39-0020AF71E433>
 FLOAT x;
 FLOAT y;
 FLOAT z;
}

template Coords2d {
 <F6F23F44-7686-11cf-8F52-0040333594A3>
 FLOAT u;
 FLOAT v;
}

template Matrix4x4 {
 <F6F23F45-7686-11cf-8F52-0040333594A3>
 array FLOAT matrix[16];
}

template ColorRGBA {
 <35FF44E0-6C7C-11cf-8F52-0040333594A3>
 FLOAT red;
 FLOAT green;
 FLOAT blue;
 FLOAT alpha;
}

template ColorRGB {
 <D3E16E81-7835-11cf-8F52-0040333594A3>
 FLOAT red;
 FLOAT green;
 FLOAT blue;
}

template IndexedColor {
 <1630B820-7842-11cf-8F52-0040333594A3>
 DWORD index;
 ColorRGBA indexColor;
}

template Boolean {
 <4885AE61-78E8-11cf-8F52-0040333594A3>
 WORD truefalse;
}

template Boolean2d {
 <4885AE63-78E8-11cf-8F52-0040333594A3>
 Boolean u;
 Boolean v;
}

template MaterialWrap {
 <4885AE60-78E8-11cf-8F52-0040333594A3>
 Boolean u;
 Boolean v;
}

template TextureFilename {
 <A42790E1-7810-11cf-8F52-0040333594A3>
 STRING filename;
}

template Material {
 <3D82AB4D-62DA-11cf-AB39-0020AF71E433>
 ColorRGBA faceColor;
 FLOAT power;
 ColorRGB specularColor;
 ColorRGB emissiveColor;
 [...]
}

template MeshFace {
 <3D82AB5F-62DA-11cf-AB39-0020AF71E433>
 DWORD nFaceVertexIndices;
 array DWORD faceVertexIndices[nFaceVertexIndices];
}

template MeshFaceWraps {
 <4885AE62-78E8-11cf-8F52-0040333594A3>
 DWORD nFaceWrapValues;
 Boolean2d faceWrapValues;
}

template MeshTextureCoords {
 <F6F23F40-7686-11cf-8F52-0040333594A3>
 DWORD nTextureCoords;
 array Coords2d textureCoords[nTextureCoords];
}

template MeshMaterialList {
 <F6F23F42-7686-11cf-8F52-0040333594A3>
 DWORD nMaterials;
 DWORD nFaceIndexes;
 array DWORD faceIndexes[nFaceIndexes];
 [Material]
}

template MeshNormals {
 <F6F23F43-7686-11cf-8F52-0040333594A3>
 DWORD nNormals;
 array Vector normals[nNormals];
 DWORD nFaceNormals;
 array MeshFace faceNormals[nFaceNormals];
}

template MeshVertexColors {
 <1630B821-7842-11cf-8F52-0040333594A3>
 DWORD nVertexColors;
 array IndexedColor vertexColors[nVertexColors];
}

template Mesh {
 <3D82AB44-62DA-11cf-AB39-0020AF71E433>
 DWORD nVertices;
 array Vector vertices[nVertices];
 DWORD nFaces;
 array MeshFace faces[nFaces];
 [...]
}

Header{
1;
0;
1;
}

Mesh {
 147;
 -0.00535;8.37501;38.36537;,
 -0.00539;27.45981;-6.63463;,
 -0.00539;-1.70599;-6.63463;,
 -0.00535;-1.70599;38.36537;,
 -0.00538;35.34861;-51.58311;,
 -0.00538;-1.70599;-51.58311;,
 -0.00539;40.67641;-96.52701;,
 -0.00539;-1.70599;-96.52701;,
 -0.00537;47.77881;-141.22163;,
 -0.00537;-1.70599;-141.22163;,
 -0.00537;46.79881;-221.26053;,
 -0.00538;0.49381;-212.45203;,
 -0.00539;-30.87179;-6.63463;,
 -0.00535;-11.78709;38.36537;,
 -0.00538;-43.92519;-51.58311;,
 -0.00539;-47.62370;-96.52701;,
 -0.00537;-46.51830;-141.22163;,
 -2.48476;-43.83279;-186.77409;,
 -16.74723;2.78881;38.32742;,
 -34.11376;7.70891;-5.33134;,
 -5.14017;16.07541;-5.33134;,
 -0.00627;2.79151;38.32747;,
 -40.52757;6.60411;-49.05272;,
 -15.26317;22.51801;-49.05272;,
 -50.17156;1.98701;-92.75693;,
 -29.80966;24.84411;-92.75690;,
 -54.24974;-7.06039;-136.72054;,
 -42.03876;18.42991;-136.72054;,
 -54.50724;-14.71259;-176.06657;,
 -44.81174;12.33951;-218.85822;,
 23.83314;24.44271;-5.33133;,
 16.73571;2.79421;38.32742;,
 10.00083;38.43101;-49.05272;,
 -9.44788;44.16650;-92.75691;,
 -29.82726;43.92030;-136.72054;,
 -46.32115;41.22571;-176.11125;,
 -4.50557;15.03501;38.32745;,
 -4.50286;-1.70689;38.32744;,
 -17.78677;-6.84079;-5.33134;,
 -26.15366;22.13291;-5.33134;,
 -24.22936;-16.96379;-49.05272;,
 -40.14237;8.30021;-49.05273;,
 -26.55547;-31.51040;-92.75690;,
 -49.41306;-11.14849;-92.75691;,
 -20.14125;-43.73940;-136.72054;,
 -45.63165;-31.52799;-136.72055;,
 -0.08519;-40.81670;-237.53471;,
 -33.44726;-28.87129;-183.73500;,
 -4.50016;-18.44799;38.32747;,
 -9.42027;-35.81450;-5.33133;,
 -8.31547;-47.39279;-49.05272;,
 -3.69837;-51.87229;-92.75691;,
 5.34903;-56.39330;-136.72052;,
 17.11183;-56.14660;-183.73500;,
 4.49491;-18.44709;38.32745;,
 4.49223;-1.70509;38.32741;,
 17.77603;3.42871;-5.33131;,
 26.14301;-25.54489;-5.33133;,
 24.21863;13.55171;-49.05270;,
 40.13170;-11.71219;-49.05272;,
 26.54481;28.09831;-92.75691;,
 49.40232;7.73641;-92.75690;,
 20.13062;40.32741;-136.72054;,
 45.62091;28.11591;-136.72050;,
 0.07443;75.04420;-227.87723;,
 33.43651;56.52811;-183.73500;,
 4.48951;15.03591;38.32744;,
 9.40961;32.40240;-5.33134;,
 8.30471;38.81620;-49.05272;,
 3.68761;44.92510;-92.75691;,
 -5.35977;52.53841;-136.72052;,
 -17.12246;64.62041;-183.73500;,
 16.73663;-6.20089;38.32747;,
 34.10312;-11.12099;-5.33131;,
 5.12942;-19.48749;-5.33131;,
 -0.00448;-6.20359;38.32742;,
 40.51681;-10.01609;-49.05270;,
 15.25241;-25.93009;-49.05272;,
 50.16089;-5.39899;-92.75692;,
 29.79902;-28.25619;-92.75691;,
 54.23901;3.64841;-136.72052;,
 42.02802;-21.84199;-136.72054;,
 54.49701;15.49631;-183.73499;,
 44.80111;13.58651;-255.67915;,
 -23.84376;-27.85480;-5.33131;,
 -16.74637;-6.20629;38.32745;,
 -10.01158;-47.00760;-49.05270;,
 9.43712;-51.11369;-92.75690;,
 29.81660;-42.65980;-136.72052;,
 46.31049;-35.04649;-183.73497;,
 15.55231;-1.70599;38.37523;,
 33.53170;-1.70599;-6.73192;,
 -0.00537;-1.70599;-6.73193;,
 -0.00537;-1.70599;38.37526;,
 40.12852;1.88191;-51.14702;,
 -0.00539;-1.70599;-51.68863;,
 45.16050;-9.06099;-98.30521;,
 -0.00539;-1.70599;-96.52701;,
 46.48281;-7.78419;-142.61702;,
 -0.00537;-1.70599;-141.22163;,
 42.20480;-18.89529;-185.31567;,
 -0.00536;-11.89799;-212.91254;,
 -33.54237;-1.70599;-6.73192;,
 -15.56300;-1.70599;38.37521;,
 -40.13786;-1.70599;-51.68861;,
 -37.67017;-1.07869;-95.39101;,
 -38.73216;8.87651;-140.16234;,
 -39.82176;14.92541;-181.05217;,
 -20.70996;16.47041;18.03815;,
 -16.91187;5.28991;-1.69557;,
 -18.92097;-3.24479;-3.71812;,
 -27.74245;-2.80009;15.97267;,
 -8.06516;8.62221;-5.72005;,
 -6.45647;-3.68669;-14.50633;,
 8.05442;7.29181;-5.72002;,
 7.28463;-3.68669;-14.50630;,
 17.19792;5.29441;-1.69554;,
 21.11642;0.63411;-4.36394;,
 20.69930;11.55531;18.03815;,
 27.73173;-2.80009;15.97266;,
 19.82712;11.76501;40.45789;,
 8.05445;17.74711;44.15892;,
 7.54842;-8.75929;51.81601;,
 21.11643;-8.75929;44.16086;,
 -8.06517;19.07801;44.15891;,
 -7.55917;-8.75929;51.81601;,
 -19.83777;16.54581;40.45782;,
 -21.12718;-8.75929;44.16084;,
 6.30695;21.14661;19.27745;,
 -6.31758;22.74711;19.27745;,
 6.30694;-25.55309;15.97264;,
 6.86522;-11.18859;-6.41672;,
 16.90122;-7.70259;-2.71513;,
 17.64483;-17.89009;15.97267;,
 -6.31757;-25.55309;15.97267;,
 -6.87596;-11.18859;-6.41673;,
 -17.65558;-20.29059;15.97266;,
 -16.91187;-8.65689;-2.71513;,
 -20.70996;16.47041;18.03815;,
 -27.74245;-2.80009;15.97267;,
 -6.31758;22.74711;19.27745;,
 16.90123;-22.80079;39.04984;,
 6.77733;-25.13679;41.79134;,
 -6.96388;-25.13679;41.79134;,
 -6.31757;-25.55309;15.97267;,
 -16.99977;-24.79539;39.05124;,
 -17.65558;-20.29059;15.97266;;
 
 152;
 4;0,1,2,3;,
 4;1,4,5,2;,
 4;4,6,7,5;,
 4;6,8,9,7;,
 4;8,10,11,9;,
 4;3,2,12,13;,
 4;2,5,14,12;,
 4;5,7,15,14;,
 4;7,9,16,15;,
 4;9,11,17,16;,
 4;3,2,1,0;,
 4;2,5,4,1;,
 4;5,7,6,4;,
 4;7,9,8,6;,
 4;9,11,10,8;,
 4;13,12,2,3;,
 4;12,14,5,2;,
 4;14,15,7,5;,
 4;15,16,9,7;,
 4;16,17,11,9;,
 4;18,19,20,21;,
 4;19,22,23,20;,
 4;22,24,25,23;,
 4;24,26,27,25;,
 4;26,28,29,27;,
 4;21,20,30,31;,
 4;20,23,32,30;,
 4;23,25,33,32;,
 4;25,27,34,33;,
 4;27,29,35,34;,
 4;21,20,19,18;,
 4;20,23,22,19;,
 4;23,25,24,22;,
 4;25,27,26,24;,
 4;27,29,28,26;,
 4;31,30,20,21;,
 4;30,32,23,20;,
 4;32,33,25,23;,
 4;33,34,27,25;,
 4;34,35,29,27;,
 4;36,37,38,39;,
 4;39,38,40,41;,
 4;41,40,42,43;,
 4;43,42,44,45;,
 4;45,44,46,47;,
 4;37,48,49,38;,
 4;38,49,50,40;,
 4;40,50,51,42;,
 4;42,51,52,44;,
 4;44,52,53,46;,
 4;37,36,39,38;,
 4;38,39,41,40;,
 4;40,41,43,42;,
 4;42,43,45,44;,
 4;44,45,47,46;,
 4;48,37,38,49;,
 4;49,38,40,50;,
 4;50,40,42,51;,
 4;51,42,44,52;,
 4;52,44,46,53;,
 4;54,55,56,57;,
 4;57,56,58,59;,
 4;59,58,60,61;,
 4;61,60,62,63;,
 4;63,62,64,65;,
 4;55,66,67,56;,
 4;56,67,68,58;,
 4;58,68,69,60;,
 4;60,69,70,62;,
 4;62,70,71,64;,
 4;55,54,57,56;,
 4;56,57,59,58;,
 4;58,59,61,60;,
 4;60,61,63,62;,
 4;62,63,65,64;,
 4;66,55,56,67;,
 4;67,56,58,68;,
 4;68,58,60,69;,
 4;69,60,62,70;,
 4;70,62,64,71;,
 4;72,73,74,75;,
 4;73,76,77,74;,
 4;76,78,79,77;,
 4;78,80,81,79;,
 4;80,82,83,81;,
 4;75,74,84,85;,
 4;74,77,86,84;,
 4;77,79,87,86;,
 4;79,81,88,87;,
 4;81,83,89,88;,
 4;75,74,73,72;,
 4;74,77,76,73;,
 4;77,79,78,76;,
 4;79,81,80,78;,
 4;81,83,82,80;,
 4;85,84,74,75;,
 4;84,86,77,74;,
 4;86,87,79,77;,
 4;87,88,81,79;,
 4;88,89,83,81;,
 4;90,91,92,93;,
 4;91,94,95,92;,
 4;94,96,97,95;,
 4;96,98,99,97;,
 4;98,100,101,99;,
 4;93,92,102,103;,
 4;92,95,104,102;,
 4;95,97,105,104;,
 4;97,99,106,105;,
 4;99,101,107,106;,
 4;93,92,91,90;,
 4;92,95,94,91;,
 4;95,97,96,94;,
 4;97,99,98,96;,
 4;99,101,100,98;,
 4;103,102,92,93;,
 4;102,104,95,92;,
 4;104,105,97,95;,
 4;105,106,99,97;,
 4;106,107,101,99;,
 4;108,109,110,111;,
 4;109,112,113,110;,
 4;112,114,115,113;,
 4;114,116,117,115;,
 4;116,118,119,117;,
 4;120,121,122,123;,
 4;121,124,125,122;,
 4;124,126,127,125;,
 4;118,116,114,128;,
 4;128,114,112,129;,
 4;129,112,109,108;,
 4;130,131,132,133;,
 4;134,135,131,130;,
 4;136,137,135,134;,
 4;127,126,138,139;,
 4;119,118,120,123;,
 4;121,120,118,128;,
 4;124,121,128,129;,
 4;126,124,140,138;,
 4;141,142,130,133;,
 4;142,143,144,130;,
 4;143,145,146,144;,
 4;111,110,137,136;,
 4;110,113,135,137;,
 4;113,115,131,135;,
 4;115,117,132,131;,
 4;117,119,133,132;,
 4;123,122,142,141;,
 4;122,125,143,142;,
 4;125,127,145,143;,
 4;127,139,146,145;,
 4;119,123,141,133;;
 
 MeshMaterialList {
  1;
  152;
  0,
  0,
  0,
  0,
  0,
  0,
  0,
  0,
  0,
  0,
  0,
  0,
  0,
  0,
  0,
  0,
  0,
  0,
  0,
  0,
  0,
  0,
  0,
  0,
  0,
  0,
  0,
  0,
  0,
  0,
  0,
  0,
  0,
  0,
  0,
  0,
  0,
  0,
  0,
  0,
  0,
  0,
  0,
  0,
  0,
  0,
  0,
  0,
  0,
  0,
  0,
  0,
  0,
  0,
  0,
  0,
  0,
  0,
  0,
  0,
  0,
  0,
  0,
  0,
  0,
  0,
  0,
  0,
  0,
  0,
  0,
  0,
  0,
  0,
  0,
  0,
  0,
  0,
  0,
  0,
  0,
  0,
  0,
  0,
  0,
  0,
  0,
  0,
  0,
  0,
  0,
  0,
  0,
  0,
  0,
  0,
  0,
  0,
  0,
  0,
  0,
  0,
  0,
  0,
  0,
  0,
  0,
  0,
  0,
  0,
  0,
  0,
  0,
  0,
  0,
  0,
  0,
  0,
  0,
  0,
  0,
  0,
  0,
  0,
  0,
  0,
  0,
  0,
  0,
  0,
  0,
  0,
  0,
  0,
  0,
  0,
  0,
  0,
  0,
  0,
  0,
  0,
  0,
  0,
  0,
  0,
  0,
  0,
  0,
  0,
  0,
  0;;
  Material {
   0.000000;0.000000;0.000000;1.000000;;
   0.000000;
   0.000000;0.000000;0.000000;;
   1.000000;1.000000;1.000000;;
   TextureFilename {
    "Texture.png";
   }
  }
 }
 MeshNormals {
  247;
  -1.000000;0.000000;0.000001;,
  -1.000000;0.000000;0.000000;,
  -1.000000;0.000000;-0.000000;,
  -1.000000;0.000000;-0.000000;,
  -1.000000;0.000000;-0.000000;,
  -1.000000;0.000000;0.000000;,
  -1.000000;0.000000;0.000001;,
  -1.000000;0.000000;-0.000000;,
  -1.000000;0.000000;-0.000000;,
  -0.999950;0.007114;0.007019;,
  -0.999800;0.014229;0.014040;,
  -1.000000;0.000000;0.000000;,
  -1.000000;0.000000;-0.000000;,
  -1.000000;0.000000;-0.000000;,
  -0.999800;0.014229;0.014039;,
  -0.999201;0.028452;0.028074;,
  0.136962;-0.957219;-0.254896;,
  0.275104;-0.941418;-0.195063;,
  0.528210;-0.836554;-0.145505;,
  0.743577;-0.660136;-0.106369;,
  0.880743;-0.473517;-0.008535;,
  0.920517;-0.389040;0.035996;,
  0.133027;-0.944186;-0.301359;,
  0.269643;-0.926216;-0.263472;,
  0.512144;-0.828822;-0.225307;,
  0.720888;-0.666270;-0.190799;,
  0.897111;-0.425942;-0.117323;,
  0.957905;-0.275577;-0.080464;,
  0.128779;-0.928939;-0.347114;,
  0.262865;-0.906483;-0.330440;,
  0.492725;-0.815601;-0.303343;,
  0.692710;-0.667289;-0.273639;,
  0.900524;-0.371025;-0.226710;,
  0.968631;-0.154444;-0.194684;,
  0.928941;0.128772;-0.347111;,
  0.906485;0.262857;-0.330440;,
  0.799645;0.506298;-0.322846;,
  0.634249;0.718330;-0.285885;,
  0.512324;0.857564;-0.045912;,
  0.467709;0.872165;0.143447;,
  0.944187;0.133023;-0.301357;,
  0.927749;0.259465;-0.268252;,
  0.833459;0.503708;-0.227211;,
  0.660411;0.727874;-0.184544;,
  0.507820;0.861425;-0.008032;,
  0.454319;0.881468;0.128876;,
  0.957220;0.136961;-0.254896;,
  0.944979;0.254954;-0.204972;,
  0.858715;0.495919;-0.129124;,
  0.679311;0.729373;-0.080940;,
  0.502644;0.863995;0.029359;,
  0.440711;0.890349;0.114244;,
  -0.928941;-0.128774;-0.347110;,
  -0.906485;-0.262860;-0.330440;,
  -0.799644;-0.506300;-0.322845;,
  -0.634250;-0.718329;-0.285885;,
  -0.392420;-0.866270;-0.309164;,
  -0.235670;-0.896332;-0.375565;,
  -0.944187;-0.133023;-0.301356;,
  -0.926217;-0.269639;-0.263471;,
  -0.816092;-0.530021;-0.230373;,
  -0.631485;-0.748097;-0.203904;,
  -0.408676;-0.881918;-0.234958;,
  -0.282845;-0.912044;-0.296941;,
  -0.957220;-0.136960;-0.254895;,
  -0.941419;-0.275102;-0.195061;,
  -0.824903;-0.548838;-0.135322;,
  -0.623918;-0.772157;-0.120418;,
  -0.422366;-0.892194;-0.159993;,
  -0.327572;-0.919864;-0.215747;,
  -0.136961;0.957220;-0.254896;,
  -0.275104;0.941418;-0.195062;,
  -0.528212;0.836553;-0.145505;,
  -0.743578;0.660134;-0.106370;,
  -0.868203;0.495490;0.026720;,
  -0.895316;0.432607;0.106119;,
  -0.133026;0.944186;-0.301359;,
  -0.283940;0.917574;-0.278274;,
  -0.546314;0.801706;-0.242506;,
  -0.739903;0.648650;-0.178314;,
  -0.890333;0.449644;-0.071609;,
  -0.946838;0.321124;-0.019428;,
  -0.128780;0.928939;-0.347114;,
  -0.290641;0.886691;-0.359592;,
  -0.558424;0.758128;-0.336756;,
  -0.732347;0.633811;-0.248900;,
  -0.901643;0.397363;-0.170712;,
  -0.969155;0.199735;-0.144376;,
  0.000000;1.000000;0.000000;,
  -0.022479;0.999607;0.016769;,
  -0.007260;0.999321;-0.036116;,
  0.088377;0.995079;-0.044809;,
  0.165612;0.981870;-0.092218;,
  0.183536;0.962548;-0.199538;,
  -0.011238;0.999902;0.008384;,
  -0.001540;0.999867;-0.016236;,
  0.082802;0.996542;0.006926;,
  0.216221;0.976193;-0.017191;,
  0.285023;0.953502;-0.097960;,
  0.004163;0.999985;0.003588;,
  0.077001;0.995304;0.058651;,
  0.265180;0.962442;0.058178;,
  0.380610;0.924719;0.005646;,
  -0.698588;0.555873;0.450533;,
  -0.733231;0.655208;-0.181868;,
  -0.808397;-0.124274;0.575370;,
  -0.985968;-0.071778;-0.150712;,
  -0.652744;-0.757299;-0.020588;,
  -0.658457;-0.711305;-0.245925;,
  -0.641132;0.530996;-0.554069;,
  -0.225672;0.712577;-0.664309;,
  0.239439;0.749282;-0.617451;,
  -0.790680;-0.066496;-0.608608;,
  -0.283315;0.522946;-0.803903;,
  0.200790;0.612748;-0.764345;,
  -0.598906;-0.600675;-0.529623;,
  -0.231660;-0.747449;-0.622618;,
  0.262461;-0.755142;-0.600729;,
  0.558405;0.693276;-0.455579;,
  0.726322;0.678665;-0.108946;,
  0.615305;0.620979;-0.485576;,
  0.993954;-0.021392;-0.107692;,
  0.616417;-0.622043;-0.482797;,
  0.685803;-0.693074;-0.222086;,
  0.743541;0.525165;0.413943;,
  0.233022;0.250138;0.939751;,
  -0.206353;0.240654;0.948422;,
  0.820462;-0.119789;0.559010;,
  0.233454;-0.137724;0.962565;,
  -0.207270;-0.137286;0.968603;,
  0.656313;-0.696877;0.289165;,
  0.231833;-0.852855;0.467858;,
  -0.117021;-0.992676;-0.029993;,
  0.304176;0.935190;-0.181371;,
  -0.141766;0.969557;-0.199654;,
  0.229529;-0.932599;-0.278523;,
  -0.159010;-0.944244;-0.288304;,
  1.000000;0.000000;-0.000001;,
  1.000000;0.000000;-0.000000;,
  1.000000;0.000000;-0.000001;,
  1.000000;0.000000;0.000000;,
  1.000000;0.000000;0.000000;,
  1.000000;0.000000;0.000000;,
  1.000000;0.000000;0.000000;,
  0.999950;-0.007114;-0.007019;,
  1.000000;-0.000000;0.000000;,
  0.999800;-0.014229;-0.014040;,
  1.000000;-0.000000;-0.000000;,
  1.000000;0.000000;-0.000000;,
  1.000000;0.000000;0.000000;,
  1.000000;0.000000;0.000000;,
  0.999800;-0.014229;-0.014039;,
  0.999201;-0.028452;-0.028074;,
  -0.133027;0.944186;0.301359;,
  -0.269643;0.926216;0.263472;,
  -0.275104;0.941418;0.195063;,
  -0.136962;0.957219;0.254896;,
  -0.512144;0.828822;0.225307;,
  -0.528210;0.836554;0.145505;,
  -0.720888;0.666270;0.190799;,
  -0.743577;0.660136;0.106369;,
  -0.897111;0.425942;0.117323;,
  -0.880743;0.473517;0.008535;,
  -0.957905;0.275577;0.080464;,
  -0.920517;0.389040;-0.035996;,
  -0.128779;0.928939;0.347114;,
  -0.262865;0.906483;0.330440;,
  -0.492725;0.815601;0.303343;,
  -0.692710;0.667289;0.273639;,
  -0.900524;0.371025;0.226710;,
  -0.968631;0.154444;0.194684;,
  -0.944187;-0.133023;0.301357;,
  -0.928941;-0.128772;0.347111;,
  -0.906485;-0.262857;0.330440;,
  -0.927749;-0.259465;0.268252;,
  -0.799645;-0.506298;0.322846;,
  -0.833459;-0.503708;0.227211;,
  -0.634249;-0.718330;0.285885;,
  -0.660411;-0.727874;0.184544;,
  -0.512324;-0.857564;0.045912;,
  -0.507820;-0.861425;0.008032;,
  -0.467709;-0.872165;-0.143447;,
  -0.454319;-0.881468;-0.128876;,
  -0.957220;-0.136961;0.254896;,
  -0.944979;-0.254954;0.204972;,
  -0.858715;-0.495919;0.129124;,
  -0.679311;-0.729373;0.080940;,
  -0.502644;-0.863995;-0.029359;,
  -0.440711;-0.890349;-0.114244;,
  0.944187;0.133023;0.301356;,
  0.928941;0.128774;0.347110;,
  0.906485;0.262860;0.330440;,
  0.926217;0.269639;0.263471;,
  0.799644;0.506300;0.322845;,
  0.816092;0.530021;0.230373;,
  0.634250;0.718329;0.285885;,
  0.631485;0.748097;0.203904;,
  0.392420;0.866270;0.309164;,
  0.408676;0.881918;0.234958;,
  0.235670;0.896332;0.375565;,
  0.282845;0.912044;0.296941;,
  0.957220;0.136960;0.254895;,
  0.941419;0.275102;0.195061;,
  0.824903;0.548838;0.135322;,
  0.623918;0.772157;0.120418;,
  0.422366;0.892194;0.159993;,
  0.327572;0.919864;0.215747;,
  0.133026;-0.944186;0.301359;,
  0.283940;-0.917574;0.278274;,
  0.275104;-0.941418;0.195062;,
  0.136961;-0.957220;0.254896;,
  0.546314;-0.801706;0.242506;,
  0.528212;-0.836553;0.145505;,
  0.739903;-0.648650;0.178314;,
  0.743578;-0.660134;0.106370;,
  0.890333;-0.449644;0.071609;,
  0.868203;-0.495490;-0.026720;,
  0.946838;-0.321124;0.019428;,
  0.895316;-0.432607;-0.106119;,
  0.128780;-0.928939;0.347114;,
  0.290641;-0.886691;0.359592;,
  0.558424;-0.758128;0.336756;,
  0.732347;-0.633811;0.248900;,
  0.901643;-0.397363;0.170712;,
  0.969155;-0.199735;0.144376;,
  0.000000;-1.000000;-0.000000;,
  0.011238;-0.999902;-0.008384;,
  0.022479;-0.999607;-0.016769;,
  0.001540;-0.999867;0.016236;,
  0.007260;-0.999321;0.036116;,
  -0.082802;-0.996542;-0.006926;,
  -0.088377;-0.995079;0.044809;,
  -0.216221;-0.976193;0.017191;,
  -0.165612;-0.981870;0.092218;,
  -0.285023;-0.953502;0.097960;,
  -0.183536;-0.962548;0.199538;,
  -0.004163;-0.999985;-0.003588;,
  -0.077001;-0.995304;-0.058651;,
  -0.265180;-0.962442;-0.058178;,
  -0.380610;-0.924719;-0.005646;,
  0.316779;0.943398;0.098239;,
  -0.113661;0.987668;0.107668;,
  -0.270209;-0.652599;-0.707886;,
  0.281077;-0.673997;-0.683171;,
  0.682701;-0.541564;-0.490537;,
  -0.178849;-0.492815;0.851555;,
  -0.351823;-0.447380;0.822236;;
  152;
  4;0,1,1,6;,
  4;1,2,7,1;,
  4;2,3,8,7;,
  4;3,4,9,8;,
  4;4,5,10,9;,
  4;6,1,11,6;,
  4;1,7,12,11;,
  4;7,8,13,12;,
  4;8,9,14,13;,
  4;9,10,15,14;,
  4;137,138,138,139;,
  4;138,140,141,138;,
  4;140,142,143,141;,
  4;142,144,145,143;,
  4;144,146,147,145;,
  4;137,148,138,137;,
  4;148,149,140,138;,
  4;149,150,142,140;,
  4;150,151,144,142;,
  4;151,152,146,144;,
  4;16,17,23,22;,
  4;17,18,24,23;,
  4;18,19,25,24;,
  4;19,20,26,25;,
  4;20,21,27,26;,
  4;22,23,29,28;,
  4;23,24,30,29;,
  4;24,25,31,30;,
  4;25,26,32,31;,
  4;26,27,33,32;,
  4;153,154,155,156;,
  4;154,157,158,155;,
  4;157,159,160,158;,
  4;159,161,162,160;,
  4;161,163,164,162;,
  4;165,166,154,153;,
  4;166,167,157,154;,
  4;167,168,159,157;,
  4;168,169,161,159;,
  4;169,170,163,161;,
  4;34,40,41,35;,
  4;35,41,42,36;,
  4;36,42,43,37;,
  4;37,43,44,38;,
  4;38,44,45,39;,
  4;40,46,47,41;,
  4;41,47,48,42;,
  4;42,48,49,43;,
  4;43,49,50,44;,
  4;44,50,51,45;,
  4;171,172,173,174;,
  4;174,173,175,176;,
  4;176,175,177,178;,
  4;178,177,179,180;,
  4;180,179,181,182;,
  4;183,171,174,184;,
  4;184,174,176,185;,
  4;185,176,178,186;,
  4;186,178,180,187;,
  4;187,180,182,188;,
  4;52,58,59,53;,
  4;53,59,60,54;,
  4;54,60,61,55;,
  4;55,61,62,56;,
  4;56,62,63,57;,
  4;58,64,65,59;,
  4;59,65,66,60;,
  4;60,66,67,61;,
  4;61,67,68,62;,
  4;62,68,69,63;,
  4;189,190,191,192;,
  4;192,191,193,194;,
  4;194,193,195,196;,
  4;196,195,197,198;,
  4;198,197,199,200;,
  4;201,189,192,202;,
  4;202,192,194,203;,
  4;203,194,196,204;,
  4;204,196,198,205;,
  4;205,198,200,206;,
  4;70,71,77,76;,
  4;71,72,78,77;,
  4;72,73,79,78;,
  4;73,74,80,79;,
  4;74,75,81,80;,
  4;76,77,83,82;,
  4;77,78,84,83;,
  4;78,79,85,84;,
  4;79,80,86,85;,
  4;80,81,87,86;,
  4;207,208,209,210;,
  4;208,211,212,209;,
  4;211,213,214,212;,
  4;213,215,216,214;,
  4;215,217,218,216;,
  4;219,220,208,207;,
  4;220,221,211,208;,
  4;221,222,213,211;,
  4;222,223,215,213;,
  4;223,224,217,215;,
  4;88,89,94,88;,
  4;89,90,95,94;,
  4;90,91,96,95;,
  4;91,92,97,96;,
  4;92,93,98,97;,
  4;88,94,88,88;,
  4;94,95,99,88;,
  4;95,96,100,99;,
  4;96,97,101,100;,
  4;97,98,102,101;,
  4;225,226,227,225;,
  4;226,228,229,227;,
  4;228,230,231,229;,
  4;230,232,233,231;,
  4;232,234,235,233;,
  4;225,225,226,225;,
  4;225,236,228,226;,
  4;236,237,230,228;,
  4;237,238,232,230;,
  4;238,239,234,232;,
  4;104,109,112,106;,
  4;109,110,113,112;,
  4;110,111,114,113;,
  4;111,118,120,114;,
  4;118,119,121,120;,
  4;124,125,128,127;,
  4;125,126,129,128;,
  4;126,103,105,129;,
  4;119,118,111,133;,
  4;133,111,110,134;,
  4;134,110,109,104;,
  4;135,117,122,123;,
  4;136,116,117,135;,
  4;108,115,116,136;,
  4;105,103,104,106;,
  4;121,119,124,127;,
  4;240,124,119,133;,
  4;241,240,133,134;,
  4;103,241,134,104;,
  4;130,131,135,123;,
  4;131,132,136,135;,
  4;132,107,108,136;,
  4;106,112,115,108;,
  4;112,242,116,115;,
  4;242,243,117,116;,
  4;243,244,122,117;,
  4;244,121,123,122;,
  4;127,128,131,130;,
  4;128,129,245,131;,
  4;129,105,246,245;,
  4;105,106,108,107;,
  4;121,127,130,123;;
 }
 MeshTextureCoords {
  147;
  0.488200;-0.057850;,
  0.597780;-0.051170;,
  0.586390;0.475480;,
  0.484040;0.458800;,
  0.707940;-0.022250;,
  0.693480;0.469920;,
  0.791950;-0.035600;,
  0.794740;0.347560;,
  0.896810;-0.044490;,
  0.915460;0.342000;,
  0.993340;-0.035600;,
  1.029500;0.508850;,
  0.593330;0.964400;,
  0.488200;1.020020;,
  0.700420;1.014460;,
  0.793340;0.892100;,
  0.893200;1.003330;,
  0.993340;0.964400;,
  0.025310;0.031140;,
  0.228090;-0.096780;,
  0.203060;0.486660;,
  -0.006670;0.464410;,
  0.365520;0.008890;,
  0.387770;0.520030;,
  0.597780;-0.051170;,
  0.586380;0.475530;,
  0.791950;-0.035600;,
  0.794730;0.347610;,
  0.993340;-0.035600;,
  1.029490;0.508900;,
  0.137710;1.159060;,
  -0.006670;0.964400;,
  0.391940;1.070070;,
  0.593330;0.964400;,
  0.793340;0.892100;,
  0.993340;0.964400;,
  0.025310;0.031140;,
  -0.006670;0.464410;,
  0.203060;0.486660;,
  0.228090;-0.096780;,
  0.387770;0.520030;,
  0.365520;0.008890;,
  0.586380;0.475530;,
  0.597780;-0.051170;,
  0.794730;0.347610;,
  0.791950;-0.035600;,
  1.029490;0.508900;,
  0.993340;-0.035600;,
  -0.006670;0.964400;,
  0.137710;1.159060;,
  0.391940;1.070070;,
  0.593330;0.964400;,
  0.793340;0.892100;,
  0.993340;0.964400;,
  0.025310;0.031140;,
  -0.006670;0.464410;,
  0.203060;0.486660;,
  0.228090;-0.096780;,
  0.387770;0.520030;,
  0.365520;0.008890;,
  0.586380;0.475530;,
  0.597780;-0.051170;,
  0.794730;0.347610;,
  0.791950;-0.035600;,
  1.029490;0.508900;,
  0.993340;-0.035600;,
  -0.006670;0.964400;,
  0.137710;1.159060;,
  0.391940;1.070070;,
  0.593330;0.964400;,
  0.793340;0.892100;,
  0.993340;0.964400;,
  0.025310;0.031140;,
  0.228090;-0.096780;,
  0.203060;0.486660;,
  -0.006670;0.464410;,
  0.365520;0.008890;,
  0.387770;0.520030;,
  0.597780;-0.051170;,
  0.586380;0.475530;,
  0.791950;-0.035600;,
  0.794730;0.347610;,
  0.993340;-0.035600;,
  1.029490;0.508900;,
  0.137710;1.159060;,
  -0.006670;0.964400;,
  0.391940;1.070070;,
  0.593330;0.964400;,
  0.793340;0.892100;,
  0.993340;0.964400;,
  0.488200;-0.057850;,
  0.597780;-0.051170;,
  0.586390;0.475480;,
  0.484040;0.458800;,
  0.707940;-0.022250;,
  0.693480;0.469920;,
  0.791950;-0.035600;,
  0.794740;0.347560;,
  0.896810;-0.044490;,
  0.915460;0.342000;,
  0.993340;-0.035600;,
  1.029500;0.508850;,
  0.593330;0.964400;,
  0.488200;1.020020;,
  0.700420;1.014460;,
  0.793340;0.892100;,
  0.893200;1.003330;,
  0.993340;0.964400;,
  0.051210;0.258380;,
  0.125000;0.304090;,
  0.125000;0.426320;,
  0.051210;0.402510;,
  0.198790;0.258380;,
  0.198790;0.402510;,
  0.301210;0.258380;,
  0.301210;0.402510;,
  0.375000;0.304090;,
  0.375000;0.426320;,
  0.448790;0.258380;,
  0.448790;0.402510;,
  0.625000;0.304090;,
  0.698790;0.258380;,
  0.698790;0.402510;,
  0.625000;0.426320;,
  0.801210;0.258380;,
  0.801210;0.402510;,
  0.875000;0.304090;,
  0.875000;0.426320;,
  0.375000;0.140220;,
  0.125000;0.140220;,
  0.375000;0.859780;,
  0.301210;0.741620;,
  0.375000;0.695910;,
  0.448790;0.741620;,
  0.125000;0.859780;,
  0.198790;0.741620;,
  0.051210;0.741620;,
  0.125000;0.695910;,
  1.051210;0.258380;,
  1.051210;0.402510;,
  1.125000;0.140220;,
  0.625000;0.695910;,
  0.698790;0.741620;,
  0.801210;0.741620;,
  1.125000;0.859780;,
  0.875000;0.695910;,
  1.051210;0.741620;;
 }
 MeshVertexColors {
  147;
  0;1.000000;1.000000;1.000000;1.000000;,
  1;1.000000;1.000000;1.000000;1.000000;,
  2;1.000000;1.000000;1.000000;1.000000;,
  3;1.000000;1.000000;1.000000;1.000000;,
  4;1.000000;1.000000;1.000000;1.000000;,
  5;1.000000;1.000000;1.000000;1.000000;,
  6;1.000000;1.000000;1.000000;1.000000;,
  7;1.000000;1.000000;1.000000;1.000000;,
  8;1.000000;1.000000;1.000000;1.000000;,
  9;1.000000;1.000000;1.000000;1.000000;,
  10;1.000000;1.000000;1.000000;1.000000;,
  11;1.000000;1.000000;1.000000;1.000000;,
  12;1.000000;1.000000;1.000000;1.000000;,
  13;1.000000;1.000000;1.000000;1.000000;,
  14;1.000000;1.000000;1.000000;1.000000;,
  15;1.000000;1.000000;1.000000;1.000000;,
  16;1.000000;1.000000;1.000000;1.000000;,
  17;1.000000;1.000000;1.000000;1.000000;,
  18;1.000000;1.000000;1.000000;1.000000;,
  19;1.000000;1.000000;1.000000;1.000000;,
  20;1.000000;1.000000;1.000000;1.000000;,
  21;1.000000;1.000000;1.000000;1.000000;,
  22;1.000000;1.000000;1.000000;1.000000;,
  23;1.000000;1.000000;1.000000;1.000000;,
  24;1.000000;1.000000;1.000000;1.000000;,
  25;1.000000;1.000000;1.000000;1.000000;,
  26;1.000000;1.000000;1.000000;1.000000;,
  27;1.000000;1.000000;1.000000;1.000000;,
  28;1.000000;1.000000;1.000000;1.000000;,
  29;1.000000;1.000000;1.000000;1.000000;,
  30;1.000000;1.000000;1.000000;1.000000;,
  31;1.000000;1.000000;1.000000;1.000000;,
  32;1.000000;1.000000;1.000000;1.000000;,
  33;1.000000;1.000000;1.000000;1.000000;,
  34;1.000000;1.000000;1.000000;1.000000;,
  35;1.000000;1.000000;1.000000;1.000000;,
  36;1.000000;1.000000;1.000000;1.000000;,
  37;1.000000;1.000000;1.000000;1.000000;,
  38;1.000000;1.000000;1.000000;1.000000;,
  39;1.000000;1.000000;1.000000;1.000000;,
  40;1.000000;1.000000;1.000000;1.000000;,
  41;1.000000;1.000000;1.000000;1.000000;,
  42;1.000000;1.000000;1.000000;1.000000;,
  43;1.000000;1.000000;1.000000;1.000000;,
  44;1.000000;1.000000;1.000000;1.000000;,
  45;1.000000;1.000000;1.000000;1.000000;,
  46;1.000000;1.000000;1.000000;1.000000;,
  47;1.000000;1.000000;1.000000;1.000000;,
  48;1.000000;1.000000;1.000000;1.000000;,
  49;1.000000;1.000000;1.000000;1.000000;,
  50;1.000000;1.000000;1.000000;1.000000;,
  51;1.000000;1.000000;1.000000;1.000000;,
  52;1.000000;1.000000;1.000000;1.000000;,
  53;1.000000;1.000000;1.000000;1.000000;,
  54;1.000000;1.000000;1.000000;1.000000;,
  55;1.000000;1.000000;1.000000;1.000000;,
  56;1.000000;1.000000;1.000000;1.000000;,
  57;1.000000;1.000000;1.000000;1.000000;,
  58;1.000000;1.000000;1.000000;1.000000;,
  59;1.000000;1.000000;1.000000;1.000000;,
  60;1.000000;1.000000;1.000000;1.000000;,
  61;1.000000;1.000000;1.000000;1.000000;,
  62;1.000000;1.000000;1.000000;1.000000;,
  63;1.000000;1.000000;1.000000;1.000000;,
  64;1.000000;1.000000;1.000000;1.000000;,
  65;1.000000;1.000000;1.000000;1.000000;,
  66;1.000000;1.000000;1.000000;1.000000;,
  67;1.000000;1.000000;1.000000;1.000000;,
  68;1.000000;1.000000;1.000000;1.000000;,
  69;1.000000;1.000000;1.000000;1.000000;,
  70;1.000000;1.000000;1.000000;1.000000;,
  71;1.000000;1.000000;1.000000;1.000000;,
  72;1.000000;1.000000;1.000000;1.000000;,
  73;1.000000;1.000000;1.000000;1.000000;,
  74;1.000000;1.000000;1.000000;1.000000;,
  75;1.000000;1.000000;1.000000;1.000000;,
  76;1.000000;1.000000;1.000000;1.000000;,
  77;1.000000;1.000000;1.000000;1.000000;,
  78;1.000000;1.000000;1.000000;1.000000;,
  79;1.000000;1.000000;1.000000;1.000000;,
  80;1.000000;1.000000;1.000000;1.000000;,
  81;1.000000;1.000000;1.000000;1.000000;,
  82;1.000000;1.000000;1.000000;1.000000;,
  83;1.000000;1.000000;1.000000;1.000000;,
  84;1.000000;1.000000;1.000000;1.000000;,
  85;1.000000;1.000000;1.000000;1.000000;,
  86;1.000000;1.000000;1.000000;1.000000;,
  87;1.000000;1.000000;1.000000;1.000000;,
  88;1.000000;1.000000;1.000000;1.000000;,
  89;1.000000;1.000000;1.000000;1.000000;,
  90;1.000000;1.000000;1.000000;1.000000;,
  91;1.000000;1.000000;1.000000;1.000000;,
  92;1.000000;1.000000;1.000000;1.000000;,
  93;1.000000;1.000000;1.000000;1.000000;,
  94;1.000000;1.000000;1.000000;1.000000;,
  95;1.000000;1.000000;1.000000;1.000000;,
  96;1.000000;1.000000;1.000000;1.000000;,
  97;1.000000;1.000000;1.000000;1.000000;,
  98;1.000000;1.000000;1.000000;1.000000;,
  99;1.000000;1.000000;1.000000;1.000000;,
  100;1.000000;1.000000;1.000000;1.000000;,
  101;1.000000;1.000000;1.000000;1.000000;,
  102;1.000000;1.000000;1.000000;1.000000;,
  103;1.000000;1.000000;1.000000;1.000000;,
  104;1.000000;1.000000;1.000000;1.000000;,
  105;1.000000;1.000000;1.000000;1.000000;,
  106;1.000000;1.000000;1.000000;1.000000;,
  107;1.000000;1.000000;1.000000;1.000000;,
  108;1.000000;1.000000;1.000000;1.000000;,
  109;1.000000;1.000000;1.000000;1.000000;,
  110;1.000000;1.000000;1.000000;1.000000;,
  111;1.000000;1.000000;1.000000;1.000000;,
  112;1.000000;1.000000;1.000000;1.000000;,
  113;1.000000;1.000000;1.000000;1.000000;,
  114;1.000000;1.000000;1.000000;1.000000;,
  115;1.000000;1.000000;1.000000;1.000000;,
  116;1.000000;1.000000;1.000000;1.000000;,
  117;1.000000;1.000000;1.000000;1.000000;,
  118;1.000000;1.000000;1.000000;1.000000;,
  119;1.000000;1.000000;1.000000;1.000000;,
  120;1.000000;1.000000;1.000000;1.000000;,
  121;1.000000;1.000000;1.000000;1.000000;,
  122;1.000000;1.000000;1.000000;1.000000;,
  123;1.000000;1.000000;1.000000;1.000000;,
  124;1.000000;1.000000;1.000000;1.000000;,
  125;1.000000;1.000000;1.000000;1.000000;,
  126;1.000000;1.000000;1.000000;1.000000;,
  127;1.000000;1.000000;1.000000;1.000000;,
  128;1.000000;1.000000;1.000000;1.000000;,
  129;1.000000;1.000000;1.000000;1.000000;,
  130;1.000000;1.000000;1.000000;1.000000;,
  131;1.000000;1.000000;1.000000;1.000000;,
  132;1.000000;1.000000;1.000000;1.000000;,
  133;1.000000;1.000000;1.000000;1.000000;,
  134;1.000000;1.000000;1.000000;1.000000;,
  135;1.000000;1.000000;1.000000;1.000000;,
  136;1.000000;1.000000;1.000000;1.000000;,
  137;1.000000;1.000000;1.000000;1.000000;,
  138;1.000000;1.000000;1.000000;1.000000;,
  139;1.000000;1.000000;1.000000;1.000000;,
  140;1.000000;1.000000;1.000000;1.000000;,
  141;1.000000;1.000000;1.000000;1.000000;,
  142;1.000000;1.000000;1.000000;1.000000;,
  143;1.000000;1.000000;1.000000;1.000000;,
  144;1.000000;1.000000;1.000000;1.000000;,
  145;1.000000;1.000000;1.000000;1.000000;,
  146;1.000000;1.000000;1.000000;1.000000;;
 }
}
